"P","v:0","v:1","v:2","delP","rho","mu","vtkValidPointMask","arc_length","Points:0","Points:1","Points:2"
1e+05,0,0,0,2.1116,1,1,1,0,0,0.5,0
1e+05,-3.0889e-05,0.0017171,0,2.0957,1,1,1,0.001,0.001,0.5,0
1e+05,-6.1777e-05,0.0034342,0,2.0797,1,1,1,0.002,0.002,0.5,0
1e+05,-9.2666e-05,0.0051514,0,2.0638,1,1,1,0.003,0.003,0.5,0
1e+05,-0.00012355,0.0068685,0,2.0479,1,1,1,0.004,0.004,0.5,0
1e+05,-0.00015444,0.0085856,0,2.0319,1,1,1,0.005,0.005,0.5,0
1e+05,-0.00018533,0.010303,0,2.016,1,1,1,0.006,0.006,0.5,0
1e+05,-0.00021622,0.01202,0,2,1,1,1,0.007,0.007,0.5,0
1e+05,-0.00025855,0.013725,0,1.9869,1,1,1,0.008,0.008,0.5,0
1e+05,-0.00035048,0.015375,0,1.9862,1,1,1,0.009,0.009,0.5,0
1e+05,-0.0004424,0.017026,0,1.9855,1,1,1,0.01,0.01,0.5,0
1e+05,-0.00053432,0.018676,0,1.9848,1,1,1,0.011,0.011,0.5,0
1e+05,-0.00062624,0.020327,0,1.984,1,1,1,0.012,0.012,0.5,0
1e+05,-0.00071817,0.021978,0,1.9833,1,1,1,0.013,0.013,0.5,0
1e+05,-0.00081009,0.023628,0,1.9826,1,1,1,0.014,0.014,0.5,0
1e+05,-0.00090201,0.025279,0,1.9819,1,1,1,0.015,0.015,0.5,0
1e+05,-0.0010155,0.026909,0,1.9753,1,1,1,0.016,0.016,0.5,0
1e+05,-0.001165,0.028505,0,1.9589,1,1,1,0.017,0.017,0.5,0
1e+05,-0.0013145,0.030101,0,1.9426,1,1,1,0.018,0.018,0.5,0
1e+05,-0.001464,0.031697,0,1.9263,1,1,1,0.019,0.019,0.5,0
1e+05,-0.0016136,0.033293,0,1.9099,1,1,1,0.02,0.02,0.5,0
1e+05,-0.0017631,0.034889,0,1.8936,1,1,1,0.021,0.021,0.5,0
1e+05,-0.0019126,0.036485,0,1.8772,1,1,1,0.022,0.022,0.5,0
1e+05,-0.0020621,0.038081,0,1.8609,1,1,1,0.023,0.023,0.5,0
1e+05,-0.0022426,0.039644,0,1.8529,1,1,1,0.024,0.024,0.5,0
1e+05,-0.0024473,0.041182,0,1.8515,1,1,1,0.025,0.025,0.5,0
1e+05,-0.002652,0.042719,0,1.8501,1,1,1,0.026,0.026,0.5,0
1e+05,-0.0028567,0.044257,0,1.8487,1,1,1,0.027,0.027,0.5,0
1e+05,-0.0030614,0.045795,0,1.8472,1,1,1,0.028,0.028,0.5,0
1e+05,-0.0032661,0.047333,0,1.8458,1,1,1,0.029,0.029,0.5,0
1e+05,-0.0034708,0.04887,0,1.8444,1,1,1,0.03,0.03,0.5,0
1e+05,-0.0036755,0.050408,0,1.843,1,1,1,0.031,0.031,0.5,0
1e+05,-0.0039187,0.051901,0,1.8301,1,1,1,0.032,0.032,0.5,0
1e+05,-0.0041748,0.053379,0,1.8135,1,1,1,0.033,0.033,0.5,0
1e+05,-0.0044309,0.054856,0,1.7968,1,1,1,0.034,0.034,0.5,0
1e+05,-0.0046871,0.056334,0,1.7801,1,1,1,0.035,0.035,0.5,0
1e+05,-0.0049432,0.057812,0,1.7635,1,1,1,0.036,0.036,0.5,0
1e+05,-0.0051993,0.05929,0,1.7468,1,1,1,0.037,0.037,0.5,0
1e+05,-0.0054554,0.060768,0,1.7301,1,1,1,0.038,0.038,0.5,0
1e+05,-0.0057115,0.062246,0,1.7135,1,1,1,0.039,0.039,0.5,0
1e+05,-0.0060135,0.063664,0,1.7105,1,1,1,0.04,0.04,0.5,0
1e+05,-0.0063185,0.065079,0,1.7085,1,1,1,0.041,0.041,0.5,0
1e+05,-0.0066236,0.066494,0,1.7065,1,1,1,0.042,0.042,0.5,0
1e+05,-0.0069286,0.067909,0,1.7045,1,1,1,0.043,0.043,0.5,0
1e+05,-0.0072337,0.069324,0,1.7025,1,1,1,0.044,0.044,0.5,0
1e+05,-0.0075387,0.070739,0,1.7005,1,1,1,0.045,0.045,0.5,0
1e+05,-0.0078437,0.072154,0,1.6984,1,1,1,0.046,0.046,0.5,0
1e+05,-0.0081544,0.073561,0,1.6946,1,1,1,0.047,0.047,0.5,0
1e+05,-0.0085045,0.074912,0,1.6777,1,1,1,0.048,0.048,0.5,0
1e+05,-0.0088546,0.076263,0,1.6609,1,1,1,0.049,0.049,0.5,0
1e+05,-0.0092047,0.077615,0,1.644,1,1,1,0.05,0.05,0.5,0
1e+05,-0.0095549,0.078966,0,1.6272,1,1,1,0.051,0.051,0.5,0
1e+05,-0.009905,0.080317,0,1.6103,1,1,1,0.052,0.052,0.5,0
1e+05,-0.010255,0.081668,0,1.5934,1,1,1,0.053,0.053,0.5,0
1e+05,-0.010605,0.083019,0,1.5766,1,1,1,0.054,0.054,0.5,0
1e+05,-0.010969,0.084349,0,1.5642,1,1,1,0.055,0.055,0.5,0
1e+05,-0.011361,0.085634,0,1.5618,1,1,1,0.056,0.056,0.5,0
1e+05,-0.011754,0.086918,0,1.5593,1,1,1,0.057,0.057,0.5,0
1e+05,-0.012147,0.088203,0,1.5568,1,1,1,0.058,0.058,0.5,0
1e+05,-0.012539,0.089488,0,1.5543,1,1,1,0.059,0.059,0.5,0
1e+05,-0.012932,0.090772,0,1.5518,1,1,1,0.06,0.06,0.5,0
1e+05,-0.013325,0.092057,0,1.5494,1,1,1,0.061,0.061,0.5,0
1e+05,-0.013717,0.093341,0,1.5469,1,1,1,0.062,0.062,0.5,0
1e+05,-0.014129,0.094592,0,1.5372,1,1,1,0.063,0.063,0.5,0
1e+05,-0.01456,0.09581,0,1.5203,1,1,1,0.064,0.064,0.5,0
1e+05,-0.014992,0.097028,0,1.5034,1,1,1,0.065,0.065,0.5,0
1e+05,-0.015423,0.098245,0,1.4866,1,1,1,0.066,0.066,0.5,0
1e+05,-0.015854,0.099463,0,1.4697,1,1,1,0.067,0.067,0.5,0
1e+05,-0.016286,0.10068,0,1.4528,1,1,1,0.068,0.068,0.5,0
1e+05,-0.016717,0.1019,0,1.4359,1,1,1,0.069,0.069,0.5,0
1e+05,-0.017148,0.10312,0,1.419,1,1,1,0.07,0.07,0.5,0
1e+05,-0.017604,0.10429,0,1.4118,1,1,1,0.071,0.071,0.5,0
1e+05,-0.018072,0.10543,0,1.4091,1,1,1,0.072,0.072,0.5,0
1e+05,-0.018539,0.10658,0,1.4063,1,1,1,0.073,0.073,0.5,0
1e+05,-0.019007,0.10773,0,1.4035,1,1,1,0.074,0.074,0.5,0
1e+05,-0.019474,0.10888,0,1.4007,1,1,1,0.075,0.075,0.5,0
1e+05,-0.019942,0.11003,0,1.398,1,1,1,0.076,0.076,0.5,0
1e+05,-0.020409,0.11118,0,1.3952,1,1,1,0.077,0.077,0.5,0
1e+05,-0.020876,0.11233,0,1.3924,1,1,1,0.078,0.078,0.5,0
1e+05,-0.021372,0.11341,0,1.3774,1,1,1,0.079,0.079,0.5,0
1e+05,-0.021872,0.11449,0,1.3607,1,1,1,0.08,0.08,0.5,0
1e+05,-0.022371,0.11557,0,1.344,1,1,1,0.081,0.081,0.5,0
1e+05,-0.022871,0.11665,0,1.3272,1,1,1,0.082,0.082,0.5,0
1e+05,-0.023371,0.11773,0,1.3105,1,1,1,0.083,0.083,0.5,0
1e+05,-0.023871,0.11881,0,1.2937,1,1,1,0.084,0.084,0.5,0
1e+05,-0.02437,0.11989,0,1.277,1,1,1,0.085,0.085,0.5,0
1e+05,-0.024872,0.12097,0,1.2611,1,1,1,0.086,0.086,0.5,0
1e+05,-0.025401,0.12198,0,1.2582,1,1,1,0.087,0.087,0.5,0
1e+05,-0.025931,0.12299,0,1.2553,1,1,1,0.088,0.088,0.5,0
1e+05,-0.02646,0.124,0,1.2524,1,1,1,0.089,0.089,0.5,0
1e+05,-0.02699,0.125,0,1.2495,1,1,1,0.09,0.09,0.5,0
1e+05,-0.027519,0.12601,0,1.2466,1,1,1,0.091,0.091,0.5,0
1e+05,-0.028049,0.12702,0,1.2437,1,1,1,0.092,0.092,0.5,0
1e+05,-0.028578,0.12803,0,1.2408,1,1,1,0.093,0.093,0.5,0
1e+05,-0.029114,0.12902,0,1.2346,1,1,1,0.094,0.094,0.5,0
1e+05,-0.02967,0.12996,0,1.2181,1,1,1,0.095,0.095,0.5,0
1e+05,-0.030226,0.1309,0,1.2017,1,1,1,0.096,0.096,0.5,0
1e+05,-0.030781,0.13184,0,1.1853,1,1,1,0.097,0.097,0.5,0
1e+05,-0.031337,0.13278,0,1.1689,1,1,1,0.098,0.098,0.5,0
1e+05,-0.031892,0.13372,0,1.1525,1,1,1,0.099,0.099,0.5,0
1e+05,-0.032448,0.13466,0,1.1361,1,1,1,0.1,0.1,0.5,0
1e+05,-0.033003,0.1356,0,1.1197,1,1,1,0.101,0.101,0.5,0
1e+05,-0.033569,0.1365,0,1.1092,1,1,1,0.102,0.102,0.5,0
1e+05,-0.034149,0.13737,0,1.1064,1,1,1,0.103,0.103,0.5,0
1e+05,-0.034728,0.13824,0,1.1035,1,1,1,0.104,0.104,0.5,0
1e+05,-0.035307,0.13911,0,1.1006,1,1,1,0.105,0.105,0.5,0
1e+05,-0.035886,0.13998,0,1.0978,1,1,1,0.106,0.106,0.5,0
1e+05,-0.036465,0.14084,0,1.0949,1,1,1,0.107,0.107,0.5,0
1e+05,-0.037045,0.14171,0,1.0921,1,1,1,0.108,0.108,0.5,0
1e+05,-0.037624,0.14258,0,1.0892,1,1,1,0.109,0.109,0.5,0
1e+05,-0.038215,0.1434,0,1.0782,1,1,1,0.11,0.11,0.5,0
1e+05,-0.038815,0.1442,0,1.0623,1,1,1,0.111,0.111,0.5,0
1e+05,-0.039414,0.145,0,1.0464,1,1,1,0.112,0.112,0.5,0
1e+05,-0.040013,0.1458,0,1.0305,1,1,1,0.113,0.113,0.5,0
1e+05,-0.040612,0.14659,0,1.0146,1,1,1,0.114,0.114,0.5,0
1e+05,-0.041211,0.14739,0,0.99866,1,1,1,0.115,0.115,0.5,0
1e+05,-0.041811,0.14819,0,0.98275,1,1,1,0.116,0.116,0.5,0
1e+05,-0.04241,0.14899,0,0.96684,1,1,1,0.117,0.117,0.5,0
1e+05,-0.043024,0.14973,0,0.96169,1,1,1,0.118,0.118,0.5,0
1e+05,-0.043641,0.15045,0,0.95903,1,1,1,0.119,0.119,0.5,0
1e+05,-0.044258,0.15118,0,0.95637,1,1,1,0.12,0.12,0.5,0
1e+05,-0.044875,0.15191,0,0.95371,1,1,1,0.121,0.121,0.5,0
1e+05,-0.045492,0.15263,0,0.95105,1,1,1,0.122,0.122,0.5,0
1e+05,-0.04611,0.15336,0,0.94839,1,1,1,0.123,0.123,0.5,0
1e+05,-0.046727,0.15409,0,0.94573,1,1,1,0.124,0.124,0.5,0
1e+05,-0.047344,0.15481,0,0.94307,1,1,1,0.125,0.125,0.5,0
1e+05,-0.047975,0.15547,0,0.92781,1,1,1,0.126,0.126,0.5,0
1e+05,-0.048607,0.15613,0,0.91256,1,1,1,0.127,0.127,0.5,0
1e+05,-0.049238,0.15679,0,0.8973,1,1,1,0.128,0.128,0.5,0
1e+05,-0.04987,0.15744,0,0.88205,1,1,1,0.129,0.129,0.5,0
1e+05,-0.050501,0.1581,0,0.8668,1,1,1,0.13,0.13,0.5,0
1e+05,-0.051133,0.15876,0,0.85154,1,1,1,0.131,0.131,0.5,0
1e+05,-0.051764,0.15941,0,0.83629,1,1,1,0.132,0.132,0.5,0
1e+05,-0.052398,0.16006,0,0.82346,1,1,1,0.133,0.133,0.5,0
1e+05,-0.053042,0.16065,0,0.82113,1,1,1,0.134,0.134,0.5,0
1e+05,-0.053686,0.16123,0,0.8188,1,1,1,0.135,0.135,0.5,0
1e+05,-0.054329,0.16182,0,0.81646,1,1,1,0.136,0.136,0.5,0
1e+05,-0.054973,0.16241,0,0.81413,1,1,1,0.137,0.137,0.5,0
1e+05,-0.055617,0.163,0,0.81179,1,1,1,0.138,0.138,0.5,0
1e+05,-0.056261,0.16358,0,0.80946,1,1,1,0.139,0.139,0.5,0
1e+05,-0.056905,0.16417,0,0.80713,1,1,1,0.14,0.14,0.5,0
1e+05,-0.057552,0.16473,0,0.80024,1,1,1,0.141,0.141,0.5,0
1e+05,-0.058205,0.16525,0,0.78578,1,1,1,0.142,0.142,0.5,0
1e+05,-0.058857,0.16577,0,0.77131,1,1,1,0.143,0.143,0.5,0
1e+05,-0.05951,0.16629,0,0.75685,1,1,1,0.144,0.144,0.5,0
1e+05,-0.060163,0.16681,0,0.74238,1,1,1,0.145,0.145,0.5,0
1e+05,-0.060816,0.16733,0,0.72792,1,1,1,0.146,0.146,0.5,0
1e+05,-0.061469,0.16785,0,0.71345,1,1,1,0.147,0.147,0.5,0
1e+05,-0.062122,0.16837,0,0.69899,1,1,1,0.148,0.148,0.5,0
1e+05,-0.062779,0.16885,0,0.69158,1,1,1,0.149,0.149,0.5,0
1e+05,-0.063439,0.1693,0,0.68968,1,1,1,0.15,0.15,0.5,0
1e+05,-0.064099,0.16975,0,0.68777,1,1,1,0.151,0.151,0.5,0
1e+05,-0.06476,0.1702,0,0.68587,1,1,1,0.152,0.152,0.5,0
1e+05,-0.06542,0.17065,0,0.68397,1,1,1,0.153,0.153,0.5,0
1e+05,-0.06608,0.1711,0,0.68206,1,1,1,0.154,0.154,0.5,0
1e+05,-0.06674,0.17156,0,0.68016,1,1,1,0.155,0.155,0.5,0
1e+05,-0.067401,0.17201,0,0.67826,1,1,1,0.156,0.156,0.5,0
1e+05,-0.068064,0.17241,0,0.6676,1,1,1,0.157,0.157,0.5,0
1e+05,-0.068728,0.17279,0,0.65402,1,1,1,0.158,0.158,0.5,0
1e+05,-0.069393,0.17318,0,0.64044,1,1,1,0.159,0.159,0.5,0
1e+05,-0.070057,0.17356,0,0.62687,1,1,1,0.16,0.16,0.5,0
1e+05,-0.070722,0.17395,0,0.61329,1,1,1,0.161,0.161,0.5,0
1e+05,-0.071386,0.17433,0,0.59971,1,1,1,0.162,0.162,0.5,0
1e+05,-0.072051,0.17472,0,0.58613,1,1,1,0.163,0.163,0.5,0
1e+05,-0.072715,0.17511,0,0.57255,1,1,1,0.164,0.164,0.5,0
1e+05,-0.073382,0.17543,0,0.5704,1,1,1,0.165,0.165,0.5,0
1e+05,-0.074049,0.17575,0,0.56901,1,1,1,0.166,0.166,0.5,0
1e+05,-0.074716,0.17607,0,0.56761,1,1,1,0.167,0.167,0.5,0
1e+05,-0.075384,0.17639,0,0.56622,1,1,1,0.168,0.168,0.5,0
1e+05,-0.076051,0.17671,0,0.56482,1,1,1,0.169,0.169,0.5,0
1e+05,-0.076718,0.17703,0,0.56342,1,1,1,0.17,0.17,0.5,0
1e+05,-0.077385,0.17735,0,0.56203,1,1,1,0.171,0.171,0.5,0
1e+05,-0.078052,0.17766,0,0.55923,1,1,1,0.172,0.172,0.5,0
1e+05,-0.078719,0.17792,0,0.54662,1,1,1,0.173,0.173,0.5,0
1e+05,-0.079386,0.17817,0,0.53401,1,1,1,0.174,0.174,0.5,0
1e+05,-0.080053,0.17843,0,0.5214,1,1,1,0.175,0.175,0.5,0
1e+05,-0.08072,0.17868,0,0.50879,1,1,1,0.176,0.176,0.5,0
1e+05,-0.081387,0.17894,0,0.49618,1,1,1,0.177,0.177,0.5,0
1e+05,-0.082054,0.1792,0,0.48357,1,1,1,0.178,0.178,0.5,0
1e+05,-0.082721,0.17945,0,0.47096,1,1,1,0.179,0.179,0.5,0
1e+05,-0.083387,0.17969,0,0.46202,1,1,1,0.18,0.18,0.5,0
1e+05,-0.084053,0.17988,0,0.46118,1,1,1,0.181,0.181,0.5,0
1e+05,-0.084719,0.18008,0,0.46034,1,1,1,0.182,0.182,0.5,0
1e+05,-0.085384,0.18027,0,0.4595,1,1,1,0.183,0.183,0.5,0
1e+05,-0.08605,0.18046,0,0.45865,1,1,1,0.184,0.184,0.5,0
1e+05,-0.086716,0.18066,0,0.45781,1,1,1,0.185,0.185,0.5,0
1e+05,-0.087381,0.18085,0,0.45697,1,1,1,0.186,0.186,0.5,0
1e+05,-0.088047,0.18104,0,0.45613,1,1,1,0.187,0.187,0.5,0
1e+05,-0.088711,0.18121,0,0.44991,1,1,1,0.188,0.188,0.5,0
1e+05,-0.089372,0.18134,0,0.43832,1,1,1,0.189,0.189,0.5,0
1e+05,-0.090034,0.18147,0,0.42672,1,1,1,0.19,0.19,0.5,0
1e+05,-0.090696,0.1816,0,0.41512,1,1,1,0.191,0.191,0.5,0
1e+05,-0.091357,0.18174,0,0.40352,1,1,1,0.192,0.192,0.5,0
1e+05,-0.092019,0.18187,0,0.39193,1,1,1,0.193,0.193,0.5,0
1e+05,-0.092681,0.182,0,0.38033,1,1,1,0.194,0.194,0.5,0
1e+05,-0.093342,0.18214,0,0.36873,1,1,1,0.195,0.195,0.5,0
1e+05,-0.094,0.18223,0,0.36493,1,1,1,0.196,0.196,0.5,0
1e+05,-0.094657,0.1823,0,0.36467,1,1,1,0.197,0.197,0.5,0
1e+05,-0.095314,0.18238,0,0.36441,1,1,1,0.198,0.198,0.5,0
1e+05,-0.09597,0.18245,0,0.36415,1,1,1,0.199,0.199,0.5,0
1e+05,-0.096627,0.18252,0,0.36389,1,1,1,0.2,0.2,0.5,0
1e+05,-0.097283,0.1826,0,0.36363,1,1,1,0.201,0.201,0.5,0
1e+05,-0.09794,0.18267,0,0.36336,1,1,1,0.202,0.202,0.5,0
1e+05,-0.098597,0.18274,0,0.3631,1,1,1,0.203,0.203,0.5,0
1e+05,-0.099247,0.18277,0,0.35384,1,1,1,0.204,0.204,0.5,0
1e+05,-0.099896,0.18278,0,0.34328,1,1,1,0.205,0.205,0.5,0
1e+05,-0.10055,0.1828,0,0.33273,1,1,1,0.206,0.206,0.5,0
1e+05,-0.10119,0.18282,0,0.32217,1,1,1,0.207,0.207,0.5,0
1e+05,-0.10184,0.18283,0,0.31162,1,1,1,0.208,0.208,0.5,0
1e+05,-0.10249,0.18285,0,0.30106,1,1,1,0.209,0.209,0.5,0
1e+05,-0.10314,0.18287,0,0.29051,1,1,1,0.21,0.21,0.5,0
1e+05,-0.10379,0.18288,0,0.28063,1,1,1,0.211,0.211,0.5,0
1e+05,-0.10443,0.18284,0,0.28095,1,1,1,0.212,0.212,0.5,0
1e+05,-0.10507,0.1828,0,0.28127,1,1,1,0.213,0.213,0.5,0
1e+05,-0.10571,0.18276,0,0.28159,1,1,1,0.214,0.214,0.5,0
1e+05,-0.10636,0.18272,0,0.28191,1,1,1,0.215,0.215,0.5,0
1e+05,-0.107,0.18268,0,0.28223,1,1,1,0.216,0.216,0.5,0
1e+05,-0.10764,0.18264,0,0.28255,1,1,1,0.217,0.217,0.5,0
1e+05,-0.10828,0.1826,0,0.28286,1,1,1,0.218,0.218,0.5,0
1e+05,-0.10892,0.18255,0,0.28073,1,1,1,0.219,0.219,0.5,0
1e+05,-0.10955,0.18246,0,0.27122,1,1,1,0.22,0.22,0.5,0
1e+05,-0.11018,0.18237,0,0.26171,1,1,1,0.221,0.221,0.5,0
1e+05,-0.11081,0.18227,0,0.2522,1,1,1,0.222,0.222,0.5,0
1e+05,-0.11144,0.18218,0,0.2427,1,1,1,0.223,0.223,0.5,0
1e+05,-0.11207,0.18209,0,0.23319,1,1,1,0.224,0.224,0.5,0
1e+05,-0.1127,0.18199,0,0.22368,1,1,1,0.225,0.225,0.5,0
1e+05,-0.11333,0.1819,0,0.21417,1,1,1,0.226,0.226,0.5,0
1e+05,-0.11396,0.18179,0,0.20922,1,1,1,0.227,0.227,0.5,0
1e+05,-0.11458,0.18164,0,0.2101,1,1,1,0.228,0.228,0.5,0
1e+05,-0.1152,0.1815,0,0.21099,1,1,1,0.229,0.229,0.5,0
1e+05,-0.11582,0.18135,0,0.21187,1,1,1,0.23,0.23,0.5,0
1e+05,-0.11644,0.18121,0,0.21276,1,1,1,0.231,0.231,0.5,0
1e+05,-0.11706,0.18106,0,0.21364,1,1,1,0.232,0.232,0.5,0
1e+05,-0.11768,0.18092,0,0.21453,1,1,1,0.233,0.233,0.5,0
1e+05,-0.1183,0.18077,0,0.21541,1,1,1,0.234,0.234,0.5,0
1e+05,-0.11891,0.18059,0,0.21045,1,1,1,0.235,0.235,0.5,0
1e+05,-0.11952,0.1804,0,0.20198,1,1,1,0.236,0.236,0.5,0
1e+05,-0.12013,0.18021,0,0.19351,1,1,1,0.237,0.237,0.5,0
1e+05,-0.12074,0.18001,0,0.18504,1,1,1,0.238,0.238,0.5,0
1e+05,-0.12134,0.17982,0,0.17658,1,1,1,0.239,0.239,0.5,0
1e+05,-0.12195,0.17962,0,0.16811,1,1,1,0.24,0.24,0.5,0
1e+05,-0.12256,0.17943,0,0.15964,1,1,1,0.241,0.241,0.5,0
1e+05,-0.12316,0.17923,0,0.15117,1,1,1,0.242,0.242,0.5,0
1e+05,-0.12376,0.179,0,0.15073,1,1,1,0.243,0.243,0.5,0
1e+05,-0.12436,0.17876,0,0.15215,1,1,1,0.244,0.244,0.5,0
1e+05,-0.12495,0.17851,0,0.15357,1,1,1,0.245,0.245,0.5,0
1e+05,-0.12555,0.17827,0,0.15499,1,1,1,0.246,0.246,0.5,0
1e+05,-0.12614,0.17803,0,0.15641,1,1,1,0.247,0.247,0.5,0
1e+05,-0.12674,0.17778,0,0.15783,1,1,1,0.248,0.248,0.5,0
1e+05,-0.12733,0.17754,0,0.15925,1,1,1,0.249,0.249,0.5,0
1e+05,-0.12792,0.1773,0,0.16067,1,1,1,0.25,0.25,0.5,0
1e+05,-0.1285,0.17701,0,0.15322,1,1,1,0.251,0.251,0.5,0
1e+05,-0.12908,0.17672,0,0.14576,1,1,1,0.252,0.252,0.5,0
1e+05,-0.12966,0.17643,0,0.13831,1,1,1,0.253,0.253,0.5,0
1e+05,-0.13024,0.17614,0,0.13086,1,1,1,0.254,0.254,0.5,0
1e+05,-0.13082,0.17585,0,0.1234,1,1,1,0.255,0.255,0.5,0
1e+05,-0.1314,0.17557,0,0.11595,1,1,1,0.256,0.256,0.5,0
1e+05,-0.13198,0.17528,0,0.1085,1,1,1,0.257,0.257,0.5,0
1e+05,-0.13256,0.17498,0,0.1028,1,1,1,0.258,0.258,0.5,0
1e+05,-0.13313,0.17465,0,0.10472,1,1,1,0.259,0.259,0.5,0
1e+05,-0.13369,0.17431,0,0.10663,1,1,1,0.26,0.26,0.5,0
1e+05,-0.13426,0.17398,0,0.10855,1,1,1,0.261,0.261,0.5,0
1e+05,-0.13482,0.17365,0,0.11046,1,1,1,0.262,0.262,0.5,0
1e+05,-0.13539,0.17332,0,0.11238,1,1,1,0.263,0.263,0.5,0
1e+05,-0.13595,0.17298,0,0.11429,1,1,1,0.264,0.264,0.5,0
1e+05,-0.13652,0.17265,0,0.11621,1,1,1,0.265,0.265,0.5,0
1e+05,-0.13708,0.1723,0,0.11498,1,1,1,0.266,0.266,0.5,0
1e+05,-0.13763,0.17193,0,0.10851,1,1,1,0.267,0.267,0.5,0
1e+05,-0.13817,0.17155,0,0.10204,1,1,1,0.268,0.268,0.5,0
1e+05,-0.13872,0.17118,0,0.09557,1,1,1,0.269,0.269,0.5,0
1e+05,-0.13927,0.1708,0,0.089102,1,1,1,0.27,0.27,0.5,0
1e+05,-0.13982,0.17043,0,0.082633,1,1,1,0.271,0.271,0.5,0
1e+05,-0.14037,0.17005,0,0.076164,1,1,1,0.272,0.272,0.5,0
1e+05,-0.14092,0.16968,0,0.069696,1,1,1,0.273,0.273,0.5,0
1e+05,-0.14146,0.16928,0,0.068189,1,1,1,0.274,0.274,0.5,0
1e+05,-0.14199,0.16886,0,0.07055,1,1,1,0.275,0.275,0.5,0
1e+05,-0.14253,0.16845,0,0.07291,1,1,1,0.276,0.276,0.5,0
1e+05,-0.14306,0.16803,0,0.075271,1,1,1,0.277,0.277,0.5,0
1e+05,-0.14359,0.16761,0,0.077631,1,1,1,0.278,0.278,0.5,0
1e+05,-0.14412,0.1672,0,0.079992,1,1,1,0.279,0.279,0.5,0
1e+05,-0.14466,0.16678,0,0.082353,1,1,1,0.28,0.28,0.5,0
1e+05,-0.14519,0.16637,0,0.084713,1,1,1,0.281,0.281,0.5,0
1e+05,-0.14571,0.16592,0,0.08116,1,1,1,0.282,0.282,0.5,0
1e+05,-0.14623,0.16547,0,0.075636,1,1,1,0.283,0.283,0.5,0
1e+05,-0.14674,0.16502,0,0.070112,1,1,1,0.284,0.284,0.5,0
1e+05,-0.14726,0.16456,0,0.064588,1,1,1,0.285,0.285,0.5,0
1e+05,-0.14777,0.16411,0,0.059063,1,1,1,0.286,0.286,0.5,0
1e+05,-0.14829,0.16365,0,0.053539,1,1,1,0.287,0.287,0.5,0
1e+05,-0.1488,0.1632,0,0.048015,1,1,1,0.288,0.288,0.5,0
1e+05,-0.14932,0.16275,0,0.042491,1,1,1,0.289,0.289,0.5,0
1e+05,-0.14982,0.16226,0,0.04473,1,1,1,0.29,0.29,0.5,0
1e+05,-0.15032,0.16177,0,0.047483,1,1,1,0.291,0.291,0.5,0
1e+05,-0.15082,0.16128,0,0.050235,1,1,1,0.292,0.292,0.5,0
1e+05,-0.15131,0.16079,0,0.052988,1,1,1,0.293,0.293,0.5,0
1e+05,-0.15181,0.1603,0,0.055741,1,1,1,0.294,0.294,0.5,0
1e+05,-0.15231,0.15981,0,0.058493,1,1,1,0.295,0.295,0.5,0
1e+05,-0.15281,0.15932,0,0.061246,1,1,1,0.296,0.296,0.5,0
1e+05,-0.1533,0.15882,0,0.063077,1,1,1,0.297,0.297,0.5,0
1e+05,-0.15378,0.1583,0,0.058455,1,1,1,0.298,0.298,0.5,0
1e+05,-0.15426,0.15777,0,0.053833,1,1,1,0.299,0.299,0.5,0
1e+05,-0.15474,0.15725,0,0.049211,1,1,1,0.3,0.3,0.5,0
1e+05,-0.15522,0.15672,0,0.044589,1,1,1,0.301,0.301,0.5,0
1e+05,-0.1557,0.1562,0,0.039968,1,1,1,0.302,0.302,0.5,0
1e+05,-0.15618,0.15567,0,0.035346,1,1,1,0.303,0.303,0.5,0
1e+05,-0.15666,0.15515,0,0.030724,1,1,1,0.304,0.304,0.5,0
1e+05,-0.15714,0.15461,0,0.028508,1,1,1,0.305,0.305,0.5,0
1e+05,-0.1576,0.15405,0,0.031596,1,1,1,0.306,0.306,0.5,0
1e+05,-0.15806,0.1535,0,0.034685,1,1,1,0.307,0.307,0.5,0
1e+05,-0.15853,0.15294,0,0.037773,1,1,1,0.308,0.308,0.5,0
1e+05,-0.15899,0.15238,0,0.040862,1,1,1,0.309,0.309,0.5,0
1e+05,-0.15945,0.15182,0,0.043951,1,1,1,0.31,0.31,0.5,0
1e+05,-0.15991,0.15126,0,0.047039,1,1,1,0.311,0.311,0.5,0
1e+05,-0.16037,0.15071,0,0.050128,1,1,1,0.312,0.312,0.5,0
1e+05,-0.16083,0.15013,0,0.049789,1,1,1,0.313,0.313,0.5,0
1e+05,-0.16127,0.14954,0,0.046022,1,1,1,0.314,0.314,0.5,0
1e+05,-0.16171,0.14896,0,0.042255,1,1,1,0.315,0.315,0.5,0
1e+05,-0.16216,0.14837,0,0.038488,1,1,1,0.316,0.316,0.5,0
1e+05,-0.1626,0.14778,0,0.034721,1,1,1,0.317,0.317,0.5,0
1e+05,-0.16304,0.14719,0,0.030954,1,1,1,0.318,0.318,0.5,0
1e+05,-0.16349,0.1466,0,0.027187,1,1,1,0.319,0.319,0.5,0
1e+05,-0.16393,0.14601,0,0.02342,1,1,1,0.32,0.32,0.5,0
1e+05,-0.16436,0.1454,0,0.02456,1,1,1,0.321,0.321,0.5,0
1e+05,-0.16479,0.14478,0,0.027926,1,1,1,0.322,0.322,0.5,0
1e+05,-0.16521,0.14417,0,0.031292,1,1,1,0.323,0.323,0.5,0
1e+05,-0.16563,0.14355,0,0.034657,1,1,1,0.324,0.324,0.5,0
1e+05,-0.16606,0.14293,0,0.038023,1,1,1,0.325,0.325,0.5,0
1e+05,-0.16648,0.14231,0,0.041389,1,1,1,0.326,0.326,0.5,0
1e+05,-0.16691,0.14169,0,0.044754,1,1,1,0.327,0.327,0.5,0
1e+05,-0.16733,0.14107,0,0.04812,1,1,1,0.328,0.328,0.5,0
1e+05,-0.16774,0.14043,0,0.045952,1,1,1,0.329,0.329,0.5,0
1e+05,-0.16815,0.13979,0,0.042993,1,1,1,0.33,0.33,0.5,0
1e+05,-0.16855,0.13914,0,0.040034,1,1,1,0.331,0.331,0.5,0
1e+05,-0.16896,0.13849,0,0.037075,1,1,1,0.332,0.332,0.5,0
1e+05,-0.16936,0.13785,0,0.034116,1,1,1,0.333,0.333,0.5,0
1e+05,-0.16977,0.1372,0,0.031158,1,1,1,0.334,0.334,0.5,0
1e+05,-0.17017,0.13656,0,0.028199,1,1,1,0.335,0.335,0.5,0
1e+05,-0.17058,0.13591,0,0.025646,1,1,1,0.336,0.336,0.5,0
1e+05,-0.17096,0.13524,0,0.029231,1,1,1,0.337,0.337,0.5,0
1e+05,-0.17135,0.13457,0,0.032816,1,1,1,0.338,0.338,0.5,0
1e+05,-0.17174,0.13389,0,0.036402,1,1,1,0.339,0.339,0.5,0
1e+05,-0.17212,0.13322,0,0.039987,1,1,1,0.34,0.34,0.5,0
1e+05,-0.17251,0.13255,0,0.043572,1,1,1,0.341,0.341,0.5,0
1e+05,-0.1729,0.13188,0,0.047158,1,1,1,0.342,0.342,0.5,0
1e+05,-0.17328,0.13121,0,0.050743,1,1,1,0.343,0.343,0.5,0
1e+05,-0.17367,0.13053,0,0.052882,1,1,1,0.344,0.344,0.5,0
1e+05,-0.17403,0.12983,0,0.050682,1,1,1,0.345,0.345,0.5,0
1e+05,-0.1744,0.12913,0,0.048483,1,1,1,0.346,0.346,0.5,0
1e+05,-0.17477,0.12844,0,0.046283,1,1,1,0.347,0.347,0.5,0
1e+05,-0.17514,0.12774,0,0.044083,1,1,1,0.348,0.348,0.5,0
1e+05,-0.1755,0.12705,0,0.041884,1,1,1,0.349,0.349,0.5,0
1e+05,-0.17587,0.12635,0,0.039684,1,1,1,0.35,0.35,0.5,0
1e+05,-0.17624,0.12565,0,0.037484,1,1,1,0.351,0.351,0.5,0
1e+05,-0.1766,0.12495,0,0.037889,1,1,1,0.352,0.352,0.5,0
1e+05,-0.17694,0.12423,0,0.041635,1,1,1,0.353,0.353,0.5,0
1e+05,-0.17729,0.12351,0,0.045382,1,1,1,0.354,0.354,0.5,0
1e+05,-0.17764,0.12279,0,0.049128,1,1,1,0.355,0.355,0.5,0
1e+05,-0.17799,0.12207,0,0.052875,1,1,1,0.356,0.356,0.5,0
1e+05,-0.17834,0.12135,0,0.056622,1,1,1,0.357,0.357,0.5,0
1e+05,-0.17869,0.12063,0,0.060368,1,1,1,0.358,0.358,0.5,0
1e+05,-0.17903,0.11991,0,0.064115,1,1,1,0.359,0.359,0.5,0
1e+05,-0.17937,0.11918,0,0.06459,1,1,1,0.36,0.36,0.5,0
1e+05,-0.1797,0.11844,0,0.063102,1,1,1,0.361,0.361,0.5,0
1e+05,-0.18003,0.1177,0,0.061614,1,1,1,0.362,0.362,0.5,0
1e+05,-0.18035,0.11696,0,0.060126,1,1,1,0.363,0.363,0.5,0
1e+05,-0.18068,0.11622,0,0.058638,1,1,1,0.364,0.364,0.5,0
1e+05,-0.18101,0.11548,0,0.05715,1,1,1,0.365,0.365,0.5,0
1e+05,-0.18134,0.11474,0,0.055662,1,1,1,0.366,0.366,0.5,0
1e+05,-0.18167,0.114,0,0.054174,1,1,1,0.367,0.367,0.5,0
1e+05,-0.18198,0.11324,0,0.057022,1,1,1,0.368,0.368,0.5,0
1e+05,-0.18229,0.11248,0,0.060875,1,1,1,0.369,0.369,0.5,0
1e+05,-0.1826,0.11172,0,0.064728,1,1,1,0.37,0.37,0.5,0
1e+05,-0.18291,0.11096,0,0.06858,1,1,1,0.371,0.371,0.5,0
1e+05,-0.18322,0.1102,0,0.072433,1,1,1,0.372,0.372,0.5,0
1e+05,-0.18353,0.10944,0,0.076285,1,1,1,0.373,0.373,0.5,0
1e+05,-0.18384,0.10868,0,0.080138,1,1,1,0.374,0.374,0.5,0
1e+05,-0.18415,0.10792,0,0.08399,1,1,1,0.375,0.375,0.5,0
1e+05,-0.18444,0.10714,0,0.083167,1,1,1,0.376,0.376,0.5,0
1e+05,-0.18473,0.10636,0,0.082343,1,1,1,0.377,0.377,0.5,0
1e+05,-0.18502,0.10558,0,0.081519,1,1,1,0.378,0.378,0.5,0
1e+05,-0.18531,0.1048,0,0.080695,1,1,1,0.379,0.379,0.5,0
1e+05,-0.1856,0.10402,0,0.079871,1,1,1,0.38,0.38,0.5,0
1e+05,-0.18589,0.10325,0,0.079048,1,1,1,0.381,0.381,0.5,0
1e+05,-0.18618,0.10247,0,0.078224,1,1,1,0.382,0.382,0.5,0
1e+05,-0.18647,0.10169,0,0.078289,1,1,1,0.383,0.383,0.5,0
1e+05,-0.18674,0.10089,0,0.082192,1,1,1,0.384,0.384,0.5,0
1e+05,-0.18701,0.10009,0,0.086095,1,1,1,0.385,0.385,0.5,0
1e+05,-0.18728,0.099298,0,0.089998,1,1,1,0.386,0.386,0.5,0
1e+05,-0.18755,0.098502,0,0.093902,1,1,1,0.387,0.387,0.5,0
1e+05,-0.18782,0.097707,0,0.097805,1,1,1,0.388,0.388,0.5,0
1e+05,-0.18809,0.096911,0,0.10171,1,1,1,0.389,0.389,0.5,0
1e+05,-0.18836,0.096115,0,0.10561,1,1,1,0.39,0.39,0.5,0
1e+05,-0.18863,0.095314,0,0.10797,1,1,1,0.391,0.391,0.5,0
1e+05,-0.18888,0.094502,0,0.10777,1,1,1,0.392,0.392,0.5,0
1e+05,-0.18913,0.093691,0,0.10756,1,1,1,0.393,0.393,0.5,0
1e+05,-0.18938,0.09288,0,0.10736,1,1,1,0.394,0.394,0.5,0
1e+05,-0.18963,0.092068,0,0.10715,1,1,1,0.395,0.395,0.5,0
1e+05,-0.18989,0.091257,0,0.10695,1,1,1,0.396,0.396,0.5,0
1e+05,-0.19014,0.090446,0,0.10674,1,1,1,0.397,0.397,0.5,0
1e+05,-0.19039,0.089635,0,0.10653,1,1,1,0.398,0.398,0.5,0
1e+05,-0.19063,0.088815,0,0.10864,1,1,1,0.399,0.399,0.5,0
1e+05,-0.19086,0.087989,0,0.11254,1,1,1,0.4,0.4,0.5,0
1e+05,-0.1911,0.087163,0,0.11644,1,1,1,0.401,0.401,0.5,0
1e+05,-0.19133,0.086337,0,0.12035,1,1,1,0.402,0.402,0.5,0
1e+05,-0.19156,0.085512,0,0.12425,1,1,1,0.403,0.403,0.5,0
1e+05,-0.19179,0.084686,0,0.12815,1,1,1,0.404,0.404,0.5,0
1e+05,-0.19203,0.08386,0,0.13205,1,1,1,0.405,0.405,0.5,0
1e+05,-0.19226,0.083034,0,0.13596,1,1,1,0.406,0.406,0.5,0
1e+05,-0.19248,0.082198,0,0.13721,1,1,1,0.407,0.407,0.5,0
1e+05,-0.19269,0.081359,0,0.13757,1,1,1,0.408,0.408,0.5,0
1e+05,-0.19291,0.08052,0,0.13794,1,1,1,0.409,0.409,0.5,0
1e+05,-0.19312,0.079682,0,0.13831,1,1,1,0.41,0.41,0.5,0
1e+05,-0.19333,0.078843,0,0.13868,1,1,1,0.411,0.411,0.5,0
1e+05,-0.19355,0.078004,0,0.13904,1,1,1,0.412,0.412,0.5,0
1e+05,-0.19376,0.077165,0,0.13941,1,1,1,0.413,0.413,0.5,0
1e+05,-0.19397,0.076326,0,0.13978,1,1,1,0.414,0.414,0.5,0
1e+05,-0.19417,0.075476,0,0.14341,1,1,1,0.415,0.415,0.5,0
1e+05,-0.19437,0.074625,0,0.14726,1,1,1,0.416,0.416,0.5,0
1e+05,-0.19456,0.073774,0,0.15111,1,1,1,0.417,0.417,0.5,0
1e+05,-0.19476,0.072924,0,0.15496,1,1,1,0.418,0.418,0.5,0
1e+05,-0.19495,0.072073,0,0.15882,1,1,1,0.419,0.419,0.5,0
1e+05,-0.19515,0.071222,0,0.16267,1,1,1,0.42,0.42,0.5,0
1e+05,-0.19534,0.070371,0,0.16652,1,1,1,0.421,0.421,0.5,0
1e+05,-0.19553,0.069519,0,0.17,1,1,1,0.422,0.422,0.5,0
1e+05,-0.19571,0.068658,0,0.17089,1,1,1,0.423,0.423,0.5,0
1e+05,-0.19588,0.067796,0,0.17179,1,1,1,0.424,0.424,0.5,0
1e+05,-0.19606,0.066935,0,0.17269,1,1,1,0.425,0.425,0.5,0
1e+05,-0.19623,0.066074,0,0.17358,1,1,1,0.426,0.426,0.5,0
1e+05,-0.19641,0.065212,0,0.17448,1,1,1,0.427,0.427,0.5,0
1e+05,-0.19659,0.064351,0,0.17538,1,1,1,0.428,0.428,0.5,0
1e+05,-0.19676,0.06349,0,0.17627,1,1,1,0.429,0.429,0.5,0
1e+05,-0.19693,0.062625,0,0.17806,1,1,1,0.43,0.43,0.5,0
1e+05,-0.19709,0.061754,0,0.18181,1,1,1,0.431,0.431,0.5,0
1e+05,-0.19725,0.060883,0,0.18556,1,1,1,0.432,0.432,0.5,0
1e+05,-0.1974,0.060012,0,0.18931,1,1,1,0.433,0.433,0.5,0
1e+05,-0.19756,0.059141,0,0.19306,1,1,1,0.434,0.434,0.5,0
1e+05,-0.19772,0.05827,0,0.19682,1,1,1,0.435,0.435,0.5,0
1e+05,-0.19788,0.057398,0,0.20057,1,1,1,0.436,0.436,0.5,0
1e+05,-0.19803,0.056527,0,0.20432,1,1,1,0.437,0.437,0.5,0
1e+05,-0.19818,0.055652,0,0.20688,1,1,1,0.438,0.438,0.5,0
1e+05,-0.19832,0.054773,0,0.20827,1,1,1,0.439,0.439,0.5,0
1e+05,-0.19846,0.053893,0,0.20965,1,1,1,0.44,0.44,0.5,0
1e+05,-0.1986,0.053014,0,0.21103,1,1,1,0.441,0.441,0.5,0
1e+05,-0.19873,0.052134,0,0.21242,1,1,1,0.442,0.442,0.5,0
1e+05,-0.19887,0.051255,0,0.2138,1,1,1,0.443,0.443,0.5,0
1e+05,-0.19901,0.050376,0,0.21518,1,1,1,0.444,0.444,0.5,0
1e+05,-0.19915,0.049496,0,0.21656,1,1,1,0.445,0.445,0.5,0
1e+05,-0.19927,0.048612,0,0.21947,1,1,1,0.446,0.446,0.5,0
1e+05,-0.19939,0.047725,0,0.22308,1,1,1,0.447,0.447,0.5,0
1e+05,-0.19951,0.046838,0,0.22668,1,1,1,0.448,0.448,0.5,0
1e+05,-0.19963,0.045952,0,0.23029,1,1,1,0.449,0.449,0.5,0
1e+05,-0.19975,0.045065,0,0.23389,1,1,1,0.45,0.45,0.5,0
1e+05,-0.19987,0.044178,0,0.2375,1,1,1,0.451,0.451,0.5,0
1e+05,-0.19999,0.043292,0,0.2411,1,1,1,0.452,0.452,0.5,0
1e+05,-0.20011,0.042405,0,0.2447,1,1,1,0.453,0.453,0.5,0
1e+05,-0.20022,0.041513,0,0.24675,1,1,1,0.454,0.454,0.5,0
1e+05,-0.20032,0.04062,0,0.24858,1,1,1,0.455,0.455,0.5,0
1e+05,-0.20042,0.039727,0,0.25041,1,1,1,0.456,0.456,0.5,0
1e+05,-0.20052,0.038835,0,0.25223,1,1,1,0.457,0.457,0.5,0
1e+05,-0.20062,0.037942,0,0.25406,1,1,1,0.458,0.458,0.5,0
1e+05,-0.20072,0.037049,0,0.25589,1,1,1,0.459,0.459,0.5,0
1e+05,-0.20082,0.036156,0,0.25771,1,1,1,0.46,0.46,0.5,0
1e+05,-0.20092,0.035263,0,0.25964,1,1,1,0.461,0.461,0.5,0
1e+05,-0.20101,0.034365,0,0.26305,1,1,1,0.462,0.462,0.5,0
1e+05,-0.20109,0.033467,0,0.26646,1,1,1,0.463,0.463,0.5,0
1e+05,-0.20117,0.032569,0,0.26988,1,1,1,0.464,0.464,0.5,0
1e+05,-0.20126,0.031671,0,0.27329,1,1,1,0.465,0.465,0.5,0
1e+05,-0.20134,0.030772,0,0.2767,1,1,1,0.466,0.466,0.5,0
1e+05,-0.20142,0.029874,0,0.28012,1,1,1,0.467,0.467,0.5,0
1e+05,-0.2015,0.028976,0,0.28353,1,1,1,0.468,0.468,0.5,0
1e+05,-0.20158,0.028077,0,0.28665,1,1,1,0.469,0.469,0.5,0
1e+05,-0.20165,0.027175,0,0.28888,1,1,1,0.47,0.47,0.5,0
1e+05,-0.20171,0.026273,0,0.2911,1,1,1,0.471,0.471,0.5,0
1e+05,-0.20178,0.025371,0,0.29333,1,1,1,0.472,0.472,0.5,0
1e+05,-0.20184,0.024468,0,0.29556,1,1,1,0.473,0.473,0.5,0
1e+05,-0.2019,0.023566,0,0.29779,1,1,1,0.474,0.474,0.5,0
1e+05,-0.20197,0.022664,0,0.30002,1,1,1,0.475,0.475,0.5,0
1e+05,-0.20203,0.021762,0,0.30225,1,1,1,0.476,0.476,0.5,0
1e+05,-0.20209,0.020858,0,0.30489,1,1,1,0.477,0.477,0.5,0
1e+05,-0.20213,0.019953,0,0.30807,1,1,1,0.478,0.478,0.5,0
1e+05,-0.20218,0.019048,0,0.31125,1,1,1,0.479,0.479,0.5,0
1e+05,-0.20223,0.018143,0,0.31443,1,1,1,0.48,0.48,0.5,0
1e+05,-0.20227,0.017238,0,0.31761,1,1,1,0.481,0.481,0.5,0
1e+05,-0.20232,0.016333,0,0.32078,1,1,1,0.482,0.482,0.5,0
1e+05,-0.20236,0.015428,0,0.32396,1,1,1,0.483,0.483,0.5,0
1e+05,-0.20241,0.014523,0,0.32714,1,1,1,0.484,0.484,0.5,0
1e+05,-0.20245,0.013616,0,0.32995,1,1,1,0.485,0.485,0.5,0
1e+05,-0.20247,0.012709,0,0.33254,1,1,1,0.486,0.486,0.5,0
1e+05,-0.2025,0.011802,0,0.33513,1,1,1,0.487,0.487,0.5,0
1e+05,-0.20253,0.010895,0,0.33772,1,1,1,0.488,0.488,0.5,0
1e+05,-0.20255,0.0099876,0,0.34031,1,1,1,0.489,0.489,0.5,0
1e+05,-0.20258,0.0090804,0,0.3429,1,1,1,0.49,0.49,0.5,0
1e+05,-0.20261,0.0081733,0,0.34549,1,1,1,0.491,0.491,0.5,0
1e+05,-0.20264,0.0072661,0,0.34808,1,1,1,0.492,0.492,0.5,0
1e+05,-0.20265,0.006358,0,0.35092,1,1,1,0.493,0.493,0.5,0
1e+05,-0.20266,0.0054498,0,0.35382,1,1,1,0.494,0.494,0.5,0
1e+05,-0.20267,0.0045414,0,0.35672,1,1,1,0.495,0.495,0.5,0
1e+05,-0.20268,0.0036332,0,0.35962,1,1,1,0.496,0.496,0.5,0
1e+05,-0.20269,0.0027249,0,0.36252,1,1,1,0.497,0.497,0.5,0
1e+05,-0.2027,0.0018166,0,0.36542,1,1,1,0.498,0.498,0.5,0
1e+05,-0.20271,0.00090828,0,0.36832,1,1,1,0.499,0.499,0.5,0
1e+05,-0.20271,1.5942e-09,0,0.37122,1,1,1,0.5,0.5,0.5,0
1e+05,-0.20271,-0.00090827,0,0.37413,1,1,1,0.501,0.501,0.5,0
1e+05,-0.2027,-0.0018165,0,0.37704,1,1,1,0.502,0.502,0.5,0
1e+05,-0.20269,-0.0027249,0,0.37995,1,1,1,0.503,0.503,0.5,0
1e+05,-0.20268,-0.0036332,0,0.38286,1,1,1,0.504,0.504,0.5,0
1e+05,-0.20267,-0.0045414,0,0.38577,1,1,1,0.505,0.505,0.5,0
1e+05,-0.20266,-0.0054497,0,0.38868,1,1,1,0.506,0.506,0.5,0
1e+05,-0.20265,-0.006358,0,0.39159,1,1,1,0.507,0.507,0.5,0
1e+05,-0.20264,-0.0072661,0,0.39444,1,1,1,0.508,0.508,0.5,0
1e+05,-0.20261,-0.0081732,0,0.39702,1,1,1,0.509,0.509,0.5,0
1e+05,-0.20258,-0.0090804,0,0.3996,1,1,1,0.51,0.51,0.5,0
1e+05,-0.20255,-0.0099875,0,0.40218,1,1,1,0.511,0.511,0.5,0
1e+05,-0.20253,-0.010895,0,0.40476,1,1,1,0.512,0.512,0.5,0
1e+05,-0.2025,-0.011802,0,0.40734,1,1,1,0.513,0.513,0.5,0
1e+05,-0.20247,-0.012709,0,0.40992,1,1,1,0.514,0.514,0.5,0
1e+05,-0.20245,-0.013616,0,0.4125,1,1,1,0.515,0.515,0.5,0
1e+05,-0.20241,-0.014523,0,0.41531,1,1,1,0.516,0.516,0.5,0
1e+05,-0.20236,-0.015428,0,0.4185,1,1,1,0.517,0.517,0.5,0
1e+05,-0.20232,-0.016333,0,0.42168,1,1,1,0.518,0.518,0.5,0
1e+05,-0.20227,-0.017238,0,0.42487,1,1,1,0.519,0.519,0.5,0
1e+05,-0.20223,-0.018143,0,0.42806,1,1,1,0.52,0.52,0.5,0
1e+05,-0.20218,-0.019048,0,0.43124,1,1,1,0.521,0.521,0.5,0
1e+05,-0.20213,-0.019953,0,0.43443,1,1,1,0.522,0.522,0.5,0
1e+05,-0.20209,-0.020858,0,0.43762,1,1,1,0.523,0.523,0.5,0
1e+05,-0.20203,-0.021762,0,0.44026,1,1,1,0.524,0.524,0.5,0
1e+05,-0.20197,-0.022664,0,0.44248,1,1,1,0.525,0.525,0.5,0
1e+05,-0.2019,-0.023566,0,0.4447,1,1,1,0.526,0.526,0.5,0
1e+05,-0.20184,-0.024468,0,0.44692,1,1,1,0.527,0.527,0.5,0
1e+05,-0.20178,-0.025371,0,0.44914,1,1,1,0.528,0.528,0.5,0
1e+05,-0.20171,-0.026273,0,0.45136,1,1,1,0.529,0.529,0.5,0
1e+05,-0.20165,-0.027175,0,0.45358,1,1,1,0.53,0.53,0.5,0
1e+05,-0.20158,-0.028077,0,0.4558,1,1,1,0.531,0.531,0.5,0
1e+05,-0.2015,-0.028976,0,0.45892,1,1,1,0.532,0.532,0.5,0
1e+05,-0.20142,-0.029874,0,0.46235,1,1,1,0.533,0.533,0.5,0
1e+05,-0.20134,-0.030772,0,0.46577,1,1,1,0.534,0.534,0.5,0
1e+05,-0.20126,-0.031671,0,0.46919,1,1,1,0.535,0.535,0.5,0
1e+05,-0.20117,-0.032569,0,0.47261,1,1,1,0.536,0.536,0.5,0
1e+05,-0.20109,-0.033467,0,0.47603,1,1,1,0.537,0.537,0.5,0
1e+05,-0.20101,-0.034365,0,0.47945,1,1,1,0.538,0.538,0.5,0
1e+05,-0.20092,-0.035263,0,0.48288,1,1,1,0.539,0.539,0.5,0
1e+05,-0.20082,-0.036156,0,0.48479,1,1,1,0.54,0.54,0.5,0
1e+05,-0.20072,-0.037049,0,0.48661,1,1,1,0.541,0.541,0.5,0
1e+05,-0.20062,-0.037942,0,0.48843,1,1,1,0.542,0.542,0.5,0
1e+05,-0.20052,-0.038835,0,0.49025,1,1,1,0.543,0.543,0.5,0
1e+05,-0.20042,-0.039727,0,0.49207,1,1,1,0.544,0.544,0.5,0
1e+05,-0.20032,-0.04062,0,0.49388,1,1,1,0.545,0.545,0.5,0
1e+05,-0.20022,-0.041513,0,0.4957,1,1,1,0.546,0.546,0.5,0
1e+05,-0.20011,-0.042405,0,0.49774,1,1,1,0.547,0.547,0.5,0
1e+05,-0.19999,-0.043292,0,0.50136,1,1,1,0.548,0.548,0.5,0
1e+05,-0.19987,-0.044178,0,0.50497,1,1,1,0.549,0.549,0.5,0
1e+05,-0.19975,-0.045065,0,0.50858,1,1,1,0.55,0.55,0.5,0
1e+05,-0.19963,-0.045952,0,0.51219,1,1,1,0.551,0.551,0.5,0
1e+05,-0.19951,-0.046838,0,0.51581,1,1,1,0.552,0.552,0.5,0
1e+05,-0.19939,-0.047725,0,0.51942,1,1,1,0.553,0.553,0.5,0
1e+05,-0.19927,-0.048612,0,0.52303,1,1,1,0.554,0.554,0.5,0
1e+05,-0.19915,-0.049496,0,0.52595,1,1,1,0.555,0.555,0.5,0
1e+05,-0.19901,-0.050376,0,0.52732,1,1,1,0.556,0.556,0.5,0
1e+05,-0.19887,-0.051255,0,0.5287,1,1,1,0.557,0.557,0.5,0
1e+05,-0.19873,-0.052134,0,0.53007,1,1,1,0.558,0.558,0.5,0
1e+05,-0.1986,-0.053014,0,0.53145,1,1,1,0.559,0.559,0.5,0
1e+05,-0.19846,-0.053893,0,0.53282,1,1,1,0.56,0.56,0.5,0
1e+05,-0.19832,-0.054773,0,0.53419,1,1,1,0.561,0.561,0.5,0
1e+05,-0.19818,-0.055652,0,0.53557,1,1,1,0.562,0.562,0.5,0
1e+05,-0.19803,-0.056527,0,0.53813,1,1,1,0.563,0.563,0.5,0
1e+05,-0.19788,-0.057398,0,0.54189,1,1,1,0.564,0.564,0.5,0
1e+05,-0.19772,-0.05827,0,0.54565,1,1,1,0.565,0.565,0.5,0
1e+05,-0.19756,-0.059141,0,0.54941,1,1,1,0.566,0.566,0.5,0
1e+05,-0.1974,-0.060012,0,0.55317,1,1,1,0.567,0.567,0.5,0
1e+05,-0.19725,-0.060883,0,0.55693,1,1,1,0.568,0.568,0.5,0
1e+05,-0.19709,-0.061754,0,0.56069,1,1,1,0.569,0.569,0.5,0
1e+05,-0.19693,-0.062625,0,0.56445,1,1,1,0.57,0.57,0.5,0
1e+05,-0.19676,-0.063489,0,0.56624,1,1,1,0.571,0.571,0.5,0
1e+05,-0.19659,-0.064351,0,0.56712,1,1,1,0.572,0.572,0.5,0
1e+05,-0.19641,-0.065212,0,0.56801,1,1,1,0.573,0.573,0.5,0
1e+05,-0.19623,-0.066074,0,0.5689,1,1,1,0.574,0.574,0.5,0
1e+05,-0.19606,-0.066935,0,0.56979,1,1,1,0.575,0.575,0.5,0
1e+05,-0.19588,-0.067796,0,0.57068,1,1,1,0.576,0.576,0.5,0
1e+05,-0.19571,-0.068658,0,0.57156,1,1,1,0.577,0.577,0.5,0
1e+05,-0.19553,-0.069519,0,0.57245,1,1,1,0.578,0.578,0.5,0
1e+05,-0.19534,-0.070371,0,0.57594,1,1,1,0.579,0.579,0.5,0
1e+05,-0.19515,-0.071222,0,0.5798,1,1,1,0.58,0.58,0.5,0
1e+05,-0.19495,-0.072073,0,0.58366,1,1,1,0.581,0.581,0.5,0
1e+05,-0.19476,-0.072924,0,0.58752,1,1,1,0.582,0.582,0.5,0
1e+05,-0.19456,-0.073774,0,0.59138,1,1,1,0.583,0.583,0.5,0
1e+05,-0.19437,-0.074625,0,0.59524,1,1,1,0.584,0.584,0.5,0
1e+05,-0.19417,-0.075476,0,0.59909,1,1,1,0.585,0.585,0.5,0
1e+05,-0.19397,-0.076326,0,0.60274,1,1,1,0.586,0.586,0.5,0
1e+05,-0.19376,-0.077165,0,0.6031,1,1,1,0.587,0.587,0.5,0
1e+05,-0.19355,-0.078004,0,0.60345,1,1,1,0.588,0.588,0.5,0
1e+05,-0.19333,-0.078843,0,0.60381,1,1,1,0.589,0.589,0.5,0
1e+05,-0.19312,-0.079682,0,0.60417,1,1,1,0.59,0.59,0.5,0
1e+05,-0.19291,-0.08052,0,0.60453,1,1,1,0.591,0.591,0.5,0
1e+05,-0.19269,-0.081359,0,0.60489,1,1,1,0.592,0.592,0.5,0
1e+05,-0.19248,-0.082198,0,0.60525,1,1,1,0.593,0.593,0.5,0
1e+05,-0.19226,-0.083034,0,0.6065,1,1,1,0.594,0.594,0.5,0
1e+05,-0.19203,-0.08386,0,0.61041,1,1,1,0.595,0.595,0.5,0
1e+05,-0.19179,-0.084686,0,0.61432,1,1,1,0.596,0.596,0.5,0
1e+05,-0.19156,-0.085512,0,0.61823,1,1,1,0.597,0.597,0.5,0
1e+05,-0.19133,-0.086337,0,0.62214,1,1,1,0.598,0.598,0.5,0
1e+05,-0.1911,-0.087163,0,0.62605,1,1,1,0.599,0.599,0.5,0
1e+05,-0.19086,-0.087989,0,0.62996,1,1,1,0.6,0.6,0.5,0
1e+05,-0.19063,-0.088815,0,0.63388,1,1,1,0.601,0.601,0.5,0
1e+05,-0.19039,-0.089635,0,0.63598,1,1,1,0.602,0.602,0.5,0
1e+05,-0.19014,-0.090446,0,0.63577,1,1,1,0.603,0.603,0.5,0
1e+05,-0.18989,-0.091257,0,0.63555,1,1,1,0.604,0.604,0.5,0
1e+05,-0.18963,-0.092068,0,0.63534,1,1,1,0.605,0.605,0.5,0
1e+05,-0.18938,-0.09288,0,0.63512,1,1,1,0.606,0.606,0.5,0
1e+05,-0.18913,-0.093691,0,0.63491,1,1,1,0.607,0.607,0.5,0
1e+05,-0.18888,-0.094502,0,0.6347,1,1,1,0.608,0.608,0.5,0
1e+05,-0.18863,-0.095314,0,0.63448,1,1,1,0.609,0.609,0.5,0
1e+05,-0.18836,-0.096115,0,0.63685,1,1,1,0.61,0.61,0.5,0
1e+05,-0.18809,-0.096911,0,0.64076,1,1,1,0.611,0.611,0.5,0
1e+05,-0.18782,-0.097707,0,0.64467,1,1,1,0.612,0.612,0.5,0
1e+05,-0.18755,-0.098502,0,0.64858,1,1,1,0.613,0.613,0.5,0
1e+05,-0.18728,-0.099298,0,0.6525,1,1,1,0.614,0.614,0.5,0
1e+05,-0.18701,-0.10009,0,0.65641,1,1,1,0.615,0.615,0.5,0
1e+05,-0.18674,-0.10089,0,0.66032,1,1,1,0.616,0.616,0.5,0
1e+05,-0.18647,-0.10169,0,0.66423,1,1,1,0.617,0.617,0.5,0
1e+05,-0.18618,-0.10247,0,0.66429,1,1,1,0.618,0.618,0.5,0
1e+05,-0.18589,-0.10325,0,0.66346,1,1,1,0.619,0.619,0.5,0
1e+05,-0.1856,-0.10402,0,0.66263,1,1,1,0.62,0.62,0.5,0
1e+05,-0.18531,-0.1048,0,0.66179,1,1,1,0.621,0.621,0.5,0
1e+05,-0.18502,-0.10558,0,0.66096,1,1,1,0.622,0.622,0.5,0
1e+05,-0.18473,-0.10636,0,0.66013,1,1,1,0.623,0.623,0.5,0
1e+05,-0.18444,-0.10714,0,0.6593,1,1,1,0.624,0.624,0.5,0
1e+05,-0.18415,-0.10792,0,0.65847,1,1,1,0.625,0.625,0.5,0
1e+05,-0.18384,-0.10868,0,0.66233,1,1,1,0.626,0.626,0.5,0
1e+05,-0.18353,-0.10944,0,0.66619,1,1,1,0.627,0.627,0.5,0
1e+05,-0.18322,-0.1102,0,0.67005,1,1,1,0.628,0.628,0.5,0
1e+05,-0.18291,-0.11096,0,0.67391,1,1,1,0.629,0.629,0.5,0
1e+05,-0.1826,-0.11172,0,0.67777,1,1,1,0.63,0.63,0.5,0
1e+05,-0.18229,-0.11248,0,0.68163,1,1,1,0.631,0.631,0.5,0
1e+05,-0.18198,-0.11324,0,0.68549,1,1,1,0.632,0.632,0.5,0
1e+05,-0.18167,-0.114,0,0.68835,1,1,1,0.633,0.633,0.5,0
1e+05,-0.18134,-0.11474,0,0.68685,1,1,1,0.634,0.634,0.5,0
1e+05,-0.18101,-0.11548,0,0.68535,1,1,1,0.635,0.635,0.5,0
1e+05,-0.18068,-0.11622,0,0.68386,1,1,1,0.636,0.636,0.5,0
1e+05,-0.18035,-0.11696,0,0.68236,1,1,1,0.637,0.637,0.5,0
1e+05,-0.18003,-0.1177,0,0.68087,1,1,1,0.638,0.638,0.5,0
1e+05,-0.1797,-0.11844,0,0.67937,1,1,1,0.639,0.639,0.5,0
1e+05,-0.17937,-0.11918,0,0.67788,1,1,1,0.64,0.64,0.5,0
1e+05,-0.17903,-0.11991,0,0.67835,1,1,1,0.641,0.641,0.5,0
1e+05,-0.17869,-0.12063,0,0.6821,1,1,1,0.642,0.642,0.5,0
1e+05,-0.17834,-0.12135,0,0.68586,1,1,1,0.643,0.643,0.5,0
1e+05,-0.17799,-0.12207,0,0.68961,1,1,1,0.644,0.644,0.5,0
1e+05,-0.17764,-0.12279,0,0.69337,1,1,1,0.645,0.645,0.5,0
1e+05,-0.17729,-0.12351,0,0.69712,1,1,1,0.646,0.646,0.5,0
1e+05,-0.17694,-0.12423,0,0.70088,1,1,1,0.647,0.647,0.5,0
1e+05,-0.1766,-0.12495,0,0.70463,1,1,1,0.648,0.648,0.5,0
1e+05,-0.17624,-0.12565,0,0.70504,1,1,1,0.649,0.649,0.5,0
1e+05,-0.17587,-0.12635,0,0.70283,1,1,1,0.65,0.65,0.5,0
1e+05,-0.1755,-0.12705,0,0.70062,1,1,1,0.651,0.651,0.5,0
1e+05,-0.17514,-0.12774,0,0.69841,1,1,1,0.652,0.652,0.5,0
1e+05,-0.17477,-0.12844,0,0.69621,1,1,1,0.653,0.653,0.5,0
1e+05,-0.1744,-0.12913,0,0.694,1,1,1,0.654,0.654,0.5,0
1e+05,-0.17403,-0.12983,0,0.69179,1,1,1,0.655,0.655,0.5,0
1e+05,-0.17367,-0.13053,0,0.68958,1,1,1,0.656,0.656,0.5,0
1e+05,-0.17328,-0.13121,0,0.69173,1,1,1,0.657,0.657,0.5,0
1e+05,-0.1729,-0.13188,0,0.69532,1,1,1,0.658,0.658,0.5,0
1e+05,-0.17251,-0.13255,0,0.69891,1,1,1,0.659,0.659,0.5,0
1e+05,-0.17212,-0.13322,0,0.70251,1,1,1,0.66,0.66,0.5,0
1e+05,-0.17174,-0.13389,0,0.7061,1,1,1,0.661,0.661,0.5,0
1e+05,-0.17135,-0.13457,0,0.70969,1,1,1,0.662,0.662,0.5,0
1e+05,-0.17096,-0.13524,0,0.71329,1,1,1,0.663,0.663,0.5,0
1e+05,-0.17058,-0.13591,0,0.71688,1,1,1,0.664,0.664,0.5,0
1e+05,-0.17017,-0.13656,0,0.71432,1,1,1,0.665,0.665,0.5,0
1e+05,-0.16977,-0.1372,0,0.71135,1,1,1,0.666,0.666,0.5,0
1e+05,-0.16936,-0.13785,0,0.70839,1,1,1,0.667,0.667,0.5,0
1e+05,-0.16896,-0.13849,0,0.70542,1,1,1,0.668,0.668,0.5,0
1e+05,-0.16855,-0.13914,0,0.70246,1,1,1,0.669,0.669,0.5,0
1e+05,-0.16815,-0.13979,0,0.69949,1,1,1,0.67,0.67,0.5,0
1e+05,-0.16774,-0.14043,0,0.69652,1,1,1,0.671,0.671,0.5,0
1e+05,-0.16733,-0.14107,0,0.69435,1,1,1,0.672,0.672,0.5,0
1e+05,-0.16691,-0.14169,0,0.69772,1,1,1,0.673,0.673,0.5,0
1e+05,-0.16648,-0.14231,0,0.7011,1,1,1,0.674,0.674,0.5,0
1e+05,-0.16606,-0.14293,0,0.70447,1,1,1,0.675,0.675,0.5,0
1e+05,-0.16563,-0.14355,0,0.70784,1,1,1,0.676,0.676,0.5,0
1e+05,-0.16521,-0.14417,0,0.71122,1,1,1,0.677,0.677,0.5,0
1e+05,-0.16479,-0.14478,0,0.71459,1,1,1,0.678,0.678,0.5,0
1e+05,-0.16436,-0.1454,0,0.71796,1,1,1,0.679,0.679,0.5,0
1e+05,-0.16393,-0.14601,0,0.71911,1,1,1,0.68,0.68,0.5,0
1e+05,-0.16349,-0.1466,0,0.71533,1,1,1,0.681,0.681,0.5,0
1e+05,-0.16304,-0.14719,0,0.71156,1,1,1,0.682,0.682,0.5,0
1e+05,-0.1626,-0.14778,0,0.70779,1,1,1,0.683,0.683,0.5,0
1e+05,-0.16216,-0.14837,0,0.70401,1,1,1,0.684,0.684,0.5,0
1e+05,-0.16171,-0.14896,0,0.70024,1,1,1,0.685,0.685,0.5,0
1e+05,-0.16127,-0.14954,0,0.69646,1,1,1,0.686,0.686,0.5,0
1e+05,-0.16083,-0.15013,0,0.69269,1,1,1,0.687,0.687,0.5,0
1e+05,-0.16037,-0.15071,0,0.69235,1,1,1,0.688,0.688,0.5,0
1e+05,-0.15991,-0.15126,0,0.69545,1,1,1,0.689,0.689,0.5,0
1e+05,-0.15945,-0.15182,0,0.69854,1,1,1,0.69,0.69,0.5,0
1e+05,-0.15899,-0.15238,0,0.70164,1,1,1,0.691,0.691,0.5,0
1e+05,-0.15853,-0.15294,0,0.70474,1,1,1,0.692,0.692,0.5,0
1e+05,-0.15806,-0.1535,0,0.70783,1,1,1,0.693,0.693,0.5,0
1e+05,-0.1576,-0.15405,0,0.71093,1,1,1,0.694,0.694,0.5,0
1e+05,-0.15714,-0.15461,0,0.71402,1,1,1,0.695,0.695,0.5,0
1e+05,-0.15666,-0.15515,0,0.71181,1,1,1,0.696,0.696,0.5,0
1e+05,-0.15618,-0.15567,0,0.70718,1,1,1,0.697,0.697,0.5,0
1e+05,-0.1557,-0.1562,0,0.70255,1,1,1,0.698,0.698,0.5,0
1e+05,-0.15522,-0.15672,0,0.69792,1,1,1,0.699,0.699,0.5,0
1e+05,-0.15474,-0.15725,0,0.69329,1,1,1,0.7,0.7,0.5,0
1e+05,-0.15426,-0.15777,0,0.68866,1,1,1,0.701,0.701,0.5,0
1e+05,-0.15378,-0.1583,0,0.68403,1,1,1,0.702,0.702,0.5,0
1e+05,-0.1533,-0.15882,0,0.67941,1,1,1,0.703,0.703,0.5,0
1e+05,-0.15281,-0.15932,0,0.68124,1,1,1,0.704,0.704,0.5,0
1e+05,-0.15231,-0.15981,0,0.684,1,1,1,0.705,0.705,0.5,0
1e+05,-0.15181,-0.1603,0,0.68676,1,1,1,0.706,0.706,0.5,0
1e+05,-0.15131,-0.16079,0,0.68952,1,1,1,0.707,0.707,0.5,0
1e+05,-0.15082,-0.16128,0,0.69228,1,1,1,0.708,0.708,0.5,0
1e+05,-0.15032,-0.16177,0,0.69504,1,1,1,0.709,0.709,0.5,0
1e+05,-0.14982,-0.16226,0,0.6978,1,1,1,0.71,0.71,0.5,0
1e+05,-0.14932,-0.16275,0,0.70005,1,1,1,0.711,0.711,0.5,0
1e+05,-0.1488,-0.1632,0,0.69452,1,1,1,0.712,0.712,0.5,0
1e+05,-0.14829,-0.16365,0,0.68898,1,1,1,0.713,0.713,0.5,0
1e+05,-0.14777,-0.16411,0,0.68345,1,1,1,0.714,0.714,0.5,0
1e+05,-0.14726,-0.16456,0,0.67792,1,1,1,0.715,0.715,0.5,0
1e+05,-0.14674,-0.16502,0,0.67239,1,1,1,0.716,0.716,0.5,0
1e+05,-0.14623,-0.16547,0,0.66686,1,1,1,0.717,0.717,0.5,0
1e+05,-0.14571,-0.16592,0,0.66133,1,1,1,0.718,0.718,0.5,0
1e+05,-0.14519,-0.16637,0,0.65778,1,1,1,0.719,0.719,0.5,0
1e+05,-0.14466,-0.16678,0,0.66014,1,1,1,0.72,0.72,0.5,0
1e+05,-0.14412,-0.1672,0,0.66251,1,1,1,0.721,0.721,0.5,0
1e+05,-0.14359,-0.16761,0,0.66488,1,1,1,0.722,0.722,0.5,0
1e+05,-0.14306,-0.16803,0,0.66725,1,1,1,0.723,0.723,0.5,0
1e+05,-0.14253,-0.16845,0,0.66961,1,1,1,0.724,0.724,0.5,0
1e+05,-0.14199,-0.16886,0,0.67198,1,1,1,0.725,0.725,0.5,0
1e+05,-0.14146,-0.16928,0,0.67435,1,1,1,0.726,0.726,0.5,0
1e+05,-0.14092,-0.16968,0,0.67284,1,1,1,0.727,0.727,0.5,0
1e+05,-0.14037,-0.17005,0,0.66637,1,1,1,0.728,0.728,0.5,0
1e+05,-0.13982,-0.17043,0,0.65989,1,1,1,0.729,0.729,0.5,0
1e+05,-0.13927,-0.1708,0,0.65342,1,1,1,0.73,0.73,0.5,0
1e+05,-0.13872,-0.17118,0,0.64694,1,1,1,0.731,0.731,0.5,0
1e+05,-0.13817,-0.17155,0,0.64047,1,1,1,0.732,0.732,0.5,0
1e+05,-0.13763,-0.17193,0,0.63399,1,1,1,0.733,0.733,0.5,0
1e+05,-0.13708,-0.1723,0,0.62752,1,1,1,0.734,0.734,0.5,0
1e+05,-0.13652,-0.17265,0,0.62629,1,1,1,0.735,0.735,0.5,0
1e+05,-0.13595,-0.17298,0,0.62821,1,1,1,0.736,0.736,0.5,0
1e+05,-0.13539,-0.17332,0,0.63013,1,1,1,0.737,0.737,0.5,0
1e+05,-0.13482,-0.17365,0,0.63206,1,1,1,0.738,0.738,0.5,0
1e+05,-0.13426,-0.17398,0,0.63398,1,1,1,0.739,0.739,0.5,0
1e+05,-0.13369,-0.17431,0,0.6359,1,1,1,0.74,0.74,0.5,0
1e+05,-0.13313,-0.17465,0,0.63782,1,1,1,0.741,0.741,0.5,0
1e+05,-0.13256,-0.17498,0,0.63974,1,1,1,0.742,0.742,0.5,0
1e+05,-0.13198,-0.17528,0,0.63404,1,1,1,0.743,0.743,0.5,0
1e+05,-0.1314,-0.17557,0,0.62658,1,1,1,0.744,0.744,0.5,0
1e+05,-0.13082,-0.17585,0,0.61913,1,1,1,0.745,0.745,0.5,0
1e+05,-0.13024,-0.17614,0,0.61167,1,1,1,0.746,0.746,0.5,0
1e+05,-0.12966,-0.17643,0,0.60421,1,1,1,0.747,0.747,0.5,0
1e+05,-0.12908,-0.17672,0,0.59675,1,1,1,0.748,0.748,0.5,0
1e+05,-0.1285,-0.17701,0,0.58929,1,1,1,0.749,0.749,0.5,0
1e+05,-0.12792,-0.1773,0,0.58183,1,1,1,0.75,0.75,0.5,0
1e+05,-0.12733,-0.17754,0,0.58326,1,1,1,0.751,0.751,0.5,0
1e+05,-0.12674,-0.17778,0,0.58468,1,1,1,0.752,0.752,0.5,0
1e+05,-0.12614,-0.17803,0,0.58611,1,1,1,0.753,0.753,0.5,0
1e+05,-0.12555,-0.17827,0,0.58754,1,1,1,0.754,0.754,0.5,0
1e+05,-0.12495,-0.17851,0,0.58896,1,1,1,0.755,0.755,0.5,0
1e+05,-0.12436,-0.17876,0,0.59039,1,1,1,0.756,0.756,0.5,0
1e+05,-0.12376,-0.179,0,0.59182,1,1,1,0.757,0.757,0.5,0
1e+05,-0.12316,-0.17923,0,0.59138,1,1,1,0.758,0.758,0.5,0
1e+05,-0.12256,-0.17943,0,0.58291,1,1,1,0.759,0.759,0.5,0
1e+05,-0.12195,-0.17962,0,0.57443,1,1,1,0.76,0.76,0.5,0
1e+05,-0.12134,-0.17982,0,0.56596,1,1,1,0.761,0.761,0.5,0
1e+05,-0.12074,-0.18001,0,0.55748,1,1,1,0.762,0.762,0.5,0
1e+05,-0.12013,-0.18021,0,0.54901,1,1,1,0.763,0.763,0.5,0
1e+05,-0.11952,-0.1804,0,0.54054,1,1,1,0.764,0.764,0.5,0
1e+05,-0.11891,-0.18059,0,0.53206,1,1,1,0.765,0.765,0.5,0
1e+05,-0.1183,-0.18077,0,0.5271,1,1,1,0.766,0.766,0.5,0
1e+05,-0.11768,-0.18092,0,0.52799,1,1,1,0.767,0.767,0.5,0
1e+05,-0.11706,-0.18106,0,0.52888,1,1,1,0.768,0.768,0.5,0
1e+05,-0.11644,-0.18121,0,0.52977,1,1,1,0.769,0.769,0.5,0
1e+05,-0.11582,-0.18135,0,0.53066,1,1,1,0.77,0.77,0.5,0
1e+05,-0.1152,-0.1815,0,0.53156,1,1,1,0.771,0.771,0.5,0
1e+05,-0.11458,-0.18164,0,0.53245,1,1,1,0.772,0.772,0.5,0
1e+05,-0.11396,-0.18179,0,0.53334,1,1,1,0.773,0.773,0.5,0
1e+05,-0.11333,-0.1819,0,0.52838,1,1,1,0.774,0.774,0.5,0
1e+05,-0.1127,-0.18199,0,0.51887,1,1,1,0.775,0.775,0.5,0
1e+05,-0.11207,-0.18209,0,0.50936,1,1,1,0.776,0.776,0.5,0
1e+05,-0.11144,-0.18218,0,0.49984,1,1,1,0.777,0.777,0.5,0
1e+05,-0.11081,-0.18227,0,0.49033,1,1,1,0.778,0.778,0.5,0
1e+05,-0.11018,-0.18237,0,0.48082,1,1,1,0.779,0.779,0.5,0
1e+05,-0.10955,-0.18246,0,0.4713,1,1,1,0.78,0.78,0.5,0
1e+05,-0.10892,-0.18255,0,0.46179,1,1,1,0.781,0.781,0.5,0
1e+05,-0.10828,-0.1826,0,0.45966,1,1,1,0.782,0.782,0.5,0
1e+05,-0.10764,-0.18264,0,0.45998,1,1,1,0.783,0.783,0.5,0
1e+05,-0.107,-0.18268,0,0.46031,1,1,1,0.784,0.784,0.5,0
1e+05,-0.10636,-0.18272,0,0.46063,1,1,1,0.785,0.785,0.5,0
1e+05,-0.10571,-0.18276,0,0.46096,1,1,1,0.786,0.786,0.5,0
1e+05,-0.10507,-0.1828,0,0.46128,1,1,1,0.787,0.787,0.5,0
1e+05,-0.10443,-0.18284,0,0.46161,1,1,1,0.788,0.788,0.5,0
1e+05,-0.10379,-0.18288,0,0.46193,1,1,1,0.789,0.789,0.5,0
1e+05,-0.10314,-0.18287,0,0.45205,1,1,1,0.79,0.79,0.5,0
1e+05,-0.10249,-0.18285,0,0.44149,1,1,1,0.791,0.791,0.5,0
1e+05,-0.10184,-0.18283,0,0.43093,1,1,1,0.792,0.792,0.5,0
1e+05,-0.10119,-0.18282,0,0.42037,1,1,1,0.793,0.793,0.5,0
1e+05,-0.10055,-0.1828,0,0.40981,1,1,1,0.794,0.794,0.5,0
1e+05,-0.099896,-0.18278,0,0.39925,1,1,1,0.795,0.795,0.5,0
1e+05,-0.099247,-0.18277,0,0.3887,1,1,1,0.796,0.796,0.5,0
1e+05,-0.098597,-0.18274,0,0.37942,1,1,1,0.797,0.797,0.5,0
1e+05,-0.09794,-0.18267,0,0.37917,1,1,1,0.798,0.798,0.5,0
1e+05,-0.097283,-0.1826,0,0.37891,1,1,1,0.799,0.799,0.5,0
1e+05,-0.096627,-0.18252,0,0.37866,1,1,1,0.8,0.8,0.5,0
1e+05,-0.09597,-0.18245,0,0.3784,1,1,1,0.801,0.801,0.5,0
1e+05,-0.095314,-0.18238,0,0.37814,1,1,1,0.802,0.802,0.5,0
1e+05,-0.094657,-0.1823,0,0.37789,1,1,1,0.803,0.803,0.5,0
1e+05,-0.094,-0.18223,0,0.37763,1,1,1,0.804,0.804,0.5,0
1e+05,-0.093342,-0.18214,0,0.37384,1,1,1,0.805,0.805,0.5,0
1e+05,-0.092681,-0.182,0,0.36223,1,1,1,0.806,0.806,0.5,0
1e+05,-0.092019,-0.18187,0,0.35063,1,1,1,0.807,0.807,0.5,0
1e+05,-0.091357,-0.18174,0,0.33903,1,1,1,0.808,0.808,0.5,0
1e+05,-0.090696,-0.1816,0,0.32743,1,1,1,0.809,0.809,0.5,0
1e+05,-0.090034,-0.18147,0,0.31583,1,1,1,0.81,0.81,0.5,0
1e+05,-0.089372,-0.18134,0,0.30423,1,1,1,0.811,0.811,0.5,0
1e+05,-0.088711,-0.18121,0,0.29263,1,1,1,0.812,0.812,0.5,0
1e+05,-0.088047,-0.18104,0,0.28641,1,1,1,0.813,0.813,0.5,0
1e+05,-0.087381,-0.18085,0,0.28557,1,1,1,0.814,0.814,0.5,0
1e+05,-0.086716,-0.18066,0,0.28474,1,1,1,0.815,0.815,0.5,0
1e+05,-0.08605,-0.18046,0,0.2839,1,1,1,0.816,0.816,0.5,0
1e+05,-0.085384,-0.18027,0,0.28307,1,1,1,0.817,0.817,0.5,0
1e+05,-0.084719,-0.18008,0,0.28223,1,1,1,0.818,0.818,0.5,0
1e+05,-0.084053,-0.17988,0,0.28139,1,1,1,0.819,0.819,0.5,0
1e+05,-0.083387,-0.17969,0,0.28056,1,1,1,0.82,0.82,0.5,0
1e+05,-0.082721,-0.17945,0,0.27162,1,1,1,0.821,0.821,0.5,0
1e+05,-0.082054,-0.1792,0,0.259,1,1,1,0.822,0.822,0.5,0
1e+05,-0.081387,-0.17894,0,0.24639,1,1,1,0.823,0.823,0.5,0
1e+05,-0.08072,-0.17868,0,0.23378,1,1,1,0.824,0.824,0.5,0
1e+05,-0.080053,-0.17843,0,0.22116,1,1,1,0.825,0.825,0.5,0
1e+05,-0.079386,-0.17817,0,0.20855,1,1,1,0.826,0.826,0.5,0
1e+05,-0.078719,-0.17792,0,0.19593,1,1,1,0.827,0.827,0.5,0
1e+05,-0.078052,-0.17766,0,0.18332,1,1,1,0.828,0.828,0.5,0
1e+05,-0.077385,-0.17735,0,0.18052,1,1,1,0.829,0.829,0.5,0
1e+05,-0.076718,-0.17703,0,0.17913,1,1,1,0.83,0.83,0.5,0
1e+05,-0.076051,-0.17671,0,0.17774,1,1,1,0.831,0.831,0.5,0
1e+05,-0.075383,-0.17639,0,0.17635,1,1,1,0.832,0.832,0.5,0
1e+05,-0.074716,-0.17607,0,0.17496,1,1,1,0.833,0.833,0.5,0
1e+05,-0.074049,-0.17575,0,0.17357,1,1,1,0.834,0.834,0.5,0
1e+05,-0.073382,-0.17543,0,0.17218,1,1,1,0.835,0.835,0.5,0
1e+05,-0.072715,-0.17511,0,0.17003,1,1,1,0.836,0.836,0.5,0
1e+05,-0.072051,-0.17472,0,0.15645,1,1,1,0.837,0.837,0.5,0
1e+05,-0.071386,-0.17433,0,0.14287,1,1,1,0.838,0.838,0.5,0
1e+05,-0.070722,-0.17395,0,0.12929,1,1,1,0.839,0.839,0.5,0
1e+05,-0.070057,-0.17356,0,0.1157,1,1,1,0.84,0.84,0.5,0
1e+05,-0.069393,-0.17318,0,0.10212,1,1,1,0.841,0.841,0.5,0
1e+05,-0.068728,-0.17279,0,0.088542,1,1,1,0.842,0.842,0.5,0
1e+05,-0.068064,-0.17241,0,0.07496,1,1,1,0.843,0.843,0.5,0
1e+05,-0.067401,-0.17201,0,0.0643,1,1,1,0.844,0.844,0.5,0
1e+05,-0.06674,-0.17156,0,0.062401,1,1,1,0.845,0.845,0.5,0
1e+05,-0.06608,-0.1711,0,0.060503,1,1,1,0.846,0.846,0.5,0
1e+05,-0.06542,-0.17065,0,0.058605,1,1,1,0.847,0.847,0.5,0
1e+05,-0.06476,-0.1702,0,0.056706,1,1,1,0.848,0.848,0.5,0
1e+05,-0.064099,-0.16975,0,0.054808,1,1,1,0.849,0.849,0.5,0
1e+05,-0.063439,-0.1693,0,0.052909,1,1,1,0.85,0.85,0.5,0
1e+05,-0.062779,-0.16885,0,0.051011,1,1,1,0.851,0.851,0.5,0
1e+05,-0.062122,-0.16837,0,0.043607,1,1,1,0.852,0.852,0.5,0
1e+05,-0.061469,-0.16785,0,0.029138,1,1,1,0.853,0.853,0.5,0
1e+05,-0.060816,-0.16733,0,0.014669,1,1,1,0.854,0.854,0.5,0
1e+05,-0.060163,-0.16681,0,0.0001994,1,1,1,0.855,0.855,0.5,0
1e+05,-0.05951,-0.16629,0,-0.014269,1,1,1,0.856,0.856,0.5,0
1e+05,-0.058858,-0.16577,0,-0.028738,1,1,1,0.857,0.857,0.5,0
1e+05,-0.058205,-0.16525,0,-0.043207,1,1,1,0.858,0.858,0.5,0
1e+05,-0.057552,-0.16473,0,-0.057677,1,1,1,0.859,0.859,0.5,0
1e+05,-0.056905,-0.16417,0,-0.064558,1,1,1,0.86,0.86,0.5,0
1e+05,-0.056261,-0.16358,0,-0.066888,1,1,1,0.861,0.861,0.5,0
1e+05,-0.055617,-0.163,0,-0.069217,1,1,1,0.862,0.862,0.5,0
1e+05,-0.054973,-0.16241,0,-0.071546,1,1,1,0.863,0.863,0.5,0
1e+05,-0.054329,-0.16182,0,-0.073876,1,1,1,0.864,0.864,0.5,0
1e+05,-0.053686,-0.16123,0,-0.076205,1,1,1,0.865,0.865,0.5,0
1e+05,-0.053042,-0.16065,0,-0.078534,1,1,1,0.866,0.866,0.5,0
1e+05,-0.052398,-0.16006,0,-0.080864,1,1,1,0.867,0.867,0.5,0
1e+05,-0.051764,-0.15941,0,-0.09369,1,1,1,0.868,0.868,0.5,0
1e+05,-0.051133,-0.15876,0,-0.10895,1,1,1,0.869,0.869,0.5,0
1e+05,-0.050501,-0.1581,0,-0.1242,1,1,1,0.87,0.87,0.5,0
1e+05,-0.04987,-0.15744,0,-0.13946,1,1,1,0.871,0.871,0.5,0
1e+05,-0.049238,-0.15679,0,-0.15472,1,1,1,0.872,0.872,0.5,0
1e+05,-0.048607,-0.15613,0,-0.16998,1,1,1,0.873,0.873,0.5,0
1e+05,-0.047975,-0.15547,0,-0.18523,1,1,1,0.874,0.874,0.5,0
1e+05,-0.047344,-0.15481,0,-0.20049,1,1,1,0.875,0.875,0.5,0
1e+05,-0.046727,-0.15409,0,-0.20315,1,1,1,0.876,0.876,0.5,0
1e+05,-0.04611,-0.15336,0,-0.2058,1,1,1,0.877,0.877,0.5,0
1e+05,-0.045492,-0.15263,0,-0.20846,1,1,1,0.878,0.878,0.5,0
1e+05,-0.044875,-0.15191,0,-0.21112,1,1,1,0.879,0.879,0.5,0
1e+05,-0.044258,-0.15118,0,-0.21377,1,1,1,0.88,0.88,0.5,0
1e+05,-0.043641,-0.15045,0,-0.21643,1,1,1,0.881,0.881,0.5,0
1e+05,-0.043024,-0.14973,0,-0.21909,1,1,1,0.882,0.882,0.5,0
1e+05,-0.04241,-0.14899,0,-0.22424,1,1,1,0.883,0.883,0.5,0
1e+05,-0.041811,-0.14819,0,-0.24015,1,1,1,0.884,0.884,0.5,0
1e+05,-0.041211,-0.14739,0,-0.25606,1,1,1,0.885,0.885,0.5,0
1e+05,-0.040612,-0.14659,0,-0.27197,1,1,1,0.886,0.886,0.5,0
1e+05,-0.040013,-0.1458,0,-0.28788,1,1,1,0.887,0.887,0.5,0
1e+05,-0.039414,-0.145,0,-0.30379,1,1,1,0.888,0.888,0.5,0
1e+05,-0.038815,-0.1442,0,-0.3197,1,1,1,0.889,0.889,0.5,0
1e+05,-0.038216,-0.1434,0,-0.33561,1,1,1,0.89,0.89,0.5,0
1e+05,-0.037624,-0.14258,0,-0.34663,1,1,1,0.891,0.891,0.5,0
1e+05,-0.037045,-0.14171,0,-0.34948,1,1,1,0.892,0.892,0.5,0
1e+05,-0.036465,-0.14084,0,-0.35233,1,1,1,0.893,0.893,0.5,0
1e+05,-0.035886,-0.13998,0,-0.35518,1,1,1,0.894,0.894,0.5,0
1e+05,-0.035307,-0.13911,0,-0.35803,1,1,1,0.895,0.895,0.5,0
1e+05,-0.034728,-0.13824,0,-0.36089,1,1,1,0.896,0.896,0.5,0
1e+05,-0.034149,-0.13737,0,-0.36374,1,1,1,0.897,0.897,0.5,0
1e+05,-0.033569,-0.1365,0,-0.36659,1,1,1,0.898,0.898,0.5,0
1e+05,-0.033003,-0.1356,0,-0.37707,1,1,1,0.899,0.899,0.5,0
1e+05,-0.032448,-0.13466,0,-0.39348,1,1,1,0.9,0.9,0.5,0
1e+05,-0.031892,-0.13372,0,-0.40989,1,1,1,0.901,0.901,0.5,0
1e+05,-0.031337,-0.13278,0,-0.42631,1,1,1,0.902,0.902,0.5,0
1e+05,-0.030781,-0.13184,0,-0.44272,1,1,1,0.903,0.903,0.5,0
1e+05,-0.030226,-0.1309,0,-0.45913,1,1,1,0.904,0.904,0.5,0
1e+05,-0.02967,-0.12996,0,-0.47555,1,1,1,0.905,0.905,0.5,0
1e+05,-0.029114,-0.12902,0,-0.49196,1,1,1,0.906,0.906,0.5,0
1e+05,-0.028578,-0.12803,0,-0.49824,1,1,1,0.907,0.907,0.5,0
1e+05,-0.028049,-0.12702,0,-0.50113,1,1,1,0.908,0.908,0.5,0
1e+05,-0.027519,-0.12601,0,-0.50403,1,1,1,0.909,0.909,0.5,0
1e+05,-0.02699,-0.125,0,-0.50692,1,1,1,0.91,0.91,0.5,0
1e+05,-0.02646,-0.124,0,-0.50982,1,1,1,0.911,0.911,0.5,0
1e+05,-0.025931,-0.12299,0,-0.51271,1,1,1,0.912,0.912,0.5,0
1e+05,-0.025401,-0.12198,0,-0.51561,1,1,1,0.913,0.913,0.5,0
1e+05,-0.024872,-0.12097,0,-0.51851,1,1,1,0.914,0.914,0.5,0
99999,-0.02437,-0.11989,0,-0.53439,1,1,1,0.915,0.915,0.5,0
99999,-0.02387,-0.11881,0,-0.55113,1,1,1,0.916,0.916,0.5,0
99999,-0.023371,-0.11773,0,-0.56787,1,1,1,0.917,0.917,0.5,0
99999,-0.022871,-0.11665,0,-0.58461,1,1,1,0.918,0.918,0.5,0
99999,-0.022371,-0.11557,0,-0.60135,1,1,1,0.919,0.919,0.5,0
99999,-0.021872,-0.11449,0,-0.61809,1,1,1,0.92,0.92,0.5,0
99999,-0.021372,-0.11341,0,-0.63483,1,1,1,0.921,0.921,0.5,0
99999,-0.020876,-0.11233,0,-0.64982,1,1,1,0.922,0.922,0.5,0
99999,-0.020409,-0.11118,0,-0.65259,1,1,1,0.923,0.923,0.5,0
99999,-0.019942,-0.11003,0,-0.65536,1,1,1,0.924,0.924,0.5,0
99999,-0.019474,-0.10888,0,-0.65813,1,1,1,0.925,0.925,0.5,0
99999,-0.019007,-0.10773,0,-0.6609,1,1,1,0.926,0.926,0.5,0
99999,-0.018539,-0.10658,0,-0.66367,1,1,1,0.927,0.927,0.5,0
99999,-0.018072,-0.10543,0,-0.66644,1,1,1,0.928,0.928,0.5,0
99999,-0.017605,-0.10429,0,-0.66921,1,1,1,0.929,0.929,0.5,0
99999,-0.017148,-0.10312,0,-0.67638,1,1,1,0.93,0.93,0.5,0
99999,-0.016717,-0.1019,0,-0.69327,1,1,1,0.931,0.931,0.5,0
99999,-0.016286,-0.10068,0,-0.71016,1,1,1,0.932,0.932,0.5,0
99999,-0.015854,-0.099463,0,-0.72705,1,1,1,0.933,0.933,0.5,0
99999,-0.015423,-0.098245,0,-0.74394,1,1,1,0.934,0.934,0.5,0
99999,-0.014992,-0.097028,0,-0.76083,1,1,1,0.935,0.935,0.5,0
99999,-0.01456,-0.09581,0,-0.77771,1,1,1,0.936,0.936,0.5,0
99999,-0.014129,-0.094593,0,-0.7946,1,1,1,0.937,0.937,0.5,0
99999,-0.013717,-0.093341,0,-0.80428,1,1,1,0.938,0.938,0.5,0
99999,-0.013324,-0.092057,0,-0.80676,1,1,1,0.939,0.939,0.5,0
99999,-0.012932,-0.090772,0,-0.80923,1,1,1,0.94,0.94,0.5,0
99999,-0.012539,-0.089487,0,-0.81171,1,1,1,0.941,0.941,0.5,0
99999,-0.012146,-0.088203,0,-0.81418,1,1,1,0.942,0.942,0.5,0
99999,-0.011754,-0.086918,0,-0.81665,1,1,1,0.943,0.943,0.5,0
99999,-0.011361,-0.085633,0,-0.81913,1,1,1,0.944,0.944,0.5,0
99999,-0.010968,-0.084348,0,-0.8216,1,1,1,0.945,0.945,0.5,0
99999,-0.010605,-0.083018,0,-0.83397,1,1,1,0.946,0.946,0.5,0
99999,-0.010255,-0.081667,0,-0.85082,1,1,1,0.947,0.947,0.5,0
99999,-0.0099049,-0.080316,0,-0.86768,1,1,1,0.948,0.948,0.5,0
99999,-0.0095548,-0.078965,0,-0.88453,1,1,1,0.949,0.949,0.5,0
99999,-0.0092047,-0.077614,0,-0.90139,1,1,1,0.95,0.95,0.5,0
99999,-0.0088546,-0.076263,0,-0.91824,1,1,1,0.951,0.951,0.5,0
99999,-0.0085045,-0.074912,0,-0.9351,1,1,1,0.952,0.952,0.5,0
99999,-0.0081544,-0.073561,0,-0.95195,1,1,1,0.953,0.953,0.5,0
99999,-0.0078438,-0.072154,0,-0.95582,1,1,1,0.954,0.954,0.5,0
99999,-0.0075387,-0.07074,0,-0.95784,1,1,1,0.955,0.955,0.5,0
99999,-0.0072337,-0.069325,0,-0.95985,1,1,1,0.956,0.956,0.5,0
99999,-0.0069287,-0.06791,0,-0.96187,1,1,1,0.957,0.957,0.5,0
99999,-0.0066237,-0.066495,0,-0.96388,1,1,1,0.958,0.958,0.5,0
99999,-0.0063186,-0.06508,0,-0.9659,1,1,1,0.959,0.959,0.5,0
99999,-0.0060136,-0.063665,0,-0.96791,1,1,1,0.96,0.96,0.5,0
99999,-0.0057116,-0.062246,0,-0.97084,1,1,1,0.961,0.961,0.5,0
99999,-0.0054555,-0.060768,0,-0.9875,1,1,1,0.962,0.962,0.5,0
99999,-0.0051994,-0.05929,0,-1.0042,1,1,1,0.963,0.963,0.5,0
99999,-0.0049432,-0.057812,0,-1.0208,1,1,1,0.964,0.964,0.5,0
99999,-0.0046871,-0.056335,0,-1.0375,1,1,1,0.965,0.965,0.5,0
99999,-0.004431,-0.054857,0,-1.0542,1,1,1,0.966,0.966,0.5,0
99999,-0.0041749,-0.053379,0,-1.0708,1,1,1,0.967,0.967,0.5,0
99999,-0.0039187,-0.051901,0,-1.0875,1,1,1,0.968,0.968,0.5,0
99999,-0.0036755,-0.050408,0,-1.1004,1,1,1,0.969,0.969,0.5,0
99999,-0.0034708,-0.04887,0,-1.1018,1,1,1,0.97,0.97,0.5,0
99999,-0.0032661,-0.047332,0,-1.1032,1,1,1,0.971,0.971,0.5,0
99999,-0.0030614,-0.045795,0,-1.1046,1,1,1,0.972,0.972,0.5,0
99999,-0.0028567,-0.044257,0,-1.106,1,1,1,0.973,0.973,0.5,0
99999,-0.002652,-0.042719,0,-1.1075,1,1,1,0.974,0.974,0.5,0
99999,-0.0024472,-0.041181,0,-1.1089,1,1,1,0.975,0.975,0.5,0
99999,-0.0022425,-0.039643,0,-1.1103,1,1,1,0.976,0.976,0.5,0
99999,-0.002062,-0.03808,0,-1.1182,1,1,1,0.977,0.977,0.5,0
99999,-0.0019125,-0.036484,0,-1.1346,1,1,1,0.978,0.978,0.5,0
99999,-0.001763,-0.034889,0,-1.1509,1,1,1,0.979,0.979,0.5,0
99999,-0.0016135,-0.033293,0,-1.1673,1,1,1,0.98,0.98,0.5,0
99999,-0.001464,-0.031697,0,-1.1836,1,1,1,0.981,0.981,0.5,0
99999,-0.0013145,-0.030101,0,-1.2,1,1,1,0.982,0.982,0.5,0
99999,-0.001165,-0.028505,0,-1.2163,1,1,1,0.983,0.983,0.5,0
99999,-0.0010155,-0.026909,0,-1.2327,1,1,1,0.984,0.984,0.5,0
99999,-0.00090202,-0.025279,0,-1.2392,1,1,1,0.985,0.985,0.5,0
99999,-0.0008101,-0.023629,0,-1.24,1,1,1,0.986,0.986,0.5,0
99999,-0.00071818,-0.021978,0,-1.2407,1,1,1,0.987,0.987,0.5,0
99999,-0.00062627,-0.020328,0,-1.2414,1,1,1,0.988,0.988,0.5,0
99999,-0.00053435,-0.018677,0,-1.2421,1,1,1,0.989,0.989,0.5,0
99999,-0.00044243,-0.017026,0,-1.2429,1,1,1,0.99,0.99,0.5,0
99999,-0.00035052,-0.015376,0,-1.2436,1,1,1,0.991,0.991,0.5,0
99999,-0.0002586,-0.013725,0,-1.2443,1,1,1,0.992,0.992,0.5,0
99999,-0.00021624,-0.012021,0,-1.2574,1,1,1,0.993,0.993,0.5,0
99999,-0.00018534,-0.010303,0,-1.2733,1,1,1,0.994,0.994,0.5,0
99999,-0.00015445,-0.0085861,0,-1.2893,1,1,1,0.995,0.995,0.5,0
99999,-0.00012356,-0.0068689,0,-1.3052,1,1,1,0.996,0.996,0.5,0
99999,-9.2673e-05,-0.0051517,0,-1.3211,1,1,1,0.997,0.997,0.5,0
99999,-6.1781e-05,-0.0034344,0,-1.3371,1,1,1,0.998,0.998,0.5,0
99999,-3.089e-05,-0.0017172,0,-1.353,1,1,1,0.999,0.999,0.5,0
99999,0,0,0,-1.369,1,1,1,1,1,0.5,0
