<?xml version="1.0"?>
<VTKFile type="UnstructuredGrid" version="0.1" byte_order="LittleEndian">
  <UnstructuredGrid>
    <Piece NumberOfCells="64" NumberOfPoints="85">
      <CellData Scalars="Sn">
        <DataArray type="Float32" Name="Sn" NumberOfComponents="1" format="ascii">
          0.0128801 0.0128798 0.0128795 0.0128793 0.0189936 0.0189918 0.0189901 0.0189891 0.124525 0.124497 0.124471 0.124455
          0.40717 0.407116 0.407063 0.407031 0.66496 0.664912 0.664865 0.664837 0.805687 0.805645 0.805607 0.805584
          0.875714 0.875662 0.875619 0.875592 0.912619 0.912535 0.912468 0.912427 0.93385 0.933706 0.933596 0.933528
          0.947162 0.946931 0.946756 0.94665 0.956187 0.95584 0.955581 0.955422 0.962742 0.962248 0.961886 0.961664
          0.9678 0.967125 0.96664 0.966344 0.971916 0.971022 0.970392 0.970009 0.975433 0.97427 0.973468 0.972986
          0.978581 0.977081 0.976075 0.975477
        </DataArray>
        <DataArray type="Float32" Name="Sw" NumberOfComponents="1" format="ascii">
          0.98712 0.98712 0.987121 0.987121 0.981006 0.981008 0.98101 0.981011 0.875475 0.875503 0.875529 0.875545
          0.59283 0.592884 0.592937 0.592969 0.33504 0.335088 0.335135 0.335163 0.194313 0.194355 0.194393 0.194416
          0.124286 0.124338 0.124381 0.124408 0.0873808 0.0874653 0.0875319 0.0875725 0.0661504 0.0662938 0.0664043 0.0664717
          0.0528381 0.0530689 0.0532436 0.0533504 0.0438131 0.0441605 0.0444192 0.0445776 0.037258 0.0377523 0.0381145 0.038336
          0.0322004 0.0328747 0.0333602 0.0336563 0.0280841 0.0289775 0.0296085 0.0299911 0.0245671 0.0257296 0.0265319 0.0270144
          0.021419 0.0229188 0.0239251 0.0245228
        </DataArray>
        <DataArray type="Float32" Name="pn" NumberOfComponents="1" format="ascii">
          100003 100003 100003 100003 100002 100002 100002 100002 100002 100002 100002 100002
          100001 100001 100001 100001 100001 100001 100001 100001 100001 100001 100001 100001
          100001 100001 100001 100001 100001 100001 100001 100001 100001 100000 100000 100000
          100000 100000 100000 100000 100000 100000 100000 100000 100000 100000 100000 100000
          100000 100000 100000 100000 100000 100000 100000 100000 100000 100000 100000 100000
          100000 100000 100000 100000
        </DataArray>
        <DataArray type="Float32" Name="pn_rel" NumberOfComponents="1" format="ascii">
          2.74024 2.70154 2.66389 2.64156 2.23555 2.19472 2.15632 2.13363 1.81093 1.77002 1.7316 1.70889
          1.469 1.42726 1.387 1.36258 1.19516 1.15062 1.10789 1.08201 0.976689 0.927225 0.882206 0.854953
          0.802711 0.74671 0.699523 0.670873 0.664227 0.600718 0.551609 0.521551 0.553945 0.482559 0.431884 0.400464
          0.466092 0.386884 0.335035 0.302344 0.39606 0.309397 0.256726 0.222878 0.340178 0.246639 0.193438 0.158555
          0.295537 0.195822 0.142309 0.106516 0.259834 0.154686 0.101019 0.064438 0.231248 0.1214 0.0676837 0.0304286
          0.208334 0.0944786 0.0407771 0.00295151
        </DataArray>
        <DataArray type="Float32" Name="pw" NumberOfComponents="1" format="ascii">
          99560.9 99560.9 99560.9 99560.9 99118.5 99118.5 99118.5 99118.5 98761.8 98761.8 98761.8 98761.8
          98474.1 98474.1 98474.1 98474.1 98242.1 98242.1 98242.1 98242.1 98054.8 98054.9 98054.9 98054.9
          97903.4 97903.5 97903.6 97903.6 97780.1 97780.4 97780.6 97780.8 97678.3 97679 97679.6 97679.9
          97592.1 97593.8 97595 97595.7 97516.9 97520 97522.4 97523.8 97448.8 97454.3 97458.4 97460.8
          97384.6 97393.8 97400.3 97404.2 97321.6 97336.2 97346.1 97352 97256.7 97279.4 97294.3 97302.9
          97186.4 97221.5 97243.3 97255.6
        </DataArray>
        <DataArray type="Float32" Name="pc" NumberOfComponents="1" format="ascii">
          441.861 441.822 441.783 441.76 883.699 883.657 883.617 883.593 1240.01 1239.96 1239.92 1239.9
          1527.36 1527.32 1527.27 1527.25 1759.13 1759.07 1759.02 1758.99 1946.14 1946.07 1946 1945.96
          2097.37 2097.23 2097.11 2097.04 2220.52 2220.17 2219.9 2219.73 2322.27 2321.45 2320.83 2320.45
          2408.35 2406.64 2405.35 2404.57 2483.5 2480.26 2477.87 2476.41 2551.55 2545.9 2541.82 2539.35
          2615.66 2606.37 2599.84 2595.92 2678.66 2663.96 2653.95 2648.02 2743.49 2720.69 2705.79 2697.13
          2813.84 2778.57 2756.74 2744.39
        </DataArray>
        <DataArray type="Float32" Name="rhoW" NumberOfComponents="1" format="ascii">
          998.693 998.693 998.693 998.692 998.706 998.705 998.705 998.704 998.724 998.723 998.722 998.722
          998.743 998.742 998.741 998.741 998.765 998.763 998.762 998.761 998.787 998.785 998.783 998.782
          998.808 998.806 998.803 998.802 998.828 998.825 998.822 998.82 998.845 998.841 998.838 998.836
          998.86 998.856 998.852 998.85 998.872 998.868 998.864 998.861 998.883 998.878 998.874 998.871
          998.892 998.886 998.882 998.879 998.899 998.893 998.889 998.885 998.905 998.899 998.894 998.891
          998.91 998.904 998.899 998.895
        </DataArray>
        <DataArray type="Float32" Name="rhoN" NumberOfComponents="1" format="ascii">
          1.18929 1.18928 1.18927 1.18926 1.1896 1.18959 1.18957 1.18956 1.19006 1.19004 1.19002 1.19001
          1.19059 1.19057 1.19054 1.19052 1.19117 1.19113 1.19109 1.19107 1.19176 1.19171 1.19166 1.19163
          1.19234 1.19228 1.19221 1.19217 1.19287 1.19279 1.19271 1.19266 1.19334 1.19324 1.19315 1.1931
          1.19375 1.19363 1.19353 1.19347 1.19409 1.19396 1.19385 1.19378 1.19438 1.19424 1.19412 1.19404
          1.19462 1.19447 1.19434 1.19426 1.19482 1.19466 1.19453 1.19444 1.19499 1.19482 1.19468 1.19459
          1.19513 1.19494 1.1948 1.19471
        </DataArray>
        <DataArray type="Float32" Name="mobW" NumberOfComponents="1" format="ascii">
          937.774 937.817 937.875 937.916 931.589 931.648 931.726 931.778 605.529 605.644 605.771 605.853
          184.98 185.054 185.133 185.183 35.1853 35.2066 35.2285 35.2422 7.30851 7.315 7.32119 7.32505
          1.99509 1.99822 2.00095 2.00264 0.706444 0.708777 0.710681 0.711854 0.306518 0.308691 0.310398 0.311449
          0.154132 0.156311 0.157987 0.159022 0.0858558 0.0880773 0.0897636 0.0908087 0.0511699 0.0534272 0.0551264 0.0561846
          0.0317636 0.0340362 0.0357394 0.036806 0.0200808 0.0223431 0.024038 0.0251064 0.0126552 0.0148785 0.016552 0.0176153
          0.00775535 0.00990502 0.0115435 0.0125949
        </DataArray>
        <DataArray type="Float32" Name="mobN" NumberOfComponents="1" format="ascii">
          0.37157 0.371484 0.3714 0.371349 3.98128 3.97962 3.97803 3.97709 787.159 786.758 786.375 786.147
          10056.2 10053.3 10050.5 10048.8 27074.1 27069.8 27065.6 27063.1 39115.7 39111 39106.7 39104
          45554.3 45548.2 45542.9 45539.6 49176.4 49165.2 49156 49150.4 51631.5 51612.8 51598 51588.9
          53115.7 53088.7 53067.8 53054.9 54026.8 53990.9 53963.7 53946.9 54616.4 54571.5 54538 54517.3
          55019.9 54966 54926.2 54901.6 55310.2 55247.3 55201.4 55173 55528.2 55456.3 55404.5 55372.4
          55697.8 55617.1 55559.3 55523.6
        </DataArray>
        <DataArray type="Float32" Name="X_liquid^H2O" NumberOfComponents="1" format="ascii">
          0.999975 0.999975 0.999975 0.999975 0.999975 0.999975 0.999975 0.999975 0.999975 0.999975 0.999975 0.999975
          0.999975 0.999975 0.999975 0.999975 0.999975 0.999975 0.999975 0.999975 0.999975 0.999975 0.999975 0.999975
          0.999975 0.999975 0.999975 0.999975 0.999975 0.999975 0.999975 0.999975 0.999975 0.999975 0.999975 0.999975
          0.999975 0.999975 0.999975 0.999975 0.999975 0.999975 0.999975 0.999975 0.999975 0.999975 0.999975 0.999975
          0.999975 0.999975 0.999975 0.999975 0.999975 0.999975 0.999975 0.999975 0.999975 0.999975 0.999975 0.999975
          0.999975 0.999975 0.999975 0.999975
        </DataArray>
        <DataArray type="Float32" Name="X_liquid^Air" NumberOfComponents="1" format="ascii">
          2.48127e-05 2.48118e-05 2.48106e-05 2.48097e-05 2.4847e-05 2.48457e-05 2.48441e-05 2.4843e-05 2.48972e-05 2.48954e-05 2.48931e-05 2.48915e-05
          2.49553e-05 2.49527e-05 2.49495e-05 2.49474e-05 2.50188e-05 2.50151e-05 2.50107e-05 2.50079e-05 2.50846e-05 2.50794e-05 2.50737e-05 2.507e-05
          2.51486e-05 2.51417e-05 2.51345e-05 2.51299e-05 2.52077e-05 2.51989e-05 2.51903e-05 2.51847e-05 2.52602e-05 2.52495e-05 2.52396e-05 2.52331e-05
          2.53057e-05 2.52932e-05 2.5282e-05 2.52747e-05 2.53445e-05 2.53303e-05 2.5318e-05 2.531e-05 2.53772e-05 2.53614e-05 2.53482e-05 2.53395e-05
          2.54046e-05 2.53873e-05 2.53733e-05 2.53641e-05 2.54273e-05 2.54088e-05 2.53941e-05 2.53843e-05 2.54461e-05 2.54265e-05 2.54112e-05 2.5401e-05
          2.54616e-05 2.5441e-05 2.54253e-05 2.54147e-05
        </DataArray>
        <DataArray type="Float32" Name="X_gas^H2O" NumberOfComponents="1" format="ascii">
          0.0125558 0.0125573 0.0125593 0.0125607 0.0125004 0.0125023 0.012505 0.0125068 0.0124196 0.0124224 0.0124261 0.0124286
          0.0123312 0.0123351 0.01234 0.0123432 0.0122353 0.0122409 0.0122474 0.0122517 0.0121365 0.0121443 0.0121528 0.0121584
          0.012041 0.0120513 0.0120619 0.0120688 0.0119533 0.0119663 0.011979 0.0119873 0.0118757 0.0118914 0.0119061 0.0119156
          0.0118087 0.0118271 0.0118435 0.0118542 0.0117518 0.0117726 0.0117906 0.0118023 0.011704 0.0117271 0.0117464 0.0117591
          0.0116642 0.0116893 0.0117097 0.0117232 0.0116312 0.011658 0.0116794 0.0116936 0.0116054 0.0116323 0.0116544 0.0116693
          0.011584 0.0116123 0.011634 0.0116493
        </DataArray>
        <DataArray type="Float32" Name="X_gas^Air" NumberOfComponents="1" format="ascii">
          0.987444 0.987443 0.987441 0.987439 0.9875 0.987498 0.987495 0.987493 0.98758 0.987578 0.987574 0.987571
          0.987669 0.987665 0.98766 0.987657 0.987765 0.987759 0.987753 0.987748 0.987864 0.987856 0.987847 0.987842
          0.987959 0.987949 0.987938 0.987931 0.988047 0.988034 0.988021 0.988013 0.988124 0.988109 0.988094 0.988084
          0.988191 0.988173 0.988156 0.988146 0.988248 0.988227 0.988209 0.988198 0.988296 0.988273 0.988254 0.988241
          0.988336 0.988311 0.98829 0.988277 0.988369 0.988342 0.988321 0.988306 0.988395 0.988368 0.988346 0.988331
          0.988416 0.988388 0.988366 0.988351
        </DataArray>
        <DataArray type="Float32" Name="x_liquid^H2O" NumberOfComponents="1" format="ascii">
          0.999985 0.999985 0.999985 0.999985 0.999985 0.999985 0.999985 0.999985 0.999985 0.999985 0.999985 0.999985
          0.999985 0.999985 0.999985 0.999985 0.999984 0.999984 0.999984 0.999984 0.999984 0.999984 0.999984 0.999984
          0.999984 0.999984 0.999984 0.999984 0.999984 0.999984 0.999984 0.999984 0.999984 0.999984 0.999984 0.999984
          0.999984 0.999984 0.999984 0.999984 0.999984 0.999984 0.999984 0.999984 0.999984 0.999984 0.999984 0.999984
          0.999984 0.999984 0.999984 0.999984 0.999984 0.999984 0.999984 0.999984 0.999984 0.999984 0.999984 0.999984
          0.999984 0.999984 0.999984 0.999984
        </DataArray>
        <DataArray type="Float32" Name="x_liquid^Air" NumberOfComponents="1" format="ascii">
          1.54354e-05 1.54349e-05 1.54341e-05 1.54335e-05 1.54567e-05 1.5456e-05 1.54549e-05 1.54542e-05 1.5488e-05 1.54868e-05 1.54854e-05 1.54844e-05
          1.55241e-05 1.55225e-05 1.55205e-05 1.55192e-05 1.55636e-05 1.55613e-05 1.55586e-05 1.55568e-05 1.56046e-05 1.56013e-05 1.55978e-05 1.55955e-05
          1.56444e-05 1.56401e-05 1.56356e-05 1.56327e-05 1.56811e-05 1.56756e-05 1.56703e-05 1.56668e-05 1.57138e-05 1.57071e-05 1.57009e-05 1.56969e-05
          1.57421e-05 1.57343e-05 1.57274e-05 1.57228e-05 1.57662e-05 1.57574e-05 1.57498e-05 1.57448e-05 1.57866e-05 1.57767e-05 1.57685e-05 1.57631e-05
          1.58036e-05 1.57929e-05 1.57842e-05 1.57784e-05 1.58177e-05 1.58062e-05 1.57971e-05 1.5791e-05 1.58294e-05 1.58172e-05 1.58077e-05 1.58014e-05
          1.58391e-05 1.58263e-05 1.58165e-05 1.58099e-05
        </DataArray>
        <DataArray type="Float32" Name="x_gas^H2O" NumberOfComponents="1" format="ascii">
          0.020031 0.0200334 0.0200366 0.0200388 0.0199433 0.0199464 0.0199506 0.0199535 0.0198153 0.0198199 0.0198257 0.0198296
          0.0196754 0.0196816 0.0196893 0.0196944 0.0195235 0.0195324 0.0195428 0.0195496 0.019367 0.0193794 0.0193929 0.0194017
          0.0192157 0.019232 0.0192489 0.0192598 0.0190768 0.0190974 0.0191175 0.0191306 0.0189539 0.0189787 0.019002 0.0190171
          0.0188477 0.0188768 0.0189028 0.0189197 0.0187575 0.0187905 0.0188189 0.0188376 0.0186818 0.0187183 0.0187489 0.018769
          0.0186186 0.0186584 0.0186907 0.0187121 0.0185664 0.0186088 0.0186427 0.0186652 0.0185254 0.0185681 0.0186032 0.0186267
          0.0184915 0.0185364 0.0185708 0.0185951
        </DataArray>
        <DataArray type="Float32" Name="x_gas^Air" NumberOfComponents="1" format="ascii">
          0.979969 0.979967 0.979963 0.979961 0.980057 0.980054 0.980049 0.980047 0.980185 0.98018 0.980174 0.98017
          0.980325 0.980318 0.980311 0.980306 0.980477 0.980468 0.980457 0.98045 0.980633 0.980621 0.980607 0.980598
          0.980784 0.980768 0.980751 0.98074 0.980923 0.980903 0.980882 0.980869 0.981046 0.981021 0.980998 0.980983
          0.981152 0.981123 0.981097 0.98108 0.981242 0.98121 0.981181 0.981162 0.981318 0.981282 0.981251 0.981231
          0.981381 0.981342 0.981309 0.981288 0.981434 0.981391 0.981357 0.981335 0.981475 0.981432 0.981397 0.981373
          0.981508 0.981464 0.981429 0.981405
        </DataArray>
        <DataArray type="Float32" Name="porosity" NumberOfComponents="1" format="ascii">
          0.41 0.41 0.41 0.41 0.41 0.41 0.41 0.41 0.41 0.41 0.41 0.41
          0.41 0.41 0.41 0.41 0.41 0.41 0.41 0.41 0.41 0.41 0.41 0.41
          0.41 0.41 0.41 0.41 0.41 0.41 0.41 0.41 0.41 0.41 0.41 0.41
          0.41 0.41 0.41 0.41 0.41 0.41 0.41 0.41 0.41 0.41 0.41 0.41
          0.41 0.41 0.41 0.41 0.41 0.41 0.41 0.41 0.41 0.41 0.41 0.41
          0.41 0.41 0.41 0.41
        </DataArray>
        <DataArray type="Float32" Name="temperature" NumberOfComponents="1" format="ascii">
          290.667 290.668 290.671 290.672 290.598 290.601 290.604 290.606 290.499 290.503 290.507 290.51
          290.384 290.389 290.396 290.4 290.26 290.267 290.275 290.281 290.131 290.141 290.152 290.159
          290.007 290.02 290.034 290.043 289.893 289.91 289.926 289.937 289.792 289.812 289.831 289.844
          289.705 289.728 289.75 289.764 289.631 289.658 289.681 289.696 289.568 289.598 289.623 289.64
          289.517 289.549 289.576 289.593 289.473 289.508 289.536 289.555 289.438 289.475 289.504 289.523
          289.408 289.447 289.477 289.497
        </DataArray>
        <DataArray type="Float32" Name="phase presence" NumberOfComponents="1" format="ascii">
          3 3 3 3 3 3 3 3 3 3 3 3
          3 3 3 3 3 3 3 3 3 3 3 3
          3 3 3 3 3 3 3 3 3 3 3 3
          3 3 3 3 3 3 3 3 3 3 3 3
          3 3 3 3 3 3 3 3 3 3 3 3
          3 3 3 3
        </DataArray>
      </CellData>
      <Points>
        <DataArray type="Float32" Name="Coordinates" NumberOfComponents="3" format="ascii">
          0 0 0 0.0625 0 0 0 0.0499871 0 0.0625 0.0499871 0
          0.125 0 0 0.125 0.0499871 0 0.1875 0 0 0.1875 0.0499871 0
          0.25 0 0 0.25 0.0499871 0 0 0.0902992 0 0.0625 0.0902992 0
          0.125 0.0902992 0 0.1875 0.0902992 0 0.25 0.0902992 0 0 0.122809 0
          0.0625 0.122809 0 0.125 0.122809 0 0.1875 0.122809 0 0.25 0.122809 0
          0 0.149027 0 0.0625 0.149027 0 0.125 0.149027 0 0.1875 0.149027 0
          0.25 0.149027 0 0 0.17017 0 0.0625 0.17017 0 0.125 0.17017 0
          0.1875 0.17017 0 0.25 0.17017 0 0 0.187221 0 0.0625 0.187221 0
          0.125 0.187221 0 0.1875 0.187221 0 0.25 0.187221 0 0 0.200972 0
          0.0625 0.200972 0 0.125 0.200972 0 0.1875 0.200972 0 0.25 0.200972 0
          0 0.212061 0 0.0625 0.212061 0 0.125 0.212061 0 0.1875 0.212061 0
          0.25 0.212061 0 0 0.221004 0 0.0625 0.221004 0 0.125 0.221004 0
          0.1875 0.221004 0 0.25 0.221004 0 0 0.228216 0 0.0625 0.228216 0
          0.125 0.228216 0 0.1875 0.228216 0 0.25 0.228216 0 0 0.234032 0
          0.0625 0.234032 0 0.125 0.234032 0 0.1875 0.234032 0 0.25 0.234032 0
          0 0.238723 0 0.0625 0.238723 0 0.125 0.238723 0 0.1875 0.238723 0
          0.25 0.238723 0 0 0.242505 0 0.0625 0.242505 0 0.125 0.242505 0
          0.1875 0.242505 0 0.25 0.242505 0 0 0.245556 0 0.0625 0.245556 0
          0.125 0.245556 0 0.1875 0.245556 0 0.25 0.245556 0 0 0.248016 0
          0.0625 0.248016 0 0.125 0.248016 0 0.1875 0.248016 0 0.25 0.248016 0
          0 0.25 0 0.0625 0.25 0 0.125 0.25 0 0.1875 0.25 0
          0.25 0.25 0
        </DataArray>
      </Points>
      <Cells>
        <DataArray type="Int32" Name="connectivity" NumberOfComponents="1" format="ascii">
          0 1 3 2 1 4 5 3 4 6 7 5
          6 8 9 7 2 3 11 10 3 5 12 11
          5 7 13 12 7 9 14 13 10 11 16 15
          11 12 17 16 12 13 18 17 13 14 19 18
          15 16 21 20 16 17 22 21 17 18 23 22
          18 19 24 23 20 21 26 25 21 22 27 26
          22 23 28 27 23 24 29 28 25 26 31 30
          26 27 32 31 27 28 33 32 28 29 34 33
          30 31 36 35 31 32 37 36 32 33 38 37
          33 34 39 38 35 36 41 40 36 37 42 41
          37 38 43 42 38 39 44 43 40 41 46 45
          41 42 47 46 42 43 48 47 43 44 49 48
          45 46 51 50 46 47 52 51 47 48 53 52
          48 49 54 53 50 51 56 55 51 52 57 56
          52 53 58 57 53 54 59 58 55 56 61 60
          56 57 62 61 57 58 63 62 58 59 64 63
          60 61 66 65 61 62 67 66 62 63 68 67
          63 64 69 68 65 66 71 70 66 67 72 71
          67 68 73 72 68 69 74 73 70 71 76 75
          71 72 77 76 72 73 78 77 73 74 79 78
          75 76 81 80 76 77 82 81 77 78 83 82
          78 79 84 83
        </DataArray>
        <DataArray type="Int32" Name="offsets" NumberOfComponents="1" format="ascii">
          4 8 12 16 20 24 28 32 36 40 44 48
          52 56 60 64 68 72 76 80 84 88 92 96
          100 104 108 112 116 120 124 128 132 136 140 144
          148 152 156 160 164 168 172 176 180 184 188 192
          196 200 204 208 212 216 220 224 228 232 236 240
          244 248 252 256
        </DataArray>
        <DataArray type="UInt8" Name="types" NumberOfComponents="1" format="ascii">
          9 9 9 9 9 9 9 9 9 9 9 9
          9 9 9 9 9 9 9 9 9 9 9 9
          9 9 9 9 9 9 9 9 9 9 9 9
          9 9 9 9 9 9 9 9 9 9 9 9
          9 9 9 9 9 9 9 9 9 9 9 9
          9 9 9 9
        </DataArray>
      </Cells>
    </Piece>
  </UnstructuredGrid>
</VTKFile>
