<?xml version="1.0"?>
<VTKFile type="UnstructuredGrid" version="0.1" byte_order="LittleEndian">
  <UnstructuredGrid>
    <Piece NumberOfCells="30" NumberOfPoints="42">
      <PointData Scalars="Sn" Vectors="velocityW">
        <DataArray type="Float32" Name="Sn" NumberOfComponents="1" format="ascii">
          0.00658206 0.00658456 0.00906646 0.00906637 0.00659148 0.0090661 0.00660009 0.00906606 0.00660612 0.0090658 0.00660773 0.00906569
          0.0119582 0.0119581 0.0119578 0.0119577 0.0119574 0.0119573 0.0159664 0.0159661 0.0159652 0.0159652 0.0159644 0.0159642
          0.0624538 0.0624476 0.062422 0.0624205 0.0623982 0.0623905 0.294453 0.294463 0.294317 0.294338 0.294247 0.29422
          0.609541 0.609759 0.609369 0.609522 0.609363 0.60932
        </DataArray>
        <DataArray type="Float32" Name="Sw" NumberOfComponents="1" format="ascii">
          0.993418 0.993415 0.990934 0.990934 0.993409 0.990934 0.9934 0.990934 0.993394 0.990934 0.993392 0.990934
          0.988042 0.988042 0.988042 0.988042 0.988043 0.988043 0.984034 0.984034 0.984035 0.984035 0.984036 0.984036
          0.937546 0.937552 0.937578 0.937579 0.937602 0.93761 0.705547 0.705537 0.705683 0.705662 0.705753 0.70578
          0.390459 0.390241 0.390631 0.390478 0.390637 0.39068
        </DataArray>
        <DataArray type="Float32" Name="pn" NumberOfComponents="1" format="ascii">
          100115 100115 100001 100001 100117 100001 100118 100001 100119 100001 100120 100001
          100002 100002 100002 100002 100001 100001 100001 100001 100001 100001 100001 100001
          100001 100001 100001 100001 100001 100001 100000 100000 100000 100000 100000 100000
          100000 100000 99999.9 100000 99999.9 99999.9
        </DataArray>
        <DataArray type="Float32" Name="pw" NumberOfComponents="1" format="ascii">
          100747 100747 100174 100174 100747 100174 100747 100174 100747 100174 100747 100174
          99679.7 99679.7 99679.7 99679.7 99679.7 99679.7 99253.7 99253.7 99253.7 99253.7 99253.7 99253.7
          98886.4 98886.4 98886.5 98886.5 98886.5 98886.5 98569.8 98569.8 98569.8 98569.9 98569.9 98569.9
          98296.9 98296.7 98296.9 98296.9 98296.9 98297
        </DataArray>
        <DataArray type="Float32" Name="pc" NumberOfComponents="1" format="ascii">
          -632.003 -631.54 -172.618 -172.635 -630.26 -172.684 -628.669 -172.692 -627.553 -172.74 -627.256 -172.761
          321.867 321.849 321.8 321.794 321.749 321.729 747.512 747.494 747.431 747.433 747.377 747.357
          1114.34 1114.33 1114.25 1114.25 1114.19 1114.16 1430.59 1430.6 1430.47 1430.48 1430.4 1430.38
          1703.17 1703.38 1703.01 1703.16 1703 1702.96
        </DataArray>
        <DataArray type="Float32" Name="rhoW" NumberOfComponents="1" format="ascii">
          998.935 998.934 998.956 998.954 998.932 998.951 998.928 998.947 998.925 998.943 998.924 998.942
          999.005 999.003 998.999 998.992 998.986 998.983 999.068 999.067 999.062 999.051 999.039 999.034
          999.128 999.132 999.127 999.11 999.091 999.08 999.176 999.204 999.194 999.168 999.138 999.113
          999.181 999.293 999.255 999.223 999.188 999.118
        </DataArray>
        <DataArray type="Float32" Name="rhoN" NumberOfComponents="1" format="ascii">
          1.1972 1.19717 1.19642 1.19639 1.19711 1.1963 1.19704 1.19618 1.19697 1.19607 1.19694 1.19603
          1.19787 1.19783 1.19771 1.19751 1.19732 1.19724 1.19971 1.1997 1.19954 1.19921 1.19887 1.19871
          1.20161 1.20174 1.20157 1.20104 1.20044 1.2001 1.20313 1.20399 1.20368 1.20286 1.20192 1.20112
          1.20328 1.20702 1.2057 1.20461 1.20351 1.20128
        </DataArray>
        <DataArray type="Float32" Name="mobW" NumberOfComponents="1" format="ascii">
          904.975 905.117 901.922 902.086 905.5 902.542 905.995 903.164 906.415 903.711 906.579 903.93
          894.432 894.624 895.247 896.223 897.166 897.562 883.352 883.446 884.244 885.823 887.519 888.294
          754.25 753.682 754.54 756.816 759.528 761.014 289.208 287.788 288.465 289.78 291.439 292.812
          51.115 49.9429 50.471 50.7366 51.1154 51.7817
        </DataArray>
        <DataArray type="Float32" Name="mobN" NumberOfComponents="1" format="ascii">
          0 0 0 0 0 0 0 0 0 0 0 0
          0.16701 0.166985 0.166915 0.166893 0.166822 0.166792 1.70178 1.70161 1.70095 1.70072 1.69997 1.69967
          156.851 156.823 156.65 156.602 156.419 156.347 5140.63 5143.11 5136.99 5135.76 5130.15 5127.21
          22934.3 22991.8 22948.1 22947.4 22923.5 22896.3
        </DataArray>
        <DataArray type="Float32" Name="X_liquid^H2O" NumberOfComponents="1" format="ascii">
          0.999974 0.999974 0.999974 0.999974 0.999974 0.999974 0.999974 0.999974 0.999974 0.999974 0.999974 0.999974
          0.999974 0.999974 0.999974 0.999974 0.999974 0.999974 0.999974 0.999974 0.999974 0.999974 0.999974 0.999974
          0.999974 0.999974 0.999974 0.999974 0.999974 0.999974 0.999974 0.999973 0.999974 0.999974 0.999974 0.999974
          0.999974 0.999973 0.999973 0.999973 0.999974 0.999974
        </DataArray>
        <DataArray type="Float32" Name="X_liquid^Air" NumberOfComponents="1" format="ascii">
          2.55699e-05 2.55668e-05 2.56089e-05 2.56052e-05 2.55586e-05 2.55949e-05 2.5548e-05 2.55809e-05 2.5539e-05 2.55686e-05 2.55354e-05 2.55636e-05
          2.57753e-05 2.57708e-05 2.57563e-05 2.57337e-05 2.5712e-05 2.57028e-05 2.59916e-05 2.59894e-05 2.59708e-05 2.59327e-05 2.58922e-05 2.58738e-05
          2.62176e-05 2.62341e-05 2.62127e-05 2.61498e-05 2.60778e-05 2.60382e-05 2.64014e-05 2.65071e-05 2.64695e-05 2.63694e-05 2.6256e-05 2.61597e-05
          2.64201e-05 2.68834e-05 2.67186e-05 2.65835e-05 2.64484e-05 2.61792e-05
        </DataArray>
        <DataArray type="Float32" Name="X_gas^H2O" NumberOfComponents="1" format="ascii">
          0.0114638 0.011468 0.0113836 0.0113886 0.0114795 0.0114026 0.0114944 0.0114216 0.011507 0.0114383 0.0115119 0.011445
          0.0111595 0.0111655 0.0111849 0.0112152 0.0112445 0.0112567 0.0108738 0.0108765 0.0109 0.0109502 0.0110038 0.0110282
          0.010595 0.0105748 0.0106009 0.010678 0.0107668 0.0108157 0.0103719 0.0102451 0.0102901 0.0104105 0.0105479 0.0106658
          0.0103493 0.00982317 0.0100052 0.0101562 0.0103153 0.0106417
        </DataArray>
        <DataArray type="Float32" Name="X_gas^Air" NumberOfComponents="1" format="ascii">
          0.988536 0.988532 0.988616 0.988611 0.988521 0.988597 0.988506 0.988578 0.988493 0.988562 0.988488 0.988555
          0.98884 0.988835 0.988815 0.988785 0.988756 0.988743 0.989126 0.989124 0.9891 0.98905 0.988996 0.988972
          0.989405 0.989425 0.989399 0.989322 0.989233 0.989184 0.989628 0.989755 0.98971 0.98959 0.989452 0.989334
          0.989651 0.990177 0.989995 0.989844 0.989685 0.989358
        </DataArray>
        <DataArray type="Float32" Name="x_liquid^H2O" NumberOfComponents="1" format="ascii">
          0.999984 0.999984 0.999984 0.999984 0.999984 0.999984 0.999984 0.999984 0.999984 0.999984 0.999984 0.999984
          0.999984 0.999984 0.999984 0.999984 0.999984 0.999984 0.999984 0.999984 0.999984 0.999984 0.999984 0.999984
          0.999984 0.999984 0.999984 0.999984 0.999984 0.999984 0.999984 0.999983 0.999984 0.999984 0.999984 0.999984
          0.999984 0.999983 0.999983 0.999983 0.999984 0.999984
        </DataArray>
        <DataArray type="Float32" Name="x_liquid^Air" NumberOfComponents="1" format="ascii">
          1.59064e-05 1.59045e-05 1.59307e-05 1.59284e-05 1.58994e-05 1.5922e-05 1.58928e-05 1.59133e-05 1.58872e-05 1.59056e-05 1.5885e-05 1.59026e-05
          1.60342e-05 1.60314e-05 1.60224e-05 1.60084e-05 1.59948e-05 1.59891e-05 1.61688e-05 1.61674e-05 1.61558e-05 1.61322e-05 1.61069e-05 1.60955e-05
          1.63094e-05 1.63196e-05 1.63064e-05 1.62672e-05 1.62224e-05 1.61978e-05 1.64237e-05 1.64895e-05 1.64661e-05 1.64038e-05 1.63333e-05 1.62733e-05
          1.64354e-05 1.67235e-05 1.6621e-05 1.6537e-05 1.64529e-05 1.62855e-05
        </DataArray>
        <DataArray type="Float32" Name="x_gas^H2O" NumberOfComponents="1" format="ascii">
          0.0183009 0.0183077 0.0181738 0.0181818 0.0183259 0.0182039 0.0183495 0.0182341 0.0183694 0.0182606 0.0183773 0.0182712
          0.0178185 0.017828 0.0178588 0.0179069 0.0179532 0.0179727 0.0173652 0.0173695 0.0174069 0.0174865 0.0175715 0.0176103
          0.0169229 0.0168909 0.0169323 0.0170547 0.0171955 0.0172731 0.0165688 0.0163675 0.0164389 0.01663 0.0168482 0.0170352
          0.0165329 0.0156974 0.0159865 0.0162264 0.0164789 0.0169971
        </DataArray>
        <DataArray type="Float32" Name="x_gas^Air" NumberOfComponents="1" format="ascii">
          0.981699 0.981692 0.981826 0.981818 0.981674 0.981796 0.981651 0.981766 0.981631 0.981739 0.981623 0.981729
          0.982181 0.982172 0.982141 0.982093 0.982047 0.982027 0.982635 0.98263 0.982593 0.982514 0.982428 0.98239
          0.983077 0.983109 0.983068 0.982945 0.982804 0.982727 0.983431 0.983633 0.983561 0.98337 0.983152 0.982965
          0.983467 0.984303 0.984013 0.983774 0.983521 0.983003
        </DataArray>
        <DataArray type="Float32" Name="porosity" NumberOfComponents="1" format="ascii">
          0.41 0.41 0.41 0.41 0.41 0.41 0.41 0.41 0.41 0.41 0.41 0.41
          0.41 0.41 0.41 0.41 0.41 0.41 0.41 0.41 0.41 0.41 0.41 0.41
          0.41 0.41 0.41 0.41 0.41 0.41 0.41 0.41 0.41 0.41 0.41 0.41
          0.41 0.41 0.41 0.41 0.41 0.41
        </DataArray>
        <DataArray type="Float32" Name="temperature" NumberOfComponents="1" format="ascii">
          289.261 289.267 289.132 289.139 289.283 289.158 289.303 289.184 289.321 289.207 289.328 289.217
          288.823 288.832 288.858 288.9 288.94 288.957 288.428 288.432 288.466 288.535 288.609 288.642
          288.02 287.991 288.029 288.142 288.271 288.343 287.694 287.509 287.575 287.751 287.952 288.124
          287.661 286.859 287.142 287.376 287.612 288.089
        </DataArray>
        <DataArray type="Float32" Name="phase presence" NumberOfComponents="1" format="ascii">
          3 3 3 3 3 3 3 3 3 3 3 3
          3 3 3 3 3 3 3 3 3 3 3 3
          3 3 3 3 3 3 3 3 3 3 3 3
          3 3 3 3 3 3
        </DataArray>
        <DataArray type="Float32" Name="velocityW" NumberOfComponents="3" format="ascii">
          1.19383e-09 -1.76028e-09 0 2.5065e-09 -1.89975e-09 0 -1.46276e-09 -1.85582e-10 0 -2.08032e-09 -1.2193e-09 0
          4.94474e-09 -1.68222e-09 0 -1.96851e-09 -2.41513e-09 0 6.02372e-09 -3.13319e-10 0 -3.13429e-10 -1.22247e-09 0
          4.25485e-09 1.64443e-09 0 6.18688e-10 1.75313e-09 0 2.53259e-09 2.59139e-09 0 6.25094e-10 3.38877e-09 0
          -6.77213e-09 7.73407e-09 0 -1.10685e-08 3.51025e-09 0 -1.49044e-08 -3.48909e-09 0 -1.13326e-08 -4.90229e-09 0
          -5.2099e-09 -7.96127e-10 0 -2.19849e-09 2.28439e-09 0 -1.28697e-08 2.47051e-08 0 -2.48999e-08 1.73411e-08 0
          -3.70804e-08 -3.46875e-09 0 -3.04559e-08 -1.28386e-08 0 -1.54016e-08 -9.80971e-09 0 -7.12206e-09 -5.03678e-09 0
          2.11963e-09 4.06474e-08 0 -3.41703e-08 5.78568e-08 0 -6.8348e-08 1.69708e-09 0 -5.41466e-08 -2.01469e-08 0
          -2.8431e-08 -1.94442e-08 0 -1.48046e-08 -1.44607e-08 0 6.22947e-08 2.70853e-08 0 -1.10631e-08 1.48031e-07 0
          -6.27025e-08 1.10548e-08 0 -3.4197e-08 -9.57359e-09 0 -2.39585e-08 -8.06129e-09 0 -2.05071e-08 -1.34848e-08 0
          4.15802e-08 8.20682e-09 0 9.58682e-10 2.07471e-07 0 -2.21336e-08 1.5608e-08 0 -5.65213e-09 3.14225e-09 0
          -9.14592e-09 6.60054e-09 0 -1.1592e-08 -8.50447e-09 0
        </DataArray>
        <DataArray type="Float32" Name="velocityN" NumberOfComponents="3" format="ascii">
          0 0 0 0 0 0 0 -4.14171e-10 0 0 -4.14431e-10 0
          0 0 0 0 -4.15417e-10 0 0 0 0 0 -4.17015e-10 0
          0 0 0 0 -4.18678e-10 0 0 0 0 0 -4.19315e-10 0
          1.49332e-11 -1.21134e-09 0 2.83093e-11 -1.21059e-09 0 2.1912e-11 -1.18222e-09 0 2.10759e-11 -1.22353e-09 0
          2.86445e-11 -1.20145e-09 0 1.72757e-11 -1.19864e-09 0 1.39535e-10 -2.14748e-09 0 3.14754e-10 -2.17272e-09 0
          2.07399e-10 -1.74536e-09 0 1.91911e-10 -2.26923e-09 0 3.1404e-10 -1.89448e-09 0 1.69084e-10 -1.87055e-09 0
          1.22496e-08 -1.75528e-08 0 3.14059e-08 -2.2274e-08 0 1.8608e-08 1.38313e-08 0 1.57933e-08 -2.93726e-08 0
          3.00083e-08 1.8409e-09 0 1.5084e-08 2.03443e-09 0 2.66479e-07 -2.12721e-07 0 1.48913e-06 -7.77806e-07 0
          5.58575e-07 1.28805e-06 0 1.65418e-07 -1.11141e-06 0 1.13705e-06 4.56992e-07 0 3.48632e-07 2.04553e-07 0
          -7.14576e-07 -3.93036e-07 0 9.73018e-06 -1.51382e-06 0 2.06848e-06 2.54647e-06 0 -1.31543e-06 -2.167e-06 0
          6.35058e-06 9.0808e-07 0 -7.05953e-07 4.02855e-07 0
        </DataArray>
      </PointData>
      <CellData Scalars="process rank">
        <DataArray type="Float32" Name="process rank" NumberOfComponents="1" format="ascii">
          0 0 0 0 0 0 0 0 0 0 0 0
          0 0 0 0 0 0 0 0 0 0 0 0
          0 0 0 0 0 0
        </DataArray>
      </CellData>
      <Points>
        <DataArray type="Float32" Name="Coordinates" NumberOfComponents="3" format="ascii">
          0.25 0 0 0.3 0 0 0.25 0.0584892 0 0.3 0.0584892 0
          0.35 0 0 0.35 0.0584892 0 0.4 0 0 0.4 0.0584892 0
          0.45 0 0 0.45 0.0584892 0 0.5 0 0 0.5 0.0584892 0
          0.25 0.108911 0 0.3 0.108911 0 0.35 0.108911 0 0.4 0.108911 0
          0.45 0.108911 0 0.5 0.108911 0 0.25 0.152378 0 0.3 0.152378 0
          0.35 0.152378 0 0.4 0.152378 0 0.45 0.152378 0 0.5 0.152378 0
          0.25 0.189849 0 0.3 0.189849 0 0.35 0.189849 0 0.4 0.189849 0
          0.45 0.189849 0 0.5 0.189849 0 0.25 0.222153 0 0.3 0.222153 0
          0.35 0.222153 0 0.4 0.222153 0 0.45 0.222153 0 0.5 0.222153 0
          0.25 0.25 0 0.3 0.25 0 0.35 0.25 0 0.4 0.25 0
          0.45 0.25 0 0.5 0.25 0
        </DataArray>
      </Points>
      <Cells>
        <DataArray type="Int32" Name="connectivity" NumberOfComponents="1" format="ascii">
          0 1 3 2 1 4 5 3 4 6 7 5
          6 8 9 7 8 10 11 9 2 3 13 12
          3 5 14 13 5 7 15 14 7 9 16 15
          9 11 17 16 12 13 19 18 13 14 20 19
          14 15 21 20 15 16 22 21 16 17 23 22
          18 19 25 24 19 20 26 25 20 21 27 26
          21 22 28 27 22 23 29 28 24 25 31 30
          25 26 32 31 26 27 33 32 27 28 34 33
          28 29 35 34 30 31 37 36 31 32 38 37
          32 33 39 38 33 34 40 39 34 35 41 40
        </DataArray>
        <DataArray type="Int32" Name="offsets" NumberOfComponents="1" format="ascii">
          4 8 12 16 20 24 28 32 36 40 44 48
          52 56 60 64 68 72 76 80 84 88 92 96
          100 104 108 112 116 120
        </DataArray>
        <DataArray type="UInt8" Name="types" NumberOfComponents="1" format="ascii">
          9 9 9 9 9 9 9 9 9 9 9 9
          9 9 9 9 9 9 9 9 9 9 9 9
          9 9 9 9 9 9
        </DataArray>
      </Cells>
    </Piece>
  </UnstructuredGrid>
</VTKFile>
