<?xml version="1.0"?>
<VTKFile type="UnstructuredGrid" version="0.1" byte_order="LittleEndian">
  <UnstructuredGrid>
    <Piece NumberOfCells="40" NumberOfPoints="55">
      <PointData Scalars="P" Vectors="v">
        <DataArray type="Float32" Name="P" NumberOfComponents="1" format="ascii">
          100000 99999.7 100000 99999.7 100000 100000 99999.8 99999.8 100000 100000 99999.8 99999.8
          100000 100000 99999.9 99999.9 100000 100000 99999.9 99999.9 100000 100000 100000 99999.7
          100000 99999.8 100000 99999.8 100000 99999.9 100000 99999.9 100000 100000 99999.7 100000
          99999.8 100000 99999.8 100000 99999.9 100000 99999.9 100000 100000 99999.7 100000 99999.8
          100000 99999.8 100000 99999.9 100000 99999.9 100000
        </DataArray>
        <DataArray type="Float32" Name="delP" NumberOfComponents="1" format="ascii">
          0.249296 -0.271724 0.249411 -0.27161 0.208463 0.208538 -0.228712 -0.228879 0.157509 0.159112 -0.17442 -0.183275
          0.0602592 0.112567 -0.104647 -0.136781 0.0450556 0.0544609 -0.0787073 -0.0811936 0 0 0.316729 -0.310031
          0.23585 -0.246348 0.167183 -0.187637 0.0965694 -0.126492 0.049839 -0.0767791 0 0.301947 -0.307822 0.237616
          -0.250356 0.177663 -0.19492 0.122795 -0.142208 0.0605843 -0.0860893 0 0.297552 -0.312218 0.237798 -0.25203
          0.173309 -0.192725 0.107758 -0.131274 0.0527912 -0.0717238 0
        </DataArray>
        <DataArray type="Float32" Name="x_gas^H2O" NumberOfComponents="1" format="ascii">
          0.0127981 0.0118678 0.0127981 0.0127842 0.0114999 0.0127712 0.0108848 0.0127456 0.0103559 0.0127169 0.01039 0.012699
          0.0156974 0.0127035 0.0159865 0.0127198 0.0162264 0.0127368 0.0164789 0.0127539 0.0127981 0.013499 0.0127981 0.0127978
          0.0127976 0.012797 0.0127962 0.0127953 0.0127952 0.012795 0.012795 0.0127972 0.0133574 0.0127981 0.0127981 0.0127981
          0.0127981 0.012798 0.012798 0.012798 0.012798 0.012798 0.0127986 0.0134028 0.0127981 0.0127981 0.0127981 0.0127981
          0.0127981 0.0127981 0.0127981 0.0127981 0.0127981 0.0127983 0.0127981
        </DataArray>
        <DataArray type="Float32" Name="X_gas^H2O" NumberOfComponents="1" format="ascii">
          0.008 0.00741585 0.008 0.00799131 0.00718495 0.00798314 0.00679908 0.00796704 0.00646742 0.00794901 0.00648881 0.00793777
          0.00982317 0.00794062 0.0100052 0.00795083 0.0101562 0.00796152 0.0103153 0.00797228 0.008 0.00844041 0.008 0.00799986
          0.00799973 0.00799931 0.00799886 0.00799826 0.0079982 0.00799811 0.00799806 0.00799948 0.00835144 0.008 0.008 0.008
          0.00799999 0.00799999 0.00799998 0.00799998 0.00799997 0.00799997 0.00800033 0.00837997 0.008 0.008 0.008 0.008
          0.008 0.008 0.008 0.008 0.008 0.00800013 0.008
        </DataArray>
        <DataArray type="Float32" Name="x_gas^Air" NumberOfComponents="1" format="ascii">
          0.987202 0.988132 0.987202 0.987216 0.9885 0.987229 0.989115 0.987254 0.989644 0.987283 0.98961 0.987301
          0.984303 0.987296 0.984013 0.98728 0.983774 0.987263 0.983521 0.987246 0.987202 0.986501 0.987202 0.987202
          0.987202 0.987203 0.987204 0.987205 0.987205 0.987205 0.987205 0.987203 0.986643 0.987202 0.987202 0.987202
          0.987202 0.987202 0.987202 0.987202 0.987202 0.987202 0.987201 0.986597 0.987202 0.987202 0.987202 0.987202
          0.987202 0.987202 0.987202 0.987202 0.987202 0.987202 0.987202
        </DataArray>
        <DataArray type="Float32" Name="X_gas^Air" NumberOfComponents="1" format="ascii">
          0.992 0.992584 0.992 0.992009 0.992815 0.992017 0.993201 0.992033 0.993533 0.992051 0.993511 0.992062
          0.990177 0.992059 0.989995 0.992049 0.989844 0.992038 0.989685 0.992028 0.992 0.99156 0.992 0.992
          0.992 0.992001 0.992001 0.992002 0.992002 0.992002 0.992002 0.992001 0.991649 0.992 0.992 0.992
          0.992 0.992 0.992 0.992 0.992 0.992 0.992 0.99162 0.992 0.992 0.992 0.992
          0.992 0.992 0.992 0.992 0.992 0.992 0.992
        </DataArray>
        <DataArray type="Float32" Name="rho" NumberOfComponents="1" format="ascii">
          1.16258 1.17003 1.16258 1.16268 1.17302 1.16279 1.17804 1.16299 1.18241 1.16322 1.18223 1.1635
          1.20702 1.16364 1.2057 1.16383 1.20461 1.16402 1.20351 1.16406 1.16258 1.15838 1.16258 1.16258
          1.16258 1.16258 1.16259 1.1626 1.1626 1.1626 1.16261 1.16259 1.15815 1.16258 1.16257 1.16258
          1.16257 1.16258 1.16257 1.16258 1.16258 1.16258 1.16257 1.15779 1.16258 1.16257 1.16258 1.16257
          1.16258 1.16257 1.16258 1.16258 1.16258 1.16257 1.16258
        </DataArray>
        <DataArray type="Float32" Name="mu" NumberOfComponents="1" format="ascii">
          1.82987e-05 1.82203e-05 1.82987e-05 1.82976e-05 1.81891e-05 1.82965e-05 1.81368e-05 1.82944e-05 1.80916e-05 1.8292e-05 1.80931e-05 1.82888e-05
          1.77206e-05 1.82869e-05 1.77318e-05 1.82843e-05 1.77411e-05 1.82818e-05 1.77504e-05 1.82809e-05 1.82987e-05 1.83406e-05 1.82987e-05 1.82987e-05
          1.82987e-05 1.82986e-05 1.82986e-05 1.82985e-05 1.82985e-05 1.82984e-05 1.82984e-05 1.82986e-05 1.83456e-05 1.82987e-05 1.82987e-05 1.82987e-05
          1.82987e-05 1.82987e-05 1.82987e-05 1.82987e-05 1.82987e-05 1.82987e-05 1.82988e-05 1.83494e-05 1.82987e-05 1.82987e-05 1.82987e-05 1.82987e-05
          1.82987e-05 1.82987e-05 1.82987e-05 1.82987e-05 1.82987e-05 1.82987e-05 1.82987e-05
        </DataArray>
        <DataArray type="Float32" Name="D" NumberOfComponents="1" format="ascii">
          2.49367e-05 2.46671e-05 2.49367e-05 2.49328e-05 2.45603e-05 2.4929e-05 2.43825e-05 2.49218e-05 2.42295e-05 2.49134e-05 2.42353e-05 2.49029e-05
          2.32628e-05 2.48973e-05 2.3304e-05 2.48897e-05 2.33382e-05 2.48824e-05 2.33727e-05 2.48802e-05 2.49368e-05 2.50875e-05 2.49367e-05 2.49368e-05
          2.49366e-05 2.49365e-05 2.49362e-05 2.4936e-05 2.49359e-05 2.49358e-05 2.49357e-05 2.49363e-05 2.50989e-05 2.49367e-05 2.49368e-05 2.49367e-05
          2.49368e-05 2.49367e-05 2.49368e-05 2.49367e-05 2.49368e-05 2.49367e-05 2.49369e-05 2.51124e-05 2.49367e-05 2.49368e-05 2.49367e-05 2.49368e-05
          2.49367e-05 2.49368e-05 2.49367e-05 2.49368e-05 2.49368e-05 2.49368e-05 2.49368e-05
        </DataArray>
        <DataArray type="Float32" Name="lambda" NumberOfComponents="1" format="ascii">
          0 0 0 0 0 0 0 0 0 0 0 0
          0 0 0 0 0 0 0 0 0 0 0 0
          0 0 0 0 0 0 0 0 0 0 0 0
          0 0 0 0 0 0 0 0 0 0 0 0
          0 0 0 0 0 0 0
        </DataArray>
        <DataArray type="Float32" Name="temperature" NumberOfComponents="1" format="ascii">
          298.15 296.354 298.15 298.124 295.642 298.099 294.45 298.05 293.423 297.995 293.461 297.925
          286.859 297.888 287.142 297.837 287.376 297.789 287.612 297.774 298.15 299.15 298.15 298.15
          298.149 298.148 298.147 298.144 298.144 298.143 298.143 298.147 299.226 298.15 298.15 298.15
          298.15 298.15 298.15 298.15 298.15 298.15 298.151 299.314 298.15 298.15 298.15 298.15
          298.15 298.15 298.15 298.15 298.15 298.15 298.15
        </DataArray>
        <DataArray type="Float32" Name="v" NumberOfComponents="3" format="ascii">
          0 0 0 0 0 0 0.5 0 0 0.533223 0.0144061 0
          0 0 0 0.487297 0.00244172 0 0 0 0 0.527953 0.00985087 0
          0 0 0 0.477723 0.00671443 0 0 0 0 0.522703 0.010315 0
          -0.0163875 0.000261848 0 0.473491 -0.0101586 0 0.0117947 -3.53373e-06 0 0.51907 -5.13514e-05 0
          -0.0107669 2.90387e-06 0 0.469277 -0.00107036 0 0.0161501 3.20867e-05 0 0.516285 -0.00302387 0
          0 0 0 0.464206 -0.00737904 0 0.5 0 0 0.55915 0.0111764 0
          0.510799 0.00169306 0 0.562379 0.00831906 0 0.517062 0.00204556 0 0.568559 0.00539981 0
          0.522606 0.00183739 0 0.562111 0.00312721 0 0.521531 0.00098913 0 0.562461 0.00285644 0
          0.521725 0.00328401 0 0.5 0 0 0.553447 0.00221982 0 0.506103 0.00195175 0
          0.555844 0.00381393 0 0.510607 0.00198972 0 0.557268 0.00292316 0 0.513425 -0.00106931 0
          0.560884 -4.8258e-05 0 0.516382 -0.00129792 0 0.562768 -0.00360118 0 0.520117 -0.00413157 0
          0.5 0 0 0.549739 0 0 0.501279 0 0 0.552772 0 0
          0.505589 0 0 0.556333 0 0 0.508649 0 0 0.554357 0 0
          0.507092 0 0 0.551252 0 0 0.5 0 0
        </DataArray>
      </PointData>
      <CellData Scalars="mu_t">
        <DataArray type="Float32" Name="mu_t" NumberOfComponents="1" format="ascii">
          0.000136116 0.000138468 0.000135093 0.000135649 0.00013384 0.000141467 0.000135004 0.000134965 0.000133728 0.00012883 0.000117412 0.000119722
          0.000116371 0.00011694 0.000115157 0.000121624 0.000114878 0.000115232 0.000114292 0.000111097 1.52574e-05 1.55656e-05 1.51237e-05 1.52014e-05
          1.49646e-05 1.58131e-05 1.49201e-05 1.4971e-05 1.4849e-05 1.44411e-05 1.29825e-06 1.32448e-06 1.28687e-06 1.29348e-06 1.27333e-06 1.34553e-06
          1.26954e-06 1.27387e-06 1.26349e-06 1.22963e-06
        </DataArray>
        <DataArray type="Float32" Name="nu_t" NumberOfComponents="1" format="ascii">
          0.000116936 0.000118752 0.000115697 0.000115986 0.000114345 0.000120376 0.00011443 0.000114432 0.000113417 0.00011016 0.00010099 0.000102972
          0.000100082 0.000100561 9.90146e-05 0.000104565 9.87569e-05 9.90521e-05 9.82387e-05 9.57026e-05 1.31237e-05 1.33889e-05 1.30087e-05 1.30755e-05
          1.28718e-05 1.36016e-05 1.28335e-05 1.28772e-05 1.27723e-05 1.2446e-05 1.1167e-06 1.13926e-06 1.10692e-06 1.1126e-06 1.09527e-06 1.15737e-06
          1.092e-06 1.09573e-06 1.0868e-06 1.05903e-06
        </DataArray>
        <DataArray type="Float32" Name="l_mix" NumberOfComponents="1" format="ascii">
          0.00574531 0.00573662 0.00573758 0.00573258 0.00572866 0.00578633 0.00579447 0.00577419 0.00575892 0.00567154 0.0291877 0.0291712
          0.029173 0.0291635 0.0291561 0.0292648 0.0292798 0.029242 0.0292135 0.0290455 0.0565774 0.0565696 0.0565704 0.0565658
          0.0565623 0.0566136 0.0566205 0.056603 0.0565897 0.0565084 0.0865914 0.0865894 0.0865896 0.0865885 0.0865876 0.0866002
          0.0866019 0.0865976 0.0865944 0.0865738
        </DataArray>
        <DataArray type="Float32" Name="u^+" NumberOfComponents="1" format="ascii">
          20.1756 20.1257 20.1314 20.1026 20.0803 19.7483 20.269 20.3823 20.4743 20.4215 40.8567 41.2261
          41.4111 41.6803 41.8704 42.0744 42.6188 42.6876 42.7618 42.3061 41.251 41.9959 42.3368 42.8957
          43.2243 43.5767 44.2961 44.5199 44.6957 44.4043 41.0675 41.6225 41.9575 42.4741 42.7486 43.0487
          43.8505 44.0624 44.1656 43.7294
        </DataArray>
        <DataArray type="Float32" Name="y^+" NumberOfComponents="1" format="ascii">
          20.1754 20.1258 20.1313 20.1027 20.0803 20.4116 20.4588 20.3415 20.2534 19.757 63.7543 63.5974
          63.6148 63.5247 63.4537 64.5006 64.6499 64.2791 64.0006 62.4322 114.306 114.025 114.056 113.894
          113.767 115.644 115.912 115.247 114.747 111.935 172.946 172.52 172.567 172.323 172.13 174.97
          175.375 174.369 173.614 169.359
        </DataArray>
        <DataArray type="Float32" Name="D_t" NumberOfComponents="1" format="ascii">
          0.000116936 0.000118752 0.000115697 0.000115986 0.000114345 0.000120376 0.00011443 0.000114432 0.000113417 0.00011016 0.00010099 0.000102972
          0.000100082 0.000100561 9.90146e-05 0.000104565 9.87569e-05 9.90521e-05 9.82387e-05 9.57026e-05 1.31237e-05 1.33889e-05 1.30087e-05 1.30755e-05
          1.28718e-05 1.36016e-05 1.28335e-05 1.28772e-05 1.27723e-05 1.2446e-05 1.1167e-06 1.13926e-06 1.10692e-06 1.1126e-06 1.09527e-06 1.15737e-06
          1.092e-06 1.09573e-06 1.0868e-06 1.05903e-06
        </DataArray>
        <DataArray type="Float32" Name="lambda_t" NumberOfComponents="1" format="ascii">
          0.138328 0.140683 0.137227 0.13776 0.135907 0.143769 0.137321 0.137295 0.13605 0.131038 0.119341 0.121689
          0.118281 0.118858 0.117043 0.123616 0.11676 0.11712 0.116166 0.112956 0.0155081 0.0158214 0.0153722 0.0154512
          0.0152105 0.016073 0.0151653 0.015217 0.015093 0.0146827 0.00131959 0.00134625 0.00130802 0.00131474 0.00129426 0.00136765
          0.00129041 0.0012948 0.00128426 0.00125008
        </DataArray>
      </CellData>
      <Points>
        <DataArray type="Float32" Name="Coordinates" NumberOfComponents="3" format="ascii">
          0 0.25 0 0.05 0.25 0 0 0.299344 0 0.05 0.299344 0
          0.1 0.25 0 0.1 0.299344 0 0.15 0.25 0 0.15 0.299344 0
          0.2 0.25 0 0.2 0.299344 0 0.25 0.25 0 0.25 0.299344 0
          0.3 0.25 0 0.3 0.299344 0 0.35 0.25 0 0.35 0.299344 0
          0.4 0.25 0 0.4 0.299344 0 0.45 0.25 0 0.45 0.299344 0
          0.5 0.25 0 0.5 0.299344 0 0 0.356583 0 0.05 0.356583 0
          0.1 0.356583 0 0.15 0.356583 0 0.2 0.356583 0 0.25 0.356583 0
          0.3 0.356583 0 0.35 0.356583 0 0.4 0.356583 0 0.45 0.356583 0
          0.5 0.356583 0 0 0.42298 0 0.05 0.42298 0 0.1 0.42298 0
          0.15 0.42298 0 0.2 0.42298 0 0.25 0.42298 0 0.3 0.42298 0
          0.35 0.42298 0 0.4 0.42298 0 0.45 0.42298 0 0.5 0.42298 0
          0 0.5 0 0.05 0.5 0 0.1 0.5 0 0.15 0.5 0
          0.2 0.5 0 0.25 0.5 0 0.3 0.5 0 0.35 0.5 0
          0.4 0.5 0 0.45 0.5 0 0.5 0.5 0
        </DataArray>
      </Points>
      <Cells>
        <DataArray type="Int32" Name="connectivity" NumberOfComponents="1" format="ascii">
          0 1 3 2 1 4 5 3 4 6 7 5
          6 8 9 7 8 10 11 9 10 12 13 11
          12 14 15 13 14 16 17 15 16 18 19 17
          18 20 21 19 2 3 23 22 3 5 24 23
          5 7 25 24 7 9 26 25 9 11 27 26
          11 13 28 27 13 15 29 28 15 17 30 29
          17 19 31 30 19 21 32 31 22 23 34 33
          23 24 35 34 24 25 36 35 25 26 37 36
          26 27 38 37 27 28 39 38 28 29 40 39
          29 30 41 40 30 31 42 41 31 32 43 42
          33 34 45 44 34 35 46 45 35 36 47 46
          36 37 48 47 37 38 49 48 38 39 50 49
          39 40 51 50 40 41 52 51 41 42 53 52
          42 43 54 53
        </DataArray>
        <DataArray type="Int32" Name="offsets" NumberOfComponents="1" format="ascii">
          4 8 12 16 20 24 28 32 36 40 44 48
          52 56 60 64 68 72 76 80 84 88 92 96
          100 104 108 112 116 120 124 128 132 136 140 144
          148 152 156 160
        </DataArray>
        <DataArray type="UInt8" Name="types" NumberOfComponents="1" format="ascii">
          9 9 9 9 9 9 9 9 9 9 9 9
          9 9 9 9 9 9 9 9 9 9 9 9
          9 9 9 9 9 9 9 9 9 9 9 9
          9 9 9 9
        </DataArray>
      </Cells>
    </Piece>
  </UnstructuredGrid>
</VTKFile>
