"vtkValidPointMask","arc_length","Points:0","Points:1","Points:2"
0,0,1.25,0.25,0
0,0.00025001,1.25,0.25025,0
0,0.00049999,1.25,0.2505,0
0,0.00075001,1.25,0.25075,0
0,0.00099999,1.25,0.251,0
0,0.00125,1.25,0.25125,0
0,0.0015,1.25,0.2515,0
0,0.00175,1.25,0.25175,0
0,0.002,1.25,0.252,0
0,0.00225,1.25,0.25225,0
0,0.0025,1.25,0.2525,0
0,0.00275,1.25,0.25275,0
0,0.003,1.25,0.253,0
0,0.00325,1.25,0.25325,0
0,0.0035,1.25,0.2535,0
0,0.00375,1.25,0.25375,0
0,0.004,1.25,0.254,0
0,0.00425,1.25,0.25425,0
0,0.0045,1.25,0.2545,0
0,0.00475,1.25,0.25475,0
0,0.005,1.25,0.255,0
0,0.00525,1.25,0.25525,0
0,0.0055,1.25,0.2555,0
0,0.00575,1.25,0.25575,0
0,0.006,1.25,0.256,0
0,0.00625,1.25,0.25625,0
0,0.0065,1.25,0.2565,0
0,0.00675,1.25,0.25675,0
0,0.007,1.25,0.257,0
0,0.00725,1.25,0.25725,0
0,0.0075,1.25,0.2575,0
0,0.00775,1.25,0.25775,0
0,0.008,1.25,0.258,0
0,0.00825,1.25,0.25825,0
0,0.0085,1.25,0.2585,0
0,0.00875,1.25,0.25875,0
0,0.009,1.25,0.259,0
0,0.00925,1.25,0.25925,0
0,0.0095,1.25,0.2595,0
0,0.00975,1.25,0.25975,0
0,0.01,1.25,0.26,0
0,0.01025,1.25,0.26025,0
0,0.0105,1.25,0.2605,0
0,0.01075,1.25,0.26075,0
0,0.011,1.25,0.261,0
0,0.01125,1.25,0.26125,0
0,0.0115,1.25,0.2615,0
0,0.01175,1.25,0.26175,0
0,0.012,1.25,0.262,0
0,0.01225,1.25,0.26225,0
0,0.0125,1.25,0.2625,0
0,0.01275,1.25,0.26275,0
0,0.013,1.25,0.263,0
0,0.01325,1.25,0.26325,0
0,0.0135,1.25,0.2635,0
0,0.01375,1.25,0.26375,0
0,0.014,1.25,0.264,0
0,0.01425,1.25,0.26425,0
0,0.0145,1.25,0.2645,0
0,0.01475,1.25,0.26475,0
0,0.015,1.25,0.265,0
0,0.01525,1.25,0.26525,0
0,0.0155,1.25,0.2655,0
0,0.01575,1.25,0.26575,0
0,0.016,1.25,0.266,0
0,0.01625,1.25,0.26625,0
0,0.0165,1.25,0.2665,0
0,0.01675,1.25,0.26675,0
0,0.017,1.25,0.267,0
0,0.01725,1.25,0.26725,0
0,0.0175,1.25,0.2675,0
0,0.01775,1.25,0.26775,0
0,0.018,1.25,0.268,0
0,0.01825,1.25,0.26825,0
0,0.0185,1.25,0.2685,0
0,0.01875,1.25,0.26875,0
0,0.019,1.25,0.269,0
0,0.01925,1.25,0.26925,0
0,0.0195,1.25,0.2695,0
0,0.01975,1.25,0.26975,0
0,0.02,1.25,0.27,0
0,0.02025,1.25,0.27025,0
0,0.0205,1.25,0.2705,0
0,0.02075,1.25,0.27075,0
0,0.021,1.25,0.271,0
0,0.02125,1.25,0.27125,0
0,0.0215,1.25,0.2715,0
0,0.02175,1.25,0.27175,0
0,0.022,1.25,0.272,0
0,0.02225,1.25,0.27225,0
0,0.0225,1.25,0.2725,0
0,0.02275,1.25,0.27275,0
0,0.023,1.25,0.273,0
0,0.02325,1.25,0.27325,0
0,0.0235,1.25,0.2735,0
0,0.02375,1.25,0.27375,0
0,0.024,1.25,0.274,0
0,0.02425,1.25,0.27425,0
0,0.0245,1.25,0.2745,0
0,0.02475,1.25,0.27475,0
0,0.025,1.25,0.275,0
0,0.02525,1.25,0.27525,0
0,0.0255,1.25,0.2755,0
0,0.02575,1.25,0.27575,0
0,0.026,1.25,0.276,0
0,0.02625,1.25,0.27625,0
0,0.0265,1.25,0.2765,0
0,0.02675,1.25,0.27675,0
0,0.027,1.25,0.277,0
0,0.02725,1.25,0.27725,0
0,0.0275,1.25,0.2775,0
0,0.02775,1.25,0.27775,0
0,0.028,1.25,0.278,0
0,0.02825,1.25,0.27825,0
0,0.0285,1.25,0.2785,0
0,0.02875,1.25,0.27875,0
0,0.029,1.25,0.279,0
0,0.02925,1.25,0.27925,0
0,0.0295,1.25,0.2795,0
0,0.02975,1.25,0.27975,0
0,0.03,1.25,0.28,0
0,0.03025,1.25,0.28025,0
0,0.0305,1.25,0.2805,0
0,0.03075,1.25,0.28075,0
0,0.031,1.25,0.281,0
0,0.03125,1.25,0.28125,0
0,0.0315,1.25,0.2815,0
0,0.03175,1.25,0.28175,0
0,0.032,1.25,0.282,0
0,0.03225,1.25,0.28225,0
0,0.0325,1.25,0.2825,0
0,0.03275,1.25,0.28275,0
0,0.033,1.25,0.283,0
0,0.03325,1.25,0.28325,0
0,0.0335,1.25,0.2835,0
0,0.03375,1.25,0.28375,0
0,0.034,1.25,0.284,0
0,0.03425,1.25,0.28425,0
0,0.0345,1.25,0.2845,0
0,0.03475,1.25,0.28475,0
0,0.035,1.25,0.285,0
0,0.03525,1.25,0.28525,0
0,0.0355,1.25,0.2855,0
0,0.03575,1.25,0.28575,0
0,0.036,1.25,0.286,0
0,0.03625,1.25,0.28625,0
0,0.0365,1.25,0.2865,0
0,0.03675,1.25,0.28675,0
0,0.037,1.25,0.287,0
0,0.03725,1.25,0.28725,0
0,0.0375,1.25,0.2875,0
0,0.03775,1.25,0.28775,0
0,0.038,1.25,0.288,0
0,0.03825,1.25,0.28825,0
0,0.0385,1.25,0.2885,0
0,0.03875,1.25,0.28875,0
0,0.039,1.25,0.289,0
0,0.03925,1.25,0.28925,0
0,0.0395,1.25,0.2895,0
0,0.03975,1.25,0.28975,0
0,0.04,1.25,0.29,0
0,0.04025,1.25,0.29025,0
0,0.0405,1.25,0.2905,0
0,0.04075,1.25,0.29075,0
0,0.041,1.25,0.291,0
0,0.04125,1.25,0.29125,0
0,0.0415,1.25,0.2915,0
0,0.04175,1.25,0.29175,0
0,0.042,1.25,0.292,0
0,0.04225,1.25,0.29225,0
0,0.0425,1.25,0.2925,0
0,0.04275,1.25,0.29275,0
0,0.043,1.25,0.293,0
0,0.04325,1.25,0.29325,0
0,0.0435,1.25,0.2935,0
0,0.04375,1.25,0.29375,0
0,0.044,1.25,0.294,0
0,0.04425,1.25,0.29425,0
0,0.0445,1.25,0.2945,0
0,0.04475,1.25,0.29475,0
0,0.045,1.25,0.295,0
0,0.04525,1.25,0.29525,0
0,0.0455,1.25,0.2955,0
0,0.04575,1.25,0.29575,0
0,0.046,1.25,0.296,0
0,0.04625,1.25,0.29625,0
0,0.0465,1.25,0.2965,0
0,0.04675,1.25,0.29675,0
0,0.047,1.25,0.297,0
0,0.04725,1.25,0.29725,0
0,0.0475,1.25,0.2975,0
0,0.04775,1.25,0.29775,0
0,0.048,1.25,0.298,0
0,0.04825,1.25,0.29825,0
0,0.0485,1.25,0.2985,0
0,0.04875,1.25,0.29875,0
0,0.049,1.25,0.299,0
0,0.04925,1.25,0.29925,0
0,0.0495,1.25,0.2995,0
0,0.04975,1.25,0.29975,0
0,0.05,1.25,0.3,0
0,0.05025,1.25,0.30025,0
0,0.0505,1.25,0.3005,0
0,0.05075,1.25,0.30075,0
0,0.051,1.25,0.301,0
0,0.05125,1.25,0.30125,0
0,0.0515,1.25,0.3015,0
0,0.05175,1.25,0.30175,0
0,0.052,1.25,0.302,0
0,0.05225,1.25,0.30225,0
0,0.0525,1.25,0.3025,0
0,0.05275,1.25,0.30275,0
0,0.053,1.25,0.303,0
0,0.05325,1.25,0.30325,0
0,0.0535,1.25,0.3035,0
0,0.05375,1.25,0.30375,0
0,0.054,1.25,0.304,0
0,0.05425,1.25,0.30425,0
0,0.0545,1.25,0.3045,0
0,0.05475,1.25,0.30475,0
0,0.055,1.25,0.305,0
0,0.05525,1.25,0.30525,0
0,0.0555,1.25,0.3055,0
0,0.05575,1.25,0.30575,0
0,0.056,1.25,0.306,0
0,0.05625,1.25,0.30625,0
0,0.0565,1.25,0.3065,0
0,0.05675,1.25,0.30675,0
0,0.057,1.25,0.307,0
0,0.05725,1.25,0.30725,0
0,0.0575,1.25,0.3075,0
0,0.05775,1.25,0.30775,0
0,0.058,1.25,0.308,0
0,0.05825,1.25,0.30825,0
0,0.0585,1.25,0.3085,0
0,0.05875,1.25,0.30875,0
0,0.059,1.25,0.309,0
0,0.05925,1.25,0.30925,0
0,0.0595,1.25,0.3095,0
0,0.05975,1.25,0.30975,0
0,0.06,1.25,0.31,0
0,0.06025,1.25,0.31025,0
0,0.0605,1.25,0.3105,0
0,0.06075,1.25,0.31075,0
0,0.061,1.25,0.311,0
0,0.06125,1.25,0.31125,0
0,0.0615,1.25,0.3115,0
0,0.06175,1.25,0.31175,0
0,0.062,1.25,0.312,0
0,0.06225,1.25,0.31225,0
0,0.0625,1.25,0.3125,0
0,0.06275,1.25,0.31275,0
0,0.063,1.25,0.313,0
0,0.06325,1.25,0.31325,0
0,0.0635,1.25,0.3135,0
0,0.06375,1.25,0.31375,0
0,0.064,1.25,0.314,0
0,0.06425,1.25,0.31425,0
0,0.0645,1.25,0.3145,0
0,0.06475,1.25,0.31475,0
0,0.065,1.25,0.315,0
0,0.06525,1.25,0.31525,0
0,0.0655,1.25,0.3155,0
0,0.06575,1.25,0.31575,0
0,0.066,1.25,0.316,0
0,0.06625,1.25,0.31625,0
0,0.0665,1.25,0.3165,0
0,0.06675,1.25,0.31675,0
0,0.067,1.25,0.317,0
0,0.06725,1.25,0.31725,0
0,0.0675,1.25,0.3175,0
0,0.06775,1.25,0.31775,0
0,0.068,1.25,0.318,0
0,0.06825,1.25,0.31825,0
0,0.0685,1.25,0.3185,0
0,0.06875,1.25,0.31875,0
0,0.069,1.25,0.319,0
0,0.06925,1.25,0.31925,0
0,0.0695,1.25,0.3195,0
0,0.06975,1.25,0.31975,0
0,0.07,1.25,0.32,0
0,0.07025,1.25,0.32025,0
0,0.0705,1.25,0.3205,0
0,0.07075,1.25,0.32075,0
0,0.071,1.25,0.321,0
0,0.07125,1.25,0.32125,0
0,0.0715,1.25,0.3215,0
0,0.07175,1.25,0.32175,0
0,0.072,1.25,0.322,0
0,0.07225,1.25,0.32225,0
0,0.0725,1.25,0.3225,0
0,0.07275,1.25,0.32275,0
0,0.073,1.25,0.323,0
0,0.07325,1.25,0.32325,0
0,0.0735,1.25,0.3235,0
0,0.07375,1.25,0.32375,0
0,0.074,1.25,0.324,0
0,0.07425,1.25,0.32425,0
0,0.0745,1.25,0.3245,0
0,0.07475,1.25,0.32475,0
0,0.075,1.25,0.325,0
0,0.07525,1.25,0.32525,0
0,0.0755,1.25,0.3255,0
0,0.07575,1.25,0.32575,0
0,0.076,1.25,0.326,0
0,0.07625,1.25,0.32625,0
0,0.0765,1.25,0.3265,0
0,0.07675,1.25,0.32675,0
0,0.077,1.25,0.327,0
0,0.07725,1.25,0.32725,0
0,0.0775,1.25,0.3275,0
0,0.07775,1.25,0.32775,0
0,0.078,1.25,0.328,0
0,0.07825,1.25,0.32825,0
0,0.0785,1.25,0.3285,0
0,0.07875,1.25,0.32875,0
0,0.079,1.25,0.329,0
0,0.07925,1.25,0.32925,0
0,0.0795,1.25,0.3295,0
0,0.07975,1.25,0.32975,0
0,0.08,1.25,0.33,0
0,0.08025,1.25,0.33025,0
0,0.0805,1.25,0.3305,0
0,0.08075,1.25,0.33075,0
0,0.081,1.25,0.331,0
0,0.08125,1.25,0.33125,0
0,0.0815,1.25,0.3315,0
0,0.08175,1.25,0.33175,0
0,0.082,1.25,0.332,0
0,0.08225,1.25,0.33225,0
0,0.0825,1.25,0.3325,0
0,0.08275,1.25,0.33275,0
0,0.083,1.25,0.333,0
0,0.08325,1.25,0.33325,0
0,0.0835,1.25,0.3335,0
0,0.08375,1.25,0.33375,0
0,0.084,1.25,0.334,0
0,0.08425,1.25,0.33425,0
0,0.0845,1.25,0.3345,0
0,0.08475,1.25,0.33475,0
0,0.085,1.25,0.335,0
0,0.08525,1.25,0.33525,0
0,0.0855,1.25,0.3355,0
0,0.08575,1.25,0.33575,0
0,0.086,1.25,0.336,0
0,0.08625,1.25,0.33625,0
0,0.0865,1.25,0.3365,0
0,0.08675,1.25,0.33675,0
0,0.087,1.25,0.337,0
0,0.08725,1.25,0.33725,0
0,0.0875,1.25,0.3375,0
0,0.08775,1.25,0.33775,0
0,0.088,1.25,0.338,0
0,0.08825,1.25,0.33825,0
0,0.0885,1.25,0.3385,0
0,0.08875,1.25,0.33875,0
0,0.089,1.25,0.339,0
0,0.08925,1.25,0.33925,0
0,0.0895,1.25,0.3395,0
0,0.08975,1.25,0.33975,0
0,0.09,1.25,0.34,0
0,0.09025,1.25,0.34025,0
0,0.0905,1.25,0.3405,0
0,0.09075,1.25,0.34075,0
0,0.091,1.25,0.341,0
0,0.09125,1.25,0.34125,0
0,0.0915,1.25,0.3415,0
0,0.09175,1.25,0.34175,0
0,0.092,1.25,0.342,0
0,0.09225,1.25,0.34225,0
0,0.0925,1.25,0.3425,0
0,0.09275,1.25,0.34275,0
0,0.093,1.25,0.343,0
0,0.09325,1.25,0.34325,0
0,0.0935,1.25,0.3435,0
0,0.09375,1.25,0.34375,0
0,0.094,1.25,0.344,0
0,0.09425,1.25,0.34425,0
0,0.0945,1.25,0.3445,0
0,0.09475,1.25,0.34475,0
0,0.095,1.25,0.345,0
0,0.09525,1.25,0.34525,0
0,0.0955,1.25,0.3455,0
0,0.09575,1.25,0.34575,0
0,0.096,1.25,0.346,0
0,0.09625,1.25,0.34625,0
0,0.0965,1.25,0.3465,0
0,0.09675,1.25,0.34675,0
0,0.097,1.25,0.347,0
0,0.09725,1.25,0.34725,0
0,0.0975,1.25,0.3475,0
0,0.09775,1.25,0.34775,0
0,0.098,1.25,0.348,0
0,0.09825,1.25,0.34825,0
0,0.0985,1.25,0.3485,0
0,0.09875,1.25,0.34875,0
0,0.099,1.25,0.349,0
0,0.09925,1.25,0.34925,0
0,0.0995,1.25,0.3495,0
0,0.09975,1.25,0.34975,0
0,0.1,1.25,0.35,0
0,0.10025,1.25,0.35025,0
0,0.1005,1.25,0.3505,0
0,0.10075,1.25,0.35075,0
0,0.101,1.25,0.351,0
0,0.10125,1.25,0.35125,0
0,0.1015,1.25,0.3515,0
0,0.10175,1.25,0.35175,0
0,0.102,1.25,0.352,0
0,0.10225,1.25,0.35225,0
0,0.1025,1.25,0.3525,0
0,0.10275,1.25,0.35275,0
0,0.103,1.25,0.353,0
0,0.10325,1.25,0.35325,0
0,0.1035,1.25,0.3535,0
0,0.10375,1.25,0.35375,0
0,0.104,1.25,0.354,0
0,0.10425,1.25,0.35425,0
0,0.1045,1.25,0.3545,0
0,0.10475,1.25,0.35475,0
0,0.105,1.25,0.355,0
0,0.10525,1.25,0.35525,0
0,0.1055,1.25,0.3555,0
0,0.10575,1.25,0.35575,0
0,0.106,1.25,0.356,0
0,0.10625,1.25,0.35625,0
0,0.1065,1.25,0.3565,0
0,0.10675,1.25,0.35675,0
0,0.107,1.25,0.357,0
0,0.10725,1.25,0.35725,0
0,0.1075,1.25,0.3575,0
0,0.10775,1.25,0.35775,0
0,0.108,1.25,0.358,0
0,0.10825,1.25,0.35825,0
0,0.1085,1.25,0.3585,0
0,0.10875,1.25,0.35875,0
0,0.109,1.25,0.359,0
0,0.10925,1.25,0.35925,0
0,0.1095,1.25,0.3595,0
0,0.10975,1.25,0.35975,0
0,0.11,1.25,0.36,0
0,0.11025,1.25,0.36025,0
0,0.1105,1.25,0.3605,0
0,0.11075,1.25,0.36075,0
0,0.111,1.25,0.361,0
0,0.11125,1.25,0.36125,0
0,0.1115,1.25,0.3615,0
0,0.11175,1.25,0.36175,0
0,0.112,1.25,0.362,0
0,0.11225,1.25,0.36225,0
0,0.1125,1.25,0.3625,0
0,0.11275,1.25,0.36275,0
0,0.113,1.25,0.363,0
0,0.11325,1.25,0.36325,0
0,0.1135,1.25,0.3635,0
0,0.11375,1.25,0.36375,0
0,0.114,1.25,0.364,0
0,0.11425,1.25,0.36425,0
0,0.1145,1.25,0.3645,0
0,0.11475,1.25,0.36475,0
0,0.115,1.25,0.365,0
0,0.11525,1.25,0.36525,0
0,0.1155,1.25,0.3655,0
0,0.11575,1.25,0.36575,0
0,0.116,1.25,0.366,0
0,0.11625,1.25,0.36625,0
0,0.1165,1.25,0.3665,0
0,0.11675,1.25,0.36675,0
0,0.117,1.25,0.367,0
0,0.11725,1.25,0.36725,0
0,0.1175,1.25,0.3675,0
0,0.11775,1.25,0.36775,0
0,0.118,1.25,0.368,0
0,0.11825,1.25,0.36825,0
0,0.1185,1.25,0.3685,0
0,0.11875,1.25,0.36875,0
0,0.119,1.25,0.369,0
0,0.11925,1.25,0.36925,0
0,0.1195,1.25,0.3695,0
0,0.11975,1.25,0.36975,0
0,0.12,1.25,0.37,0
0,0.12025,1.25,0.37025,0
0,0.1205,1.25,0.3705,0
0,0.12075,1.25,0.37075,0
0,0.121,1.25,0.371,0
0,0.12125,1.25,0.37125,0
0,0.1215,1.25,0.3715,0
0,0.12175,1.25,0.37175,0
0,0.122,1.25,0.372,0
0,0.12225,1.25,0.37225,0
0,0.1225,1.25,0.3725,0
0,0.12275,1.25,0.37275,0
0,0.123,1.25,0.373,0
0,0.12325,1.25,0.37325,0
0,0.1235,1.25,0.3735,0
0,0.12375,1.25,0.37375,0
0,0.124,1.25,0.374,0
0,0.12425,1.25,0.37425,0
0,0.1245,1.25,0.3745,0
0,0.12475,1.25,0.37475,0
0,0.125,1.25,0.375,0
0,0.12525,1.25,0.37525,0
0,0.1255,1.25,0.3755,0
0,0.12575,1.25,0.37575,0
0,0.126,1.25,0.376,0
0,0.12625,1.25,0.37625,0
0,0.1265,1.25,0.3765,0
0,0.12675,1.25,0.37675,0
0,0.127,1.25,0.377,0
0,0.12725,1.25,0.37725,0
0,0.1275,1.25,0.3775,0
0,0.12775,1.25,0.37775,0
0,0.128,1.25,0.378,0
0,0.12825,1.25,0.37825,0
0,0.1285,1.25,0.3785,0
0,0.12875,1.25,0.37875,0
0,0.129,1.25,0.379,0
0,0.12925,1.25,0.37925,0
0,0.1295,1.25,0.3795,0
0,0.12975,1.25,0.37975,0
0,0.13,1.25,0.38,0
0,0.13025,1.25,0.38025,0
0,0.1305,1.25,0.3805,0
0,0.13075,1.25,0.38075,0
0,0.131,1.25,0.381,0
0,0.13125,1.25,0.38125,0
0,0.1315,1.25,0.3815,0
0,0.13175,1.25,0.38175,0
0,0.132,1.25,0.382,0
0,0.13225,1.25,0.38225,0
0,0.1325,1.25,0.3825,0
0,0.13275,1.25,0.38275,0
0,0.133,1.25,0.383,0
0,0.13325,1.25,0.38325,0
0,0.1335,1.25,0.3835,0
0,0.13375,1.25,0.38375,0
0,0.134,1.25,0.384,0
0,0.13425,1.25,0.38425,0
0,0.1345,1.25,0.3845,0
0,0.13475,1.25,0.38475,0
0,0.135,1.25,0.385,0
0,0.13525,1.25,0.38525,0
0,0.1355,1.25,0.3855,0
0,0.13575,1.25,0.38575,0
0,0.136,1.25,0.386,0
0,0.13625,1.25,0.38625,0
0,0.1365,1.25,0.3865,0
0,0.13675,1.25,0.38675,0
0,0.137,1.25,0.387,0
0,0.13725,1.25,0.38725,0
0,0.1375,1.25,0.3875,0
0,0.13775,1.25,0.38775,0
0,0.138,1.25,0.388,0
0,0.13825,1.25,0.38825,0
0,0.1385,1.25,0.3885,0
0,0.13875,1.25,0.38875,0
0,0.139,1.25,0.389,0
0,0.13925,1.25,0.38925,0
0,0.1395,1.25,0.3895,0
0,0.13975,1.25,0.38975,0
0,0.14,1.25,0.39,0
0,0.14025,1.25,0.39025,0
0,0.1405,1.25,0.3905,0
0,0.14075,1.25,0.39075,0
0,0.141,1.25,0.391,0
0,0.14125,1.25,0.39125,0
0,0.1415,1.25,0.3915,0
0,0.14175,1.25,0.39175,0
0,0.142,1.25,0.392,0
0,0.14225,1.25,0.39225,0
0,0.1425,1.25,0.3925,0
0,0.14275,1.25,0.39275,0
0,0.143,1.25,0.393,0
0,0.14325,1.25,0.39325,0
0,0.1435,1.25,0.3935,0
0,0.14375,1.25,0.39375,0
0,0.144,1.25,0.394,0
0,0.14425,1.25,0.39425,0
0,0.1445,1.25,0.3945,0
0,0.14475,1.25,0.39475,0
0,0.145,1.25,0.395,0
0,0.14525,1.25,0.39525,0
0,0.1455,1.25,0.3955,0
0,0.14575,1.25,0.39575,0
0,0.146,1.25,0.396,0
0,0.14625,1.25,0.39625,0
0,0.1465,1.25,0.3965,0
0,0.14675,1.25,0.39675,0
0,0.147,1.25,0.397,0
0,0.14725,1.25,0.39725,0
0,0.1475,1.25,0.3975,0
0,0.14775,1.25,0.39775,0
0,0.148,1.25,0.398,0
0,0.14825,1.25,0.39825,0
0,0.1485,1.25,0.3985,0
0,0.14875,1.25,0.39875,0
0,0.149,1.25,0.399,0
0,0.14925,1.25,0.39925,0
0,0.1495,1.25,0.3995,0
0,0.14975,1.25,0.39975,0
0,0.15,1.25,0.4,0
0,0.15025,1.25,0.40025,0
0,0.1505,1.25,0.4005,0
0,0.15075,1.25,0.40075,0
0,0.151,1.25,0.401,0
0,0.15125,1.25,0.40125,0
0,0.1515,1.25,0.4015,0
0,0.15175,1.25,0.40175,0
0,0.152,1.25,0.402,0
0,0.15225,1.25,0.40225,0
0,0.1525,1.25,0.4025,0
0,0.15275,1.25,0.40275,0
0,0.153,1.25,0.403,0
0,0.15325,1.25,0.40325,0
0,0.1535,1.25,0.4035,0
0,0.15375,1.25,0.40375,0
0,0.154,1.25,0.404,0
0,0.15425,1.25,0.40425,0
0,0.1545,1.25,0.4045,0
0,0.15475,1.25,0.40475,0
0,0.155,1.25,0.405,0
0,0.15525,1.25,0.40525,0
0,0.1555,1.25,0.4055,0
0,0.15575,1.25,0.40575,0
0,0.156,1.25,0.406,0
0,0.15625,1.25,0.40625,0
0,0.1565,1.25,0.4065,0
0,0.15675,1.25,0.40675,0
0,0.157,1.25,0.407,0
0,0.15725,1.25,0.40725,0
0,0.1575,1.25,0.4075,0
0,0.15775,1.25,0.40775,0
0,0.158,1.25,0.408,0
0,0.15825,1.25,0.40825,0
0,0.1585,1.25,0.4085,0
0,0.15875,1.25,0.40875,0
0,0.159,1.25,0.409,0
0,0.15925,1.25,0.40925,0
0,0.1595,1.25,0.4095,0
0,0.15975,1.25,0.40975,0
0,0.16,1.25,0.41,0
0,0.16025,1.25,0.41025,0
0,0.1605,1.25,0.4105,0
0,0.16075,1.25,0.41075,0
0,0.161,1.25,0.411,0
0,0.16125,1.25,0.41125,0
0,0.1615,1.25,0.4115,0
0,0.16175,1.25,0.41175,0
0,0.162,1.25,0.412,0
0,0.16225,1.25,0.41225,0
0,0.1625,1.25,0.4125,0
0,0.16275,1.25,0.41275,0
0,0.163,1.25,0.413,0
0,0.16325,1.25,0.41325,0
0,0.1635,1.25,0.4135,0
0,0.16375,1.25,0.41375,0
0,0.164,1.25,0.414,0
0,0.16425,1.25,0.41425,0
0,0.1645,1.25,0.4145,0
0,0.16475,1.25,0.41475,0
0,0.165,1.25,0.415,0
0,0.16525,1.25,0.41525,0
0,0.1655,1.25,0.4155,0
0,0.16575,1.25,0.41575,0
0,0.166,1.25,0.416,0
0,0.16625,1.25,0.41625,0
0,0.1665,1.25,0.4165,0
0,0.16675,1.25,0.41675,0
0,0.167,1.25,0.417,0
0,0.16725,1.25,0.41725,0
0,0.1675,1.25,0.4175,0
0,0.16775,1.25,0.41775,0
0,0.168,1.25,0.418,0
0,0.16825,1.25,0.41825,0
0,0.1685,1.25,0.4185,0
0,0.16875,1.25,0.41875,0
0,0.169,1.25,0.419,0
0,0.16925,1.25,0.41925,0
0,0.1695,1.25,0.4195,0
0,0.16975,1.25,0.41975,0
0,0.17,1.25,0.42,0
0,0.17025,1.25,0.42025,0
0,0.1705,1.25,0.4205,0
0,0.17075,1.25,0.42075,0
0,0.171,1.25,0.421,0
0,0.17125,1.25,0.42125,0
0,0.1715,1.25,0.4215,0
0,0.17175,1.25,0.42175,0
0,0.172,1.25,0.422,0
0,0.17225,1.25,0.42225,0
0,0.1725,1.25,0.4225,0
0,0.17275,1.25,0.42275,0
0,0.173,1.25,0.423,0
0,0.17325,1.25,0.42325,0
0,0.1735,1.25,0.4235,0
0,0.17375,1.25,0.42375,0
0,0.174,1.25,0.424,0
0,0.17425,1.25,0.42425,0
0,0.1745,1.25,0.4245,0
0,0.17475,1.25,0.42475,0
0,0.175,1.25,0.425,0
0,0.17525,1.25,0.42525,0
0,0.1755,1.25,0.4255,0
0,0.17575,1.25,0.42575,0
0,0.176,1.25,0.426,0
0,0.17625,1.25,0.42625,0
0,0.1765,1.25,0.4265,0
0,0.17675,1.25,0.42675,0
0,0.177,1.25,0.427,0
0,0.17725,1.25,0.42725,0
0,0.1775,1.25,0.4275,0
0,0.17775,1.25,0.42775,0
0,0.178,1.25,0.428,0
0,0.17825,1.25,0.42825,0
0,0.1785,1.25,0.4285,0
0,0.17875,1.25,0.42875,0
0,0.179,1.25,0.429,0
0,0.17925,1.25,0.42925,0
0,0.1795,1.25,0.4295,0
0,0.17975,1.25,0.42975,0
0,0.18,1.25,0.43,0
0,0.18025,1.25,0.43025,0
0,0.1805,1.25,0.4305,0
0,0.18075,1.25,0.43075,0
0,0.181,1.25,0.431,0
0,0.18125,1.25,0.43125,0
0,0.1815,1.25,0.4315,0
0,0.18175,1.25,0.43175,0
0,0.182,1.25,0.432,0
0,0.18225,1.25,0.43225,0
0,0.1825,1.25,0.4325,0
0,0.18275,1.25,0.43275,0
0,0.183,1.25,0.433,0
0,0.18325,1.25,0.43325,0
0,0.1835,1.25,0.4335,0
0,0.18375,1.25,0.43375,0
0,0.184,1.25,0.434,0
0,0.18425,1.25,0.43425,0
0,0.1845,1.25,0.4345,0
0,0.18475,1.25,0.43475,0
0,0.185,1.25,0.435,0
0,0.18525,1.25,0.43525,0
0,0.1855,1.25,0.4355,0
0,0.18575,1.25,0.43575,0
0,0.186,1.25,0.436,0
0,0.18625,1.25,0.43625,0
0,0.1865,1.25,0.4365,0
0,0.18675,1.25,0.43675,0
0,0.187,1.25,0.437,0
0,0.18725,1.25,0.43725,0
0,0.1875,1.25,0.4375,0
0,0.18775,1.25,0.43775,0
0,0.188,1.25,0.438,0
0,0.18825,1.25,0.43825,0
0,0.1885,1.25,0.4385,0
0,0.18875,1.25,0.43875,0
0,0.189,1.25,0.439,0
0,0.18925,1.25,0.43925,0
0,0.1895,1.25,0.4395,0
0,0.18975,1.25,0.43975,0
0,0.19,1.25,0.44,0
0,0.19025,1.25,0.44025,0
0,0.1905,1.25,0.4405,0
0,0.19075,1.25,0.44075,0
0,0.191,1.25,0.441,0
0,0.19125,1.25,0.44125,0
0,0.1915,1.25,0.4415,0
0,0.19175,1.25,0.44175,0
0,0.192,1.25,0.442,0
0,0.19225,1.25,0.44225,0
0,0.1925,1.25,0.4425,0
0,0.19275,1.25,0.44275,0
0,0.193,1.25,0.443,0
0,0.19325,1.25,0.44325,0
0,0.1935,1.25,0.4435,0
0,0.19375,1.25,0.44375,0
0,0.194,1.25,0.444,0
0,0.19425,1.25,0.44425,0
0,0.1945,1.25,0.4445,0
0,0.19475,1.25,0.44475,0
0,0.195,1.25,0.445,0
0,0.19525,1.25,0.44525,0
0,0.1955,1.25,0.4455,0
0,0.19575,1.25,0.44575,0
0,0.196,1.25,0.446,0
0,0.19625,1.25,0.44625,0
0,0.1965,1.25,0.4465,0
0,0.19675,1.25,0.44675,0
0,0.197,1.25,0.447,0
0,0.19725,1.25,0.44725,0
0,0.1975,1.25,0.4475,0
0,0.19775,1.25,0.44775,0
0,0.198,1.25,0.448,0
0,0.19825,1.25,0.44825,0
0,0.1985,1.25,0.4485,0
0,0.19875,1.25,0.44875,0
0,0.199,1.25,0.449,0
0,0.19925,1.25,0.44925,0
0,0.1995,1.25,0.4495,0
0,0.19975,1.25,0.44975,0
0,0.2,1.25,0.45,0
0,0.20025,1.25,0.45025,0
0,0.2005,1.25,0.4505,0
0,0.20075,1.25,0.45075,0
0,0.201,1.25,0.451,0
0,0.20125,1.25,0.45125,0
0,0.2015,1.25,0.4515,0
0,0.20175,1.25,0.45175,0
0,0.202,1.25,0.452,0
0,0.20225,1.25,0.45225,0
0,0.2025,1.25,0.4525,0
0,0.20275,1.25,0.45275,0
0,0.203,1.25,0.453,0
0,0.20325,1.25,0.45325,0
0,0.2035,1.25,0.4535,0
0,0.20375,1.25,0.45375,0
0,0.204,1.25,0.454,0
0,0.20425,1.25,0.45425,0
0,0.2045,1.25,0.4545,0
0,0.20475,1.25,0.45475,0
0,0.205,1.25,0.455,0
0,0.20525,1.25,0.45525,0
0,0.2055,1.25,0.4555,0
0,0.20575,1.25,0.45575,0
0,0.206,1.25,0.456,0
0,0.20625,1.25,0.45625,0
0,0.2065,1.25,0.4565,0
0,0.20675,1.25,0.45675,0
0,0.207,1.25,0.457,0
0,0.20725,1.25,0.45725,0
0,0.2075,1.25,0.4575,0
0,0.20775,1.25,0.45775,0
0,0.208,1.25,0.458,0
0,0.20825,1.25,0.45825,0
0,0.2085,1.25,0.4585,0
0,0.20875,1.25,0.45875,0
0,0.209,1.25,0.459,0
0,0.20925,1.25,0.45925,0
0,0.2095,1.25,0.4595,0
0,0.20975,1.25,0.45975,0
0,0.21,1.25,0.46,0
0,0.21025,1.25,0.46025,0
0,0.2105,1.25,0.4605,0
0,0.21075,1.25,0.46075,0
0,0.211,1.25,0.461,0
0,0.21125,1.25,0.46125,0
0,0.2115,1.25,0.4615,0
0,0.21175,1.25,0.46175,0
0,0.212,1.25,0.462,0
0,0.21225,1.25,0.46225,0
0,0.2125,1.25,0.4625,0
0,0.21275,1.25,0.46275,0
0,0.213,1.25,0.463,0
0,0.21325,1.25,0.46325,0
0,0.2135,1.25,0.4635,0
0,0.21375,1.25,0.46375,0
0,0.214,1.25,0.464,0
0,0.21425,1.25,0.46425,0
0,0.2145,1.25,0.4645,0
0,0.21475,1.25,0.46475,0
0,0.215,1.25,0.465,0
0,0.21525,1.25,0.46525,0
0,0.2155,1.25,0.4655,0
0,0.21575,1.25,0.46575,0
0,0.216,1.25,0.466,0
0,0.21625,1.25,0.46625,0
0,0.2165,1.25,0.4665,0
0,0.21675,1.25,0.46675,0
0,0.217,1.25,0.467,0
0,0.21725,1.25,0.46725,0
0,0.2175,1.25,0.4675,0
0,0.21775,1.25,0.46775,0
0,0.218,1.25,0.468,0
0,0.21825,1.25,0.46825,0
0,0.2185,1.25,0.4685,0
0,0.21875,1.25,0.46875,0
0,0.219,1.25,0.469,0
0,0.21925,1.25,0.46925,0
0,0.2195,1.25,0.4695,0
0,0.21975,1.25,0.46975,0
0,0.22,1.25,0.47,0
0,0.22025,1.25,0.47025,0
0,0.2205,1.25,0.4705,0
0,0.22075,1.25,0.47075,0
0,0.221,1.25,0.471,0
0,0.22125,1.25,0.47125,0
0,0.2215,1.25,0.4715,0
0,0.22175,1.25,0.47175,0
0,0.222,1.25,0.472,0
0,0.22225,1.25,0.47225,0
0,0.2225,1.25,0.4725,0
0,0.22275,1.25,0.47275,0
0,0.223,1.25,0.473,0
0,0.22325,1.25,0.47325,0
0,0.2235,1.25,0.4735,0
0,0.22375,1.25,0.47375,0
0,0.224,1.25,0.474,0
0,0.22425,1.25,0.47425,0
0,0.2245,1.25,0.4745,0
0,0.22475,1.25,0.47475,0
0,0.225,1.25,0.475,0
0,0.22525,1.25,0.47525,0
0,0.2255,1.25,0.4755,0
0,0.22575,1.25,0.47575,0
0,0.226,1.25,0.476,0
0,0.22625,1.25,0.47625,0
0,0.2265,1.25,0.4765,0
0,0.22675,1.25,0.47675,0
0,0.227,1.25,0.477,0
0,0.22725,1.25,0.47725,0
0,0.2275,1.25,0.4775,0
0,0.22775,1.25,0.47775,0
0,0.228,1.25,0.478,0
0,0.22825,1.25,0.47825,0
0,0.2285,1.25,0.4785,0
0,0.22875,1.25,0.47875,0
0,0.229,1.25,0.479,0
0,0.22925,1.25,0.47925,0
0,0.2295,1.25,0.4795,0
0,0.22975,1.25,0.47975,0
0,0.23,1.25,0.48,0
0,0.23025,1.25,0.48025,0
0,0.2305,1.25,0.4805,0
0,0.23075,1.25,0.48075,0
0,0.231,1.25,0.481,0
0,0.23125,1.25,0.48125,0
0,0.2315,1.25,0.4815,0
0,0.23175,1.25,0.48175,0
0,0.232,1.25,0.482,0
0,0.23225,1.25,0.48225,0
0,0.2325,1.25,0.4825,0
0,0.23275,1.25,0.48275,0
0,0.233,1.25,0.483,0
0,0.23325,1.25,0.48325,0
0,0.2335,1.25,0.4835,0
0,0.23375,1.25,0.48375,0
0,0.234,1.25,0.484,0
0,0.23425,1.25,0.48425,0
0,0.2345,1.25,0.4845,0
0,0.23475,1.25,0.48475,0
0,0.235,1.25,0.485,0
0,0.23525,1.25,0.48525,0
0,0.2355,1.25,0.4855,0
0,0.23575,1.25,0.48575,0
0,0.236,1.25,0.486,0
0,0.23625,1.25,0.48625,0
0,0.2365,1.25,0.4865,0
0,0.23675,1.25,0.48675,0
0,0.237,1.25,0.487,0
0,0.23725,1.25,0.48725,0
0,0.2375,1.25,0.4875,0
0,0.23775,1.25,0.48775,0
0,0.238,1.25,0.488,0
0,0.23825,1.25,0.48825,0
0,0.2385,1.25,0.4885,0
0,0.23875,1.25,0.48875,0
0,0.239,1.25,0.489,0
0,0.23925,1.25,0.48925,0
0,0.2395,1.25,0.4895,0
0,0.23975,1.25,0.48975,0
0,0.24,1.25,0.49,0
0,0.24025,1.25,0.49025,0
0,0.2405,1.25,0.4905,0
0,0.24075,1.25,0.49075,0
0,0.241,1.25,0.491,0
0,0.24125,1.25,0.49125,0
0,0.2415,1.25,0.4915,0
0,0.24175,1.25,0.49175,0
0,0.242,1.25,0.492,0
0,0.24225,1.25,0.49225,0
0,0.2425,1.25,0.4925,0
0,0.24275,1.25,0.49275,0
0,0.243,1.25,0.493,0
0,0.24325,1.25,0.49325,0
0,0.2435,1.25,0.4935,0
0,0.24375,1.25,0.49375,0
0,0.244,1.25,0.494,0
0,0.24425,1.25,0.49425,0
0,0.2445,1.25,0.4945,0
0,0.24475,1.25,0.49475,0
0,0.245,1.25,0.495,0
0,0.24525,1.25,0.49525,0
0,0.2455,1.25,0.4955,0
0,0.24575,1.25,0.49575,0
0,0.246,1.25,0.496,0
0,0.24625,1.25,0.49625,0
0,0.2465,1.25,0.4965,0
0,0.24675,1.25,0.49675,0
0,0.247,1.25,0.497,0
0,0.24725,1.25,0.49725,0
0,0.2475,1.25,0.4975,0
0,0.24775,1.25,0.49775,0
0,0.248,1.25,0.498,0
0,0.24825,1.25,0.49825,0
0,0.2485,1.25,0.4985,0
0,0.24875,1.25,0.49875,0
0,0.249,1.25,0.499,0
0,0.24925,1.25,0.49925,0
0,0.2495,1.25,0.4995,0
0,0.24975,1.25,0.49975,0
0,0.25,1.25,0.5,0
