logfile 32 Final evaporation rate [mm/d]: 9.17048 tEnd[d]: 3 lastRelativeChange[-]: 0.999098 velocity[m/s]: 3.5 patchSize[m]: 0.5 patchLocation[m]: 1.25
logfile 28 Final evaporation rate [mm/d]: 11.3468 tEnd[d]: 3 lastRelativeChange[-]: 0.999311 velocity[m/s]: 3.5 patchSize[m]: 0.5 patchLocation[m]: 1.25
logfile 24 Final evaporation rate [mm/d]: 11.5439 tEnd[d]: 3 lastRelativeChange[-]: 0.999248 velocity[m/s]: 3.5 patchSize[m]: 0.5 patchLocation[m]: 1.25
logfile 20 Final evaporation rate [mm/d]: 4.22866 tEnd[d]: 3 lastRelativeChange[-]: 0.996519 velocity[m/s]: 3.5 patchSize[m]: 0.5 patchLocation[m]: 1.25
logfile 16 Final evaporation rate [mm/d]: 4.0289 tEnd[d]: 3 lastRelativeChange[-]: 0.996234 velocity[m/s]: 3.5 patchSize[m]: 0.5 patchLocation[m]: 1.25
logfile 8 Final evaporation rate [mm/d]: 3.51812 tEnd[d]: 3 lastRelativeChange[-]: 0.99529 velocity[m/s]: 3.5 patchSize[m]: 0.5 patchLocation[m]: 1.25
logfile 4 Final evaporation rate [mm/d]: 3.09347 tEnd[d]: 3 lastRelativeChange[-]: 0.994179 velocity[m/s]: 3.5 patchSize[m]: 0.5 patchLocation[m]: 1.25
logfile 2 Final evaporation rate [mm/d]: 2.73924 tEnd[d]: 3 lastRelativeChange[-]: 0.992902 velocity[m/s]: 3.5 patchSize[m]: 0.5 patchLocation[m]: 1.25
