#Sw[-],lambda[W/(m*K)]
0,0.958243
0.01,1.13731
0.02,1.21148
0.03,1.2684
0.04,1.31638
0.05,1.35865
0.06,1.39687
0.07,1.43201
0.08,1.46472
0.09,1.49545
0.1,1.52451
0.11,1.55214
0.12,1.57855
0.13,1.60388
0.14,1.62825
0.15,1.65177
0.16,1.67452
0.17,1.69656
0.18,1.71796
0.19,1.73878
0.2,1.75906
0.21,1.77884
0.22,1.79815
0.23,1.81702
0.24,1.83549
0.25,1.85358
0.26,1.87131
0.27,1.88871
0.28,1.90578
0.29,1.92255
0.3,1.93904
0.31,1.95525
0.32,1.97121
0.33,1.98691
0.34,2.00238
0.35,2.01762
0.36,2.03265
0.37,2.04747
0.38,2.06209
0.39,2.07652
0.4,2.09077
0.41,2.10484
0.42,2.11874
0.43,2.13247
0.44,2.14605
0.45,2.15947
0.46,2.17274
0.47,2.18587
0.48,2.19886
0.49,2.21172
0.5,2.22445
0.51,2.23704
0.52,2.24952
0.53,2.26188
0.54,2.27412
0.55,2.28625
0.56,2.29827
0.57,2.31018
0.58,2.32198
0.59,2.33369
0.6,2.3453
0.61,2.35681
0.62,2.36823
0.63,2.37955
0.64,2.39079
0.65,2.40194
0.66,2.413
0.67,2.42398
0.68,2.43488
0.69,2.44569
0.7,2.45643
0.71,2.4671
0.72,2.47769
0.73,2.4882
0.74,2.49864
0.75,2.50902
0.76,2.51932
0.77,2.52956
0.78,2.53973
0.79,2.54983
0.8,2.55988
0.81,2.56986
0.82,2.57977
0.83,2.58963
0.84,2.59943
0.85,2.60917
0.86,2.61885
0.87,2.62848
0.88,2.63805
0.89,2.64757
0.9,2.65703
0.91,2.66644
0.92,2.6758
0.93,2.68511
0.94,2.69437
0.95,2.70358
0.96,2.71274
0.97,2.72186
0.98,2.73093
0.99,2.73995
1,2.74892
