#t[d];e[mm/d]
1.15741e-08;13.5178
0.25;11.8342
0.5;10.1116
0.75;9.58172
1;9.25829
1.25;9.06354
1.5;8.94452
1.75;8.868
2;8.71631
2.25;8.24365
2.5;7.8187
2.75;7.43085
3;7.10162
3.25;6.84395
3.5;6.65572
3.75;6.47278
4;6.31553
4.25;6.16651
4.5;5.98455
4.75;5.78135
5;5.57922
5.25;5.3759
5.5;5.15516
5.75;4.92222
6;4.67423
6.25;4.42198
6.5;4.18965
6.75;3.97222
7;3.74314
7.25;3.52978
7.5;3.33559
7.75;3.1547
8;2.96178
8.25;2.79377
8.5;2.62408
8.75;2.47822
9;2.35137
9.25;2.23998
9.5;2.13253
9.75;2.03709
10;1.95391
10.25;1.87206
10.5;1.79436
10.75;1.71846
11;1.649
11.25;1.58882
11.5;1.53589
11.75;1.48975
12;1.44719
12.25;1.39807
12.5;1.35142
12.75;1.30888
13;1.26763
13.25;1.23097
13.5;1.19708
13.75;1.16563
14;1.13596
14.25;1.10937
14.5;1.08215
14.75;1.0531
15;1.02225
