#Time[s];TotalMassChange[kg/(s*extFac)];WaterMassChange[kg/(s*extFac))];IntEnergyChange[J/(m^3*s*extFac)];WaterMass[kg/extFac];WaterMassLoss[kg/extFac];EvaporationRate[mm/d];MoistureContent[-]
21600;0.000109437;0.000109575;114.316;77.7548;2.36683;11.8342;0.196171
43200;9.35125e-05;9.36256e-05;54.786;75.7324;4.38914;10.1116;0.192048
64800;8.86138e-05;8.87196e-05;35.9907;73.8161;6.30549;9.58172;0.188101
86400;8.56236e-05;8.5725e-05;24.4475;71.9644;8.15715;9.25829;0.184251
108000;8.38232e-05;8.39217e-05;17.4764;70.1517;9.96985;9.06354;0.180447
129600;8.27228e-05;8.28196e-05;13.1996;68.3628;11.7588;8.94452;0.176657
151200;8.20155e-05;8.21111e-05;10.4342;66.5892;13.5324;8.868;0.172865
172800;8.06128e-05;8.07066e-05;8.5831;64.846;15.2756;8.71631;0.169104
194400;7.62416e-05;7.63301e-05;7.01732;63.1972;16.9244;8.24365;0.165515
216000;7.23116e-05;7.23954e-05;5.92687;61.6335;18.4881;7.8187;0.162083
237600;6.87247e-05;6.88041e-05;5.07545;60.1473;19.9743;7.43085;0.158795
259200;6.56798e-05;6.57557e-05;4.50414;58.727;21.3946;7.10162;0.155628
280800;6.32968e-05;6.33699e-05;4.17058;57.3582;22.7634;6.84395;0.152553
302400;6.1556e-05;6.16271e-05;4.0017;56.0271;24.0945;6.65572;0.149541
324000;5.98641e-05;5.99331e-05;3.72606;54.7325;25.3891;6.47278;0.146592
345600;5.84098e-05;5.84771e-05;3.5397;53.4694;26.6522;6.31553;0.143695
367200;5.70317e-05;5.70973e-05;3.302;52.2361;27.8855;6.16651;0.140847
388800;5.53491e-05;5.54125e-05;2.84966;51.0392;29.0824;5.98455;0.138064
410400;5.34701e-05;5.3531e-05;2.31133;49.8829;30.2387;5.78135;0.135359
432000;5.16009e-05;5.16595e-05;1.88104;48.7671;31.3545;5.57922;0.132733
453600;4.97207e-05;4.97769e-05;1.41082;47.6919;32.4297;5.3759;0.130187
475200;4.76794e-05;4.7733e-05;0.901228;46.6609;33.4607;5.15516;0.127732
496800;4.55253e-05;4.55761e-05;0.36833;45.6764;34.4452;4.92222;0.125374
518400;4.3232e-05;4.32799e-05;-0.200535;44.7416;35.38;4.67423;0.123124
540000;4.08993e-05;4.09442e-05;-0.711861;43.8572;36.2644;4.42198;0.120984
561600;3.87508e-05;3.87931e-05;-1.03953;43.0192;37.1023;4.18965;0.118947
583200;3.674e-05;3.67798e-05;-1.31615;42.2248;37.8968;3.97222;0.117008
604800;3.46215e-05;3.46587e-05;-1.66244;41.4762;38.6454;3.74314;0.115172
626400;3.26483e-05;3.26832e-05;-1.90441;40.7702;39.3514;3.52978;0.113434
648000;3.08523e-05;3.08851e-05;-2.02234;40.1031;40.0185;3.33559;0.111785
669600;2.91794e-05;2.92102e-05;-2.06834;39.4722;40.6494;3.1547;0.11022
691200;2.73953e-05;2.74239e-05;-2.28813;38.8798;41.2418;2.96178;0.108745
712800;2.58414e-05;2.58683e-05;-2.30462;38.3211;41.8005;2.79377;0.10735
734400;2.42721e-05;2.42971e-05;-2.43001;37.7962;42.3253;2.62408;0.106036
756000;2.29229e-05;2.29464e-05;-2.37169;37.3006;42.821;2.47822;0.104791
777600;2.17496e-05;2.17719e-05;-2.25289;36.8303;43.2913;2.35137;0.103606
799200;2.07193e-05;2.07405e-05;-2.09478;36.3823;43.7393;2.23998;0.102475
820800;1.97255e-05;1.97457e-05;-1.96475;35.9558;44.1658;2.13253;0.101395
842400;1.88427e-05;1.8862e-05;-1.77573;35.5484;44.5732;2.03709;0.100362
864000;1.80732e-05;1.80918e-05;-1.58123;35.1576;44.964;1.95391;0.0993679
885600;1.73162e-05;1.73339e-05;-1.46146;34.7832;45.3384;1.87206;0.0984137
907200;1.65974e-05;1.66144e-05;-1.36087;34.4243;45.6973;1.79436;0.0974972
928800;1.58954e-05;1.59117e-05;-1.29197;34.0806;46.0409;1.71846;0.0966178
950400;1.52529e-05;1.52685e-05;-1.21034;33.7508;46.3707;1.649;0.0957723
972000;1.46963e-05;1.47113e-05;-1.08405;33.4331;46.6885;1.58882;0.0949561
993600;1.42066e-05;1.42212e-05;-0.949857;33.1259;46.9957;1.53589;0.0941657
1.0152e+06;1.37797e-05;1.37939e-05;-0.798625;32.8279;47.2936;1.48975;0.0933978
1.0368e+06;1.3386e-05;1.33999e-05;-0.669628;32.5385;47.5831;1.44719;0.0926505
1.0584e+06;1.29317e-05;1.29451e-05;-0.62193;32.2589;47.8627;1.39807;0.0919275
1.08e+06;1.25002e-05;1.25132e-05;-0.576781;31.9886;48.133;1.35142;0.0912274
1.1016e+06;1.21067e-05;1.21192e-05;-0.518529;31.7268;48.3947;1.30888;0.0905484
1.1232e+06;1.17252e-05;1.17373e-05;-0.485743;31.4733;48.6483;1.26763;0.0898898
1.1448e+06;1.13861e-05;1.13979e-05;-0.418264;31.2271;48.8945;1.23097;0.0892494
1.1664e+06;1.10726e-05;1.10841e-05;-0.371269;30.9877;49.1339;1.19708;0.0886257
1.188e+06;1.07816e-05;1.07929e-05;-0.326182;30.7546;49.367;1.16563;0.0880176
1.2096e+06;1.05072e-05;1.05182e-05;-0.290248;30.5274;49.5942;1.13596;0.0874241
1.2312e+06;1.02612e-05;1.02719e-05;-0.230341;30.3055;49.8161;1.10937;0.0868439
1.2528e+06;1.00094e-05;1.00199e-05;-0.196227;30.0891;50.0325;1.08215;0.0862771
1.2744e+06;9.7408e-06;9.75096e-06;-0.187387;29.8785;50.2431;1.0531;0.0857249
1.296e+06;9.45549e-06;9.46531e-06;-0.221639;29.674;50.4476;1.02225;0.0851882
