#Time[s];TotalMassChange[kg/(s*extFac)];WaterMassChange[kg/(s*extFac))];IntEnergyChange[J/(m^3*s*extFac)];WaterMass[kg/extFac];WaterMassLoss[kg/extFac];EvaporationRate[mm/d];moistureContent[-]
3600;3.30745e-05;3.31169e-05;52.1249;20.2628;0.119222;11.4452;0.154698
7200;3.00717e-05;3.01091e-05;38.9105;20.1544;0.227615;10.4057;0.153998
10800;2.8996e-05;2.90317e-05;32.8533;20.0499;0.332129;10.0333;0.153322
14400;2.69647e-05;2.69975e-05;27.2852;19.9527;0.42932;9.33034;0.152692
18000;2.61819e-05;2.62138e-05;25.364;19.8583;0.523689;9.0595;0.15208
21600;2.59215e-05;2.59528e-05;22.4705;19.7649;0.617119;8.96928;0.151473
25200;2.59852e-05;2.60165e-05;20.4511;19.6712;0.710779;8.99129;0.150863
28800;2.65468e-05;2.6579e-05;20.6338;19.5755;0.806463;9.18571;0.15024
32400;2.61124e-05;2.61439e-05;19.0323;19.4814;0.900581;9.03533;0.149625
36000;2.58891e-05;2.59202e-05;17.6989;19.3881;0.993894;8.95802;0.149015
39600;2.55367e-05;2.55672e-05;16.2137;19.2961;1.08594;8.83603;0.148413
43200;2.4684e-05;2.47133e-05;14.4106;19.2071;1.1749;8.54093;0.14783
46800;2.40878e-05;2.41161e-05;12.305;19.1203;1.26172;8.33451;0.14726
50400;2.23108e-05;2.23365e-05;8.82608;19.0399;1.34213;7.7195;0.146732
54000;2.26869e-05;2.27141e-05;10.7596;18.9581;1.4239;7.84999;0.146194
57600;2.23742e-05;2.24011e-05;11.5493;18.8774;1.50455;7.74183;0.145662
61200;2.22261e-05;2.2253e-05;12.3323;18.7973;1.58466;7.69065;0.145134
64800;2.17796e-05;2.18056e-05;10.9839;18.7188;1.66316;7.53601;0.144616
68400;2.07077e-05;2.07318e-05;8.28643;18.6442;1.73779;7.16492;0.144122
72000;2.01435e-05;2.01671e-05;7.50054;18.5716;1.81039;6.96974;0.143641
75600;1.93173e-05;1.93396e-05;6.11259;18.502;1.88002;6.68377;0.14318
79200;1.90777e-05;1.90999e-05;5.66128;18.4332;1.94878;6.60092;0.142724
82800;1.9246e-05;1.92685e-05;5.60074;18.3639;2.01814;6.6592;0.142263
86400;1.93483e-05;1.93705e-05;4.45296;18.2941;2.08788;6.69443;0.1418
90000;1.92286e-05;1.92506e-05;3.50418;18.2248;2.15718;6.653;0.141338
93600;1.89437e-05;1.89654e-05;3.29809;18.1565;2.22545;6.55444;0.140884
97200;1.83723e-05;1.83929e-05;2.0822;18.0903;2.29167;6.35658;0.140442
100800;1.80563e-05;1.80767e-05;1.61461;18.0253;2.35675;6.2473;0.140007
104400;1.88493e-05;1.88712e-05;2.58568;17.9573;2.42468;6.52188;0.139553
108000;1.93508e-05;1.9373e-05;2.65612;17.8876;2.49442;6.69531;0.139087
111600;1.94863e-05;1.95086e-05;2.48004;17.8173;2.56466;6.74217;0.138616
115200;1.96629e-05;1.96854e-05;2.42816;17.7465;2.63552;6.80328;0.138141
118800;1.97248e-05;1.97469e-05;1.26301;17.6754;2.70661;6.82452;0.137664
122400;1.99802e-05;2.00026e-05;0.768168;17.6034;2.77862;6.9129;0.13718
126000;2.01107e-05;2.01336e-05;1.22876;17.5309;2.8511;6.95816;0.136693
129600;1.98029e-05;1.98254e-05;1.247;17.4595;2.92247;6.85167;0.136212
133200;1.99771e-05;1.99998e-05;1.35088;17.3875;2.99447;6.91192;0.135726
136800;1.86393e-05;1.86599e-05;0.164858;17.3203;3.06165;6.44886;0.135273
140400;1.67386e-05;1.67556e-05;-3.14359;17.26;3.12197;5.79072;0.134865
144000;1.48074e-05;1.48217e-05;-5.22718;17.2067;3.17533;5.12238;0.134505
147600;1.36062e-05;1.36198e-05;-5.63154;17.1576;3.22436;4.70701;0.134173
151200;1.28247e-05;1.28373e-05;-6.14176;17.1114;3.27057;4.43659;0.13386
154800;1.2058e-05;1.20695e-05;-7.05798;17.068;3.31402;4.17122;0.133565
158400;1.09982e-05;1.10076e-05;-9.36053;17.0283;3.35365;3.80422;0.133296
162000;1.03631e-05;1.03719e-05;-9.75;16.991;3.39099;3.58454;0.133043
165600;1.03035e-05;1.03131e-05;-8.93241;16.9539;3.42812;3.56422;0.132791
169200;1.02288e-05;1.02382e-05;-9.08861;16.917;3.46497;3.53831;0.13254
172800;9.64858e-06;9.65666e-06;-9.95171;16.8823;3.49974;3.33734;0.132304
176400;8.95816e-06;8.96547e-06;-10.6584;16.85;3.53201;3.09847;0.132085
180000;8.96852e-06;8.97664e-06;-9.52969;16.8177;3.56433;3.10233;0.131865
183600;9.29862e-06;9.30654e-06;-10.0162;16.7842;3.59783;3.21634;0.131637
187200;9.11559e-06;9.12334e-06;-10.0435;16.7513;3.63068;3.15303;0.131413
190800;8.32071e-06;8.32681e-06;-11.2544;16.7213;3.66065;2.87775;0.131208
194400;7.93096e-06;7.9359e-06;-13.0271;16.6928;3.68922;2.74265;0.131014
198000;7.70841e-06;7.71383e-06;-12.578;16.665;3.71699;2.6659;0.130824
201600;7.8318e-06;7.83725e-06;-12.6535;16.6368;3.74521;2.70855;0.130632
205200;7.99236e-06;7.99805e-06;-12.636;16.608;3.774;2.76413;0.130435
208800;8.0012e-06;8.00749e-06;-11.8808;16.5792;3.80283;2.76739;0.130238
212400;7.78999e-06;7.79594e-06;-11.6509;16.5511;3.83089;2.69428;0.130046
216000;7.20353e-06;7.20792e-06;-13.1183;16.5252;3.85684;2.49106;0.129869
219600;6.90403e-06;6.90878e-06;-12.4652;16.5003;3.88171;2.38767;0.129699
223200;7.05925e-06;7.06473e-06;-11.3456;16.4749;3.90714;2.44157;0.129525
226800;7.2141e-06;7.22053e-06;-9.68068;16.4489;3.93314;2.49542;0.129347
230400;7.25332e-06;7.25983e-06;-8.58514;16.4227;3.95927;2.509;0.129168
234000;7.24854e-06;7.2552e-06;-7.66529;16.3966;3.98539;2.5074;0.128989
237600;7.14647e-06;7.15308e-06;-7.10189;16.3709;4.01114;2.4721;0.128812
241200;6.86451e-06;6.8702e-06;-7.66299;16.3461;4.03588;2.37434;0.128643
244800;6.29107e-06;6.29603e-06;-8.09687;16.3235;4.05854;2.17591;0.128487
248400;6.08416e-06;6.08903e-06;-7.56778;16.3015;4.08046;2.10437;0.128337
252000;6.09533e-06;6.09986e-06;-7.88141;16.2796;4.10242;2.10811;0.128186
255600;6.12709e-06;6.1323e-06;-6.93523;16.2575;4.1245;2.11932;0.128035
259200;6.19296e-06;6.19801e-06;-6.75911;16.2352;4.14681;2.14203;0.127881
262800;6.29892e-06;6.30398e-06;-6.87525;16.2125;4.16951;2.17866;0.127726
266400;6.38887e-06;6.39422e-06;-6.52693;16.1895;4.19252;2.20984;0.127567
270000;6.42597e-06;6.43147e-06;-6.04574;16.1663;4.21568;2.22272;0.127408
273600;6.37461e-06;6.38002e-06;-6.02524;16.1433;4.23865;2.20494;0.12725
277200;6.10479e-06;6.10939e-06;-6.7207;16.1214;4.26064;2.1114;0.127099
280800;5.61902e-06;5.62246e-06;-8.25948;16.1011;4.28088;1.94312;0.12696
284400;5.38428e-06;5.38767e-06;-8.29027;16.0817;4.30028;1.86198;0.126826
288000;5.35406e-06;5.35681e-06;-9.14591;16.0624;4.31956;1.85131;0.126693
291600;5.42747e-06;5.43001e-06;-9.79661;16.0429;4.33911;1.87661;0.126559
295200;5.514e-06;5.51739e-06;-9.21201;16.023;4.35897;1.90681;0.126422
298800;5.59771e-06;5.60139e-06;-8.86507;16.0029;4.37914;1.93584;0.126283
302400;5.68535e-06;5.68912e-06;-8.6836;15.9824;4.39962;1.96616;0.126141
306000;5.66207e-06;5.66624e-06;-7.92288;15.962;4.42002;1.95825;0.126001
309600;5.69696e-06;5.70144e-06;-7.26063;15.9415;4.44054;1.97042;0.125859
313200;5.70648e-06;5.71247e-06;-5.32952;15.9209;4.46111;1.97423;0.125717
316800;5.64798e-06;5.65449e-06;-3.08563;15.9005;4.48146;1.95419;0.125577
320400;5.58118e-06;5.58687e-06;-3.03441;15.8804;4.50157;1.93082;0.125438
324000;5.44978e-06;5.45445e-06;-3.93652;15.8608;4.52121;1.88506;0.125302
327600;5.12833e-06;5.13259e-06;-4.62129;15.8423;4.53969;1.77382;0.125174
331200;4.76037e-06;4.7639e-06;-5.02396;15.8252;4.55684;1.6464;0.125056
334800;4.67107e-06;4.67471e-06;-4.78269;15.8083;4.57367;1.61558;0.124939
338400;4.62741e-06;4.63111e-06;-4.57817;15.7917;4.59034;1.60051;0.124824
342000;4.65969e-06;4.6629e-06;-4.99103;15.7749;4.60713;1.6115;0.124708
345600;4.70401e-06;4.70763e-06;-4.75127;15.7579;4.62407;1.62696;0.124591
349200;4.73471e-06;4.73854e-06;-4.44683;15.7409;4.64113;1.63764;0.124473
352800;4.76507e-06;4.76906e-06;-4.15445;15.7237;4.6583;1.64819;0.124354
356400;4.82037e-06;4.82375e-06;-4.73272;15.7063;4.67567;1.66709;0.124233
360000;4.75556e-06;4.75943e-06;-4.10705;15.6892;4.6928;1.64486;0.124115
363600;4.77861e-06;4.78289e-06;-3.63189;15.672;4.71002;1.65297;0.123995
367200;4.81795e-06;4.82143e-06;-4.23344;15.6546;4.72737;1.66628;0.123875
370800;4.90493e-06;4.90731e-06;-5.90173;15.637;4.74504;1.69597;0.123753
374400;4.99621e-06;4.99936e-06;-5.74611;15.619;4.76304;1.72778;0.123628
378000;5.04571e-06;5.05024e-06;-4.41722;15.6008;4.78122;1.74536;0.123502
381600;5.01797e-06;5.02242e-06;-4.00998;15.5827;4.7993;1.73575;0.123376
385200;4.91243e-06;4.917e-06;-3.76013;15.565;4.817;1.69932;0.123253
388800;4.58417e-06;4.58812e-06;-4.50422;15.5485;4.83352;1.58565;0.123139
392400;4.26939e-06;4.27236e-06;-4.84162;15.5331;4.8489;1.47653;0.123032
396000;4.18862e-06;4.1915e-06;-4.77155;15.518;4.86399;1.44858;0.122927
399600;4.13045e-06;4.13425e-06;-3.82652;15.5031;4.87887;1.4288;0.122823
403200;4.04768e-06;4.05283e-06;-1.3828;15.4885;4.89346;1.40066;0.122722
406800;4.04428e-06;4.048e-06;-2.12763;15.474;4.90804;1.39899;0.122621
410400;4.05041e-06;4.0545e-06;-1.61722;15.4594;4.92263;1.40124;0.122519
414000;4.09085e-06;4.09492e-06;-1.42516;15.4446;4.93737;1.4152;0.122417
417600;4.07574e-06;4.07984e-06;-1.11478;15.4299;4.95206;1.40999;0.122315
421200;4.12871e-06;4.13289e-06;-1.01191;15.4151;4.96694;1.42833;0.122211
424800;4.13019e-06;4.13436e-06;-0.75147;15.4002;4.98182;1.42884;0.122107
428400;4.14916e-06;4.15305e-06;-0.973585;15.3852;4.99677;1.43529;0.122003
432000;4.10236e-06;4.10602e-06;-1.12082;15.3704;5.01156;1.41904;0.1219
435600;4.10387e-06;4.10779e-06;-0.982005;15.3557;5.02634;1.41965;0.121797
439200;4.10592e-06;4.10997e-06;-0.78573;15.3409;5.04114;1.42041;0.121694
442800;4.14639e-06;4.15061e-06;-0.713707;15.3259;5.05608;1.43445;0.12159
446400;4.17914e-06;4.18308e-06;-0.709676;15.3109;5.07114;1.44567;0.121485
450000;4.15516e-06;4.15909e-06;-0.769294;15.2959;5.08611;1.43738;0.121381
453600;4.2166e-06;4.21871e-06;-2.56602;15.2807;5.1013;1.45799;0.121275
457200;4.35815e-06;4.36006e-06;-4.25093;15.265;5.117;1.50684;0.121166
460800;4.41872e-06;4.42212e-06;-3.33462;15.2491;5.13292;1.52828;0.121055
464400;4.38537e-06;4.3882e-06;-4.28757;15.2333;5.14871;1.51656;0.120944
468000;4.18137e-06;4.18489e-06;-4.20093;15.2182;5.16378;1.4463;0.120839
471600;3.81036e-06;3.81322e-06;-4.61843;15.2045;5.17751;1.31785;0.120743
475200;3.73679e-06;3.73942e-06;-4.33617;15.191;5.19097;1.29234;0.120649
478800;3.69969e-06;3.70246e-06;-3.99806;15.1777;5.2043;1.27957;0.120556
482400;3.67508e-06;3.6792e-06;-2.49863;15.1645;5.21754;1.27153;0.120464
486000;3.63503e-06;3.63989e-06;-0.675969;15.1513;5.23065;1.25795;0.120372
489600;3.59492e-06;3.59875e-06;-0.837696;15.1384;5.2436;1.24373;0.120282
493200;3.62217e-06;3.62592e-06;-0.763307;15.1253;5.25666;1.25312;0.12019
496800;3.64105e-06;3.64511e-06;-0.418329;15.1122;5.26978;1.25975;0.120099
500400;3.67315e-06;3.67719e-06;-0.0898571;15.099;5.28302;1.27084;0.120006
504000;3.67108e-06;3.67553e-06;0.479426;15.0857;5.29625;1.27026;0.119913
507600;3.72734e-06;3.73152e-06;0.436318;15.0723;5.30968;1.28961;0.119819
511200;3.73013e-06;3.73365e-06;0.000359766;15.0589;5.32312;1.29035;0.119725
514800;3.74986e-06;3.75319e-06;-0.450515;15.0454;5.33663;1.2971;0.119631
518400;3.75024e-06;3.75424e-06;0.153987;15.0318;5.35015;1.29747;0.119536
522000;3.7254e-06;3.72931e-06;0.20392;15.0184;5.36357;1.28885;0.119442
525600;3.75844e-06;3.76221e-06;0.0806551;15.0049;5.37712;1.30022;0.119347
529200;3.78006e-06;3.7836e-06;-0.282156;14.9913;5.39074;1.30761;0.119252
532800;3.77734e-06;3.78147e-06;0.356463;14.9776;5.40435;1.30687;0.119157
536400;3.73327e-06;3.73712e-06;0.387153;14.9642;5.41781;1.29155;0.119062
540000;3.78749e-06;3.79059e-06;-0.607711;14.9505;5.43145;1.31003;0.118967
543600;3.82881e-06;3.83179e-06;-1.10421;14.9367;5.44525;1.32427;0.11887
547200;3.865e-06;3.86787e-06;-1.4945;14.9228;5.45917;1.33673;0.118772
550800;3.88833e-06;3.89141e-06;-1.63179;14.9088;5.47318;1.34487;0.118674
554400;3.86996e-06;3.87348e-06;-1.16425;14.8949;5.48712;1.33868;0.118576
558000;3.89641e-06;3.89992e-06;-1.18027;14.8808;5.50116;1.34781;0.118478
561600;3.86961e-06;3.87368e-06;-0.703924;14.8669;5.51511;1.33874;0.11838
565200;3.7774e-06;3.78206e-06;-0.0820694;14.8533;5.52873;1.30708;0.118284
568800;3.5648e-06;3.56939e-06;-0.359577;14.8404;5.54157;1.23358;0.118194
572400;3.28615e-06;3.28979e-06;-0.59975;14.8286;5.55342;1.13695;0.118111
576000;3.24343e-06;3.24699e-06;-0.523741;14.8169;5.56511;1.12216;0.118029
579600;3.21352e-06;3.21684e-06;-0.461708;14.8053;5.57669;1.11174;0.117947
583200;3.18047e-06;3.18374e-06;-0.353566;14.7938;5.58815;1.1003;0.117867
586800;3.15335e-06;3.15685e-06;-0.00252828;14.7825;5.59951;1.09101;0.117787
590400;3.14445e-06;3.14759e-06;-0.131538;14.7711;5.61085;1.08781;0.117707
594000;3.14268e-06;3.14604e-06;0.156087;14.7598;5.62217;1.08727;0.117627
597600;3.14747e-06;3.15032e-06;-0.283664;14.7485;5.63351;1.08875;0.117548
601200;3.1543e-06;3.15728e-06;-0.298153;14.7371;5.64488;1.09116;0.117468
604800;3.16735e-06;3.17002e-06;-0.666738;14.7257;5.65629;1.09556;0.117388
608400;3.14831e-06;3.15126e-06;-0.517112;14.7144;5.66764;1.08908;0.117308
612000;3.18637e-06;3.18898e-06;-0.948328;14.7029;5.67912;1.10211;0.117227
615600;3.18576e-06;3.18875e-06;-0.510856;14.6914;5.6906;1.10203;0.117146
619200;3.14719e-06;3.1499e-06;-0.726473;14.6801;5.70193;1.08861;0.117066
622800;3.15796e-06;3.16068e-06;-0.863162;14.6687;5.71331;1.09233;0.116986
626400;3.16537e-06;3.16809e-06;-0.92186;14.6573;5.72472;1.09489;0.116906
630000;3.17481e-06;3.17742e-06;-1.10808;14.6458;5.73616;1.09811;0.116825
633600;3.19056e-06;3.19322e-06;-1.22158;14.6343;5.74765;1.10358;0.116744
637200;3.19789e-06;3.20066e-06;-1.11718;14.6228;5.75917;1.10615;0.116663
640800;3.20404e-06;3.20696e-06;-0.988529;14.6113;5.77072;1.10833;0.116582
644400;3.21671e-06;3.21948e-06;-1.12759;14.5997;5.78231;1.11265;0.1165
648000;3.22424e-06;3.22714e-06;-0.979729;14.5881;5.79393;1.1153;0.116418
651600;3.22455e-06;3.22759e-06;-0.774996;14.5764;5.80555;1.11546;0.116336
655200;3.24319e-06;3.24543e-06;-1.5666;14.5648;5.81723;1.12162;0.116254
658800;3.25288e-06;3.25612e-06;-0.826432;14.553;5.82895;1.12531;0.116171
662400;3.24265e-06;3.24681e-06;0.345388;14.5414;5.84064;1.1221;0.116089
666000;3.23435e-06;3.23822e-06;0.48749;14.5297;5.8523;1.11913;0.116006
669600;3.23254e-06;3.23589e-06;0.249285;14.518;5.86395;1.11833;0.115924
673200;3.23179e-06;3.23537e-06;0.479317;14.5064;5.8756;1.11814;0.115842
676800;3.19944e-06;3.20288e-06;0.72543;14.4949;5.88713;1.10691;0.11576
680400;3.18323e-06;3.18674e-06;0.657169;14.4834;5.8986;1.10134;0.115679
684000;3.17939e-06;3.18265e-06;0.606794;14.4719;5.91006;1.09992;0.115599
687600;3.21249e-06;3.21595e-06;0.479776;14.4604;5.92163;1.11143;0.115517
691200;3.24653e-06;3.24985e-06;0.456818;14.4487;5.93333;1.12315;0.115434
