"Sn";"Sw";"pn";"pn_rel";"pw";"pc";"rhoW";"rhoN";"mobW";"mobN";"X_liquid^H2O";"X_liquid^Air";"X_gas^H2O";"X_gas^Air";"x_liquid^H2O";"x_liquid^Air";"x_gas^H2O";"x_gas^Air";"porosity";"temperature";"phase presence";"vtkValidPointMask";"Time";"Point Coordinates:0";"Point Coordinates:1";"Point Coordinates:2"
0.02;0.98;1e+05;0;98656;1343.7;996.33;1.1415;1185.8;2.755;0.99998;2.0577e-05;0.023452;0.97655;0.99999;1.28e-05;0.037171;0.96283;0.334;300.85;3;1;0;0.925;0.225;0.045
0.020019;0.97998;99952;-48.185;98608;1343.9;996.33;1.141;1185.7;2.7667;0.99998;2.0566e-05;0.023464;0.97654;0.99999;1.2794e-05;0.037189;0.96281;0.334;300.85;3;1;0.005;0.925;0.225;0.045
0.045021;0.95498;1e+05;0.32918;98556;1444.1;997.38;1.1604;1017.3;44.794;0.99998;2.2048e-05;0.018449;0.98155;0.99999;1.3716e-05;0.029328;0.97067;0.334;296.85;3;1;3600;0.925;0.225;0.045
0.06328;0.93672;1e+05;0.34578;98520;1480.4;997.71;1.1668;913.9;113.9;0.99998;2.2607e-05;0.016961;0.98304;0.99999;1.4063e-05;0.026988;0.97301;0.334;295.48;3;1;7200;0.925;0.225;0.045
0.082572;0.91743;1e+05;0.35294;98492;1508.3;997.85;1.1698;823.22;226.24;0.99998;2.2876e-05;0.016305;0.98369;0.99999;1.4231e-05;0.025954;0.97405;0.334;294.84;3;1;10800;0.925;0.225;0.045
0.10257;0.89743;1e+05;0.3477;98469;1531.2;997.91;1.1711;753.99;388.18;0.99998;2.3e-05;0.01602;0.98398;0.99999;1.4308e-05;0.025504;0.9745;0.334;294.55;3;1;14400;0.925;0.225;0.045
0.1237;0.8763;1e+05;0.35689;98449;1551.3;997.96;1.1722;696.93;612.13;0.99998;2.3095e-05;0.015803;0.9842;0.99999;1.4367e-05;0.025163;0.97484;0.334;294.33;3;1;18000;0.925;0.225;0.045
0.14659;0.85341;1e+05;0.36425;98430;1570.1;997.98;1.1725;641.45;918.68;0.99998;2.3125e-05;0.015735;0.98427;0.99999;1.4385e-05;0.025056;0.97494;0.334;294.26;3;1;21600;0.925;0.225;0.045
0.17121;0.82879;1e+05;0.35805;98413;1587.8;997.98;1.1726;586.03;1325.2;0.99998;2.3139e-05;0.015705;0.9843;0.99999;1.4394e-05;0.025007;0.97499;0.334;294.23;3;1;25200;0.925;0.225;0.045
0.19794;0.80206;1e+05;0.36464;98396;1604.9;998.01;1.1732;528.49;1860.2;0.99998;2.3196e-05;0.015578;0.98442;0.99999;1.443e-05;0.024808;0.97519;0.334;294.1;3;1;28800;0.925;0.225;0.045
0.22604;0.77396;1e+05;0.37097;98379;1621.3;998.02;1.1735;473.41;2529.9;0.99998;2.3218e-05;0.015531;0.98447;0.99999;1.4443e-05;0.024733;0.97527;0.334;294.05;3;1;32400;0.925;0.225;0.045
0.25563;0.74437;1e+05;0.36238;98363;1637.2;998.03;1.1736;420.08;3357.2;0.99998;2.3227e-05;0.015511;0.98449;0.99999;1.4449e-05;0.024702;0.9753;0.334;294.03;3;1;36000;0.925;0.225;0.045
0.28593;0.71407;1e+05;0.36191;98348;1652.4;998.03;1.1736;369.98;4336.6;0.99998;2.3226e-05;0.015512;0.98449;0.99999;1.4449e-05;0.024704;0.9753;0.334;294.03;3;1;39600;0.925;0.225;0.045
0.31672;0.68328;1e+05;0.36772;98333;1667.1;998.02;1.1734;323.51;5471.4;0.99998;2.3211e-05;0.015546;0.98445;0.99999;1.4439e-05;0.024757;0.97524;0.334;294.07;3;1;43200;0.925;0.225;0.045
0.34738;0.65262;1e+05;0.375;98319;1681.1;998;1.1729;281.65;6742.8;0.99998;2.3164e-05;0.015649;0.98435;0.99999;1.441e-05;0.02492;0.97508;0.334;294.17;3;1;46800;0.925;0.225;0.045
0.37667;0.62333;1e+05;0.3631;98306;1694.2;997.96;1.1721;245.4;8089.6;0.99998;2.3092e-05;0.01581;0.98419;0.99999;1.4365e-05;0.025173;0.97483;0.334;294.34;3;1;50400;0.925;0.225;0.045
0.40639;0.59361;1e+05;0.36096;98293;1707.3;997.98;1.1725;210.48;9594.8;0.99998;2.3127e-05;0.01573;0.98427;0.99999;1.4387e-05;0.025048;0.97495;0.334;294.26;3;1;54000;0.925;0.225;0.045
0.436;0.564;1e+05;0.35603;98280;1720.2;998;1.173;178.93;11232;0.99998;2.3175e-05;0.015625;0.98437;0.99999;1.4416e-05;0.024882;0.97512;0.334;294.15;3;1;57600;0.925;0.225;0.045
0.46522;0.53478;1e+05;0.35331;98267;1732.9;998.02;1.1735;151;12982;0.99998;2.3219e-05;0.015528;0.98447;0.99999;1.4444e-05;0.024729;0.97527;0.334;294.05;3;1;61200;0.925;0.225;0.045
0.49369;0.50631;1e+05;0.35584;98255;1745.5;998.03;1.1736;126.89;14814;0.99998;2.3227e-05;0.015511;0.98449;0.99999;1.4449e-05;0.024701;0.9753;0.334;294.03;3;1;64800;0.925;0.225;0.045
0.52048;0.47952;1e+05;0.35028;98243;1757.4;998;1.1731;106.91;16650;0.99998;2.3179e-05;0.015616;0.98438;0.99999;1.4419e-05;0.024867;0.97513;0.334;294.14;3;1;68400;0.925;0.225;0.045
0.54589;0.45411;1e+05;0.34431;98231;1769.1;997.99;1.1728;89.768;18495;0.99998;2.3156e-05;0.015666;0.98433;0.99999;1.4405e-05;0.024945;0.97505;0.334;294.19;3;1;72000;0.925;0.225;0.045
0.56952;0.43048;1e+05;0.34713;98220;1780.2;997.97;1.1724;75.527;20301;0.99998;2.3121e-05;0.015744;0.98426;0.99999;1.4383e-05;0.02507;0.97493;0.334;294.27;3;1;75600;0.925;0.225;0.045
0.59221;0.40779;1e+05;0.35321;98209;1791.3;997.97;1.1723;63.187;22117;0.99998;2.3107e-05;0.015774;0.98423;0.99999;1.4375e-05;0.025117;0.97488;0.334;294.3;3;1;79200;0.925;0.225;0.045
0.61427;0.38573;1e+05;0.35248;98198;1802.4;997.97;1.1723;52.437;23959;0.99998;2.3108e-05;0.015773;0.98423;0.99999;1.4375e-05;0.025115;0.97488;0.334;294.3;3;1;82800;0.925;0.225;0.045
0.63491;0.36509;1e+05;0.35573;98187;1813.3;997.95;1.1719;43.566;25747;0.99998;2.3076e-05;0.015846;0.98415;0.99999;1.4355e-05;0.02523;0.97477;0.334;294.38;3;1;86400;0.925;0.225;0.045
0.65451;0.34549;1e+05;0.35014;98176;1824.2;997.94;1.1717;36.053;27504;0.99998;2.305e-05;0.015904;0.9841;0.99999;1.4339e-05;0.025322;0.97468;0.334;294.43;3;1;90000;0.925;0.225;0.045
0.67272;0.32728;1e+05;0.35723;98166;1834.8;997.93;1.1715;29.83;29189;0.99998;2.3037e-05;0.015935;0.98406;0.99999;1.433e-05;0.025371;0.97463;0.334;294.47;3;1;93600;0.925;0.225;0.045
0.68968;0.31032;1e+05;0.35206;98155;1845.2;997.91;1.1711;24.711;30798;0.99998;2.2999e-05;0.016021;0.98398;0.99999;1.4307e-05;0.025507;0.97449;0.334;294.55;3;1;97200;0.925;0.225;0.045
0.70512;0.29489;1e+05;0.34719;98145;1855.2;997.9;1.1708;20.55;32299;0.99998;2.297e-05;0.016089;0.98391;0.99999;1.4289e-05;0.025613;0.97439;0.334;294.62;3;1;1.008e+05;0.925;0.225;0.045
0.72045;0.27955;1e+05;0.35906;98135;1865.7;997.91;1.1711;16.822;33832;0.99998;2.2999e-05;0.016021;0.98398;0.99999;1.4307e-05;0.025506;0.97449;0.334;294.55;3;1;1.044e+05;0.925;0.225;0.045
0.73511;0.26489;1e+05;0.35955;98124;1876.3;997.91;1.1712;13.702;35325;0.99998;2.3002e-05;0.016015;0.98399;0.99999;1.4309e-05;0.025496;0.9745;0.334;294.55;3;1;1.08e+05;0.925;0.225;0.045
0.74886;0.25114;1e+05;0.36258;98113;1887.1;997.91;1.1711;11.132;36751;0.99998;2.3e-05;0.01602;0.98398;0.99999;1.4308e-05;0.025504;0.9745;0.334;294.55;3;1;1.116e+05;0.925;0.225;0.045
0.76178;0.23822;1e+05;0.36033;98102;1897.8;997.91;1.1711;9.0126;38113;0.99998;2.2998e-05;0.016024;0.98398;0.99999;1.4306e-05;0.025511;0.97449;0.334;294.56;3;1;1.152e+05;0.925;0.225;0.045
0.77372;0.22628;1e+05;0.37089;98092;1908.5;997.9;1.1708;7.3055;39387;0.99998;2.2969e-05;0.01609;0.98391;0.99999;1.4288e-05;0.025616;0.97438;0.334;294.62;3;1;1.188e+05;0.925;0.225;0.045
0.78477;0.21523;1e+05;0.36102;98081;1919.2;997.89;1.1706;5.9146;40583;0.99998;2.2951e-05;0.016132;0.98387;0.99999;1.4277e-05;0.025682;0.97432;0.334;294.67;3;1;1.224e+05;0.925;0.225;0.045
0.79472;0.20528;1e+05;0.36758;98071;1929.5;997.89;1.1707;4.8068;41676;0.99998;2.2959e-05;0.016113;0.98389;0.99999;1.4282e-05;0.02565;0.97435;0.334;294.64;3;1;1.26e+05;0.925;0.225;0.045
0.8032;0.1968;1e+05;0.36385;98062;1938.9;997.83;1.1694;4.0024;42592;0.99998;2.2838e-05;0.016398;0.9836;0.99999;1.4207e-05;0.0261;0.9739;0.334;294.93;3;1;1.296e+05;0.925;0.225;0.045
0.81025;0.18975;1e+05;0.36733;98053;1947.2;997.73;1.1674;3.4128;43346;0.99998;2.2662e-05;0.016824;0.98318;0.99999;1.4097e-05;0.026771;0.97323;0.334;295.35;3;1;1.332e+05;0.925;0.225;0.045
0.81619;0.18381;1e+05;0.36904;98046;1954.7;997.67;1.1661;2.9518;43991;0.99998;2.2547e-05;0.017111;0.98289;0.99999;1.4026e-05;0.027223;0.97278;0.334;295.62;3;1;1.368e+05;0.925;0.225;0.045
0.82149;0.17851;1e+05;0.3642;98039;1961.7;997.67;1.166;2.5604;44586;0.99998;2.2536e-05;0.017139;0.98286;0.99999;1.4019e-05;0.027267;0.97273;0.334;295.65;3;1;1.404e+05;0.925;0.225;0.045
0.82623;0.17377;1e+05;0.36371;98032;1968.3;997.65;1.1656;2.2418;45117;0.99998;2.2502e-05;0.017224;0.98278;0.99999;1.3998e-05;0.027401;0.9726;0.334;295.73;3;1;1.44e+05;0.925;0.225;0.045
0.83037;0.16963;1e+05;0.35834;98026;1974.3;997.61;1.1649;1.9879;45607;0.99998;2.2442e-05;0.01738;0.98262;0.99999;1.396e-05;0.027647;0.97235;0.334;295.88;3;1;1.476e+05;0.925;0.225;0.045
0.83397;0.16603;1e+05;0.35584;98021;1979.8;997.58;1.1642;1.7831;46060;0.99998;2.2377e-05;0.017551;0.98245;0.99999;1.392e-05;0.027916;0.97208;0.334;296.04;3;1;1.512e+05;0.925;0.225;0.045
0.83714;0.16286;1e+05;0.35481;98016;1984.8;997.54;1.1634;1.6146;46475;0.99998;2.231e-05;0.017729;0.98227;0.99999;1.3878e-05;0.028196;0.9718;0.334;296.2;3;1;1.548e+05;0.925;0.225;0.045
0.84;0.16;1e+05;0.35727;98011;1989.5;997.5;1.1627;1.471;46864;0.99998;2.2248e-05;0.017895;0.98211;0.99999;1.384e-05;0.028457;0.97154;0.334;296.35;3;1;1.584e+05;0.925;0.225;0.045
0.84267;0.15733;1e+05;0.3551;98006;1994.1;997.48;1.1624;1.3417;47242;0.99998;2.2219e-05;0.017973;0.98203;0.99999;1.3822e-05;0.02858;0.97142;0.334;296.42;3;1;1.62e+05;0.925;0.225;0.045
0.84523;0.15477;1e+05;0.35832;98002;1998.6;997.49;1.1625;1.2215;47621;0.99998;2.2232e-05;0.017938;0.98206;0.99999;1.383e-05;0.028526;0.97147;0.334;296.39;3;1;1.656e+05;0.925;0.225;0.045
0.84766;0.15234;1e+05;0.35667;97997;2003.1;997.5;1.1626;1.1142;47985;0.99998;2.2242e-05;0.01791;0.98209;0.99999;1.3836e-05;0.028482;0.97152;0.334;296.37;3;1;1.692e+05;0.925;0.225;0.045
0.84992;0.15008;1e+05;0.3627;97993;2007.3;997.47;1.1621;1.0234;48314;0.99998;2.2191e-05;0.018049;0.98195;0.99999;1.3805e-05;0.0287;0.9713;0.334;296.49;3;1;1.728e+05;0.925;0.225;0.045
0.85198;0.14802;1e+05;0.35834;97989;2011.3;997.44;1.1615;0.94473;48615;0.99998;2.2141e-05;0.018188;0.98181;0.99999;1.3773e-05;0.028919;0.97108;0.334;296.62;3;1;1.764e+05;0.925;0.225;0.045
0.85387;0.14613;1e+05;0.3566;97985;2015.2;997.42;1.1611;0.875;48896;0.99998;2.2114e-05;0.018265;0.98173;0.99999;1.3756e-05;0.029039;0.97096;0.334;296.69;3;1;1.8e+05;0.925;0.225;0.045
0.85563;0.14436;1e+05;0.36442;97982;2018.8;997.38;1.1604;0.81453;49151;0.99998;2.2049e-05;0.018447;0.98155;0.99999;1.3716e-05;0.029325;0.97067;0.334;296.85;3;1;1.836e+05;0.925;0.225;0.045
0.85733;0.14267;1e+05;0.36205;97978;2022.4;997.37;1.1601;0.75701;49405;0.99998;2.2028e-05;0.018505;0.9815;0.99999;1.3703e-05;0.029416;0.97058;0.334;296.9;3;1;1.872e+05;0.925;0.225;0.045
0.85896;0.14104;1e+05;0.36776;97974;2026;997.36;1.16;0.70396;49649;0.99998;2.2013e-05;0.01855;0.98145;0.99999;1.3694e-05;0.029487;0.97051;0.334;296.94;3;1;1.908e+05;0.925;0.225;0.045
0.86054;0.13946;1e+05;0.37424;97971;2029.6;997.33;1.1594;0.65558;49880;0.99998;2.197e-05;0.018672;0.98133;0.99999;1.3667e-05;0.029679;0.97032;0.334;297.05;3;1;1.944e+05;0.925;0.225;0.045
0.86205;0.13795;1e+05;0.37142;97967;2033.1;997.32;1.1593;0.61046;50105;0.99998;2.1957e-05;0.018711;0.98129;0.99999;1.3659e-05;0.029741;0.97026;0.334;297.08;3;1;1.98e+05;0.925;0.225;0.045
0.86348;0.13652;1e+05;0.37642;97964;2036.5;997.3;1.1589;0.57012;50312;0.99998;2.1925e-05;0.018803;0.9812;0.99999;1.3639e-05;0.029885;0.97012;0.334;297.17;3;1;2.016e+05;0.925;0.225;0.045
0.86484;0.13516;1e+05;0.37207;97960;2039.8;997.29;1.1586;0.53316;50510;0.99998;2.1899e-05;0.01888;0.98112;0.99999;1.3623e-05;0.030006;0.96999;0.334;297.23;3;1;2.052e+05;0.925;0.225;0.045
0.86613;0.13387;1e+05;0.37461;97957;2043.1;997.28;1.1585;0.4991;50698;0.99998;2.1889e-05;0.01891;0.98109;0.99999;1.3616e-05;0.030053;0.96995;0.334;297.26;3;1;2.088e+05;0.925;0.225;0.045
0.86733;0.13267;1e+05;0.37571;97954;2046.2;997.25;1.158;0.46934;50866;0.99998;2.1849e-05;0.019026;0.98097;0.99999;1.3592e-05;0.030236;0.96976;0.334;297.36;3;1;2.124e+05;0.925;0.225;0.045
0.86845;0.13155;1e+05;0.37848;97951;2049.1;997.22;1.1574;0.44289;51019;0.99998;2.18e-05;0.019175;0.98083;0.99999;1.3561e-05;0.030469;0.96953;0.334;297.49;3;1;2.16e+05;0.925;0.225;0.045
0.86951;0.13049;1e+05;0.37882;97948;2052;997.21;1.1572;0.4181;51168;0.99998;2.1784e-05;0.019223;0.98078;0.99999;1.3551e-05;0.030545;0.96946;0.334;297.53;3;1;2.196e+05;0.925;0.225;0.045
0.87051;0.12949;1e+05;0.37955;97946;2054.8;997.21;1.1571;0.39522;51310;0.99998;2.1775e-05;0.019249;0.98075;0.99999;1.3546e-05;0.030586;0.96941;0.334;297.55;3;1;2.232e+05;0.925;0.225;0.045
0.87146;0.12854;1e+05;0.36829;97943;2057.5;997.22;1.1574;0.37343;51451;0.99998;2.1798e-05;0.019181;0.98082;0.99999;1.356e-05;0.03048;0.96952;0.334;297.49;3;1;2.268e+05;0.925;0.225;0.045
0.87238;0.12762;1e+05;0.36886;97940;2060.1;997.23;1.1576;0.35338;51584;0.99998;2.1814e-05;0.019133;0.98087;0.99999;1.357e-05;0.030404;0.9696;0.334;297.45;3;1;2.304e+05;0.925;0.225;0.045
0.87327;0.12673;1e+05;0.36347;97938;2062.7;997.24;1.1578;0.33454;51712;0.99998;2.1832e-05;0.019077;0.98092;0.99999;1.3581e-05;0.030316;0.96968;0.334;297.4;3;1;2.34e+05;0.925;0.225;0.045
0.87413;0.12587;1e+05;0.36874;97935;2065.3;997.26;1.158;0.31678;51837;0.99998;2.1854e-05;0.019013;0.98099;0.99999;1.3595e-05;0.030214;0.96979;0.334;297.35;3;1;2.376e+05;0.925;0.225;0.045
0.87497;0.12503;1e+05;0.36381;97932;2067.9;997.26;1.1581;0.30038;51953;0.99998;2.1855e-05;0.019009;0.98099;0.99999;1.3595e-05;0.030209;0.96979;0.334;297.35;3;1;2.412e+05;0.925;0.225;0.045
0.87581;0.12419;1e+05;0.35908;97930;2070.5;997.27;1.1583;0.28427;52072;0.99998;2.1876e-05;0.018948;0.98105;0.99999;1.3608e-05;0.030112;0.96989;0.334;297.29;3;1;2.448e+05;0.925;0.225;0.045
0.87663;0.12337;1e+05;0.35894;97927;2073.2;997.28;1.1585;0.2691;52187;0.99998;2.1893e-05;0.018896;0.9811;0.99999;1.3619e-05;0.030031;0.96997;0.334;297.25;3;1;2.484e+05;0.925;0.225;0.045
0.87743;0.12257;1e+05;0.36501;97925;2075.8;997.28;1.1584;0.25527;52291;0.99998;2.1883e-05;0.018925;0.98107;0.99999;1.3613e-05;0.030076;0.96992;0.334;297.27;3;1;2.52e+05;0.925;0.225;0.045
0.8782;0.1218;1e+05;0.36677;97922;2078.4;997.29;1.1586;0.24194;52396;0.99998;2.1899e-05;0.018879;0.98112;0.99999;1.3623e-05;0.030004;0.97;0.334;297.23;3;1;2.556e+05;0.925;0.225;0.045
0.87894;0.12106;1e+05;0.37251;97920;2080.9;997.28;1.1585;0.22982;52491;0.99998;2.1892e-05;0.0189;0.9811;0.99999;1.3618e-05;0.030038;0.96996;0.334;297.25;3;1;2.592e+05;0.925;0.225;0.045
0.87966;0.12034;1e+05;0.36679;97917;2083.4;997.28;1.1584;0.21849;52582;0.99998;2.1884e-05;0.018922;0.98108;0.99999;1.3614e-05;0.030072;0.96993;0.334;297.27;3;1;2.628e+05;0.925;0.225;0.045
0.88035;0.11965;1e+05;0.36889;97914;2085.8;997.27;1.1584;0.2079;52669;0.99998;2.188e-05;0.018934;0.98106;0.99999;1.3611e-05;0.030092;0.96991;0.334;297.28;3;1;2.664e+05;0.925;0.225;0.045
0.88101;0.11899;1e+05;0.36963;97912;2088.2;997.27;1.1583;0.19806;52752;0.99998;2.1876e-05;0.018948;0.98105;0.99999;1.3608e-05;0.030112;0.96989;0.334;297.29;3;1;2.7e+05;0.925;0.225;0.045
0.88165;0.11835;1e+05;0.37441;97910;2090.6;997.25;1.1579;0.18911;52824;0.99998;2.1844e-05;0.019042;0.98096;0.99999;1.3589e-05;0.03026;0.96974;0.334;297.37;3;1;2.736e+05;0.925;0.225;0.045
0.88224;0.11776;1e+05;0.37638;97908;2092.8;997.23;1.1575;0.18106;52889;0.99998;2.1807e-05;0.019152;0.98085;0.99999;1.3566e-05;0.030434;0.96957;0.334;297.47;3;1;2.772e+05;0.925;0.225;0.045
0.88281;0.11719;1e+05;0.37713;97905;2095;997.2;1.1569;0.17373;52947;0.99998;2.1761e-05;0.019293;0.98071;0.99999;1.3537e-05;0.030655;0.96934;0.334;297.59;3;1;2.808e+05;0.925;0.225;0.045
0.88335;0.11665;1e+05;0.37455;97903;2097.1;997.18;1.1566;0.16668;53007;0.99998;2.1739e-05;0.01936;0.98064;0.99999;1.3523e-05;0.03076;0.96924;0.334;297.65;3;1;2.844e+05;0.925;0.225;0.045
0.88386;0.11614;1e+05;0.37985;97901;2099.1;997.15;1.156;0.16044;53056;0.99998;2.1685e-05;0.019522;0.98048;0.99999;1.349e-05;0.031015;0.96899;0.334;297.79;3;1;2.88e+05;0.925;0.225;0.045
0.88435;0.11565;1e+05;0.37587;97899;2101.1;997.11;1.1553;0.15465;53101;0.99998;2.163e-05;0.019696;0.9803;0.99999;1.3455e-05;0.031288;0.96871;0.334;297.93;3;1;2.916e+05;0.925;0.225;0.045
0.88483;0.11517;1e+05;0.38186;97897;2103;997.1;1.1551;0.14888;53152;0.99998;2.161e-05;0.019757;0.98024;0.99999;1.3443e-05;0.031383;0.96862;0.334;297.98;3;1;2.952e+05;0.925;0.225;0.045
0.88528;0.11472;1e+05;0.38102;97896;2104.9;997.08;1.1548;0.14344;53200;0.99998;2.1591e-05;0.019819;0.98018;0.99999;1.3431e-05;0.031481;0.96852;0.334;298.03;3;1;2.988e+05;0.925;0.225;0.045
0.88573;0.11428;1e+05;0.38469;97894;2106.8;997.07;1.1545;0.13831;53246;0.99998;2.1567e-05;0.019895;0.9801;0.99999;1.3416e-05;0.0316;0.9684;0.334;298.1;3;1;3.024e+05;0.925;0.225;0.045
0.88615;0.11385;1e+05;0.37993;97892;2108.6;997.07;1.1546;0.13328;53295;0.99998;2.1572e-05;0.01988;0.98012;0.99999;1.3419e-05;0.031576;0.96842;0.334;298.08;3;1;3.06e+05;0.925;0.225;0.045
0.88656;0.11344;1e+05;0.37425;97890;2110.4;997.08;1.1548;0.12841;53345;0.99998;2.1586e-05;0.019834;0.98017;0.99999;1.3428e-05;0.031505;0.9685;0.334;298.05;3;1;3.096e+05;0.925;0.225;0.045
0.88697;0.11303;1e+05;0.37222;97888;2112.1;997.12;1.1554;0.12346;53403;0.99998;2.164e-05;0.019663;0.98034;0.99999;1.3462e-05;0.031236;0.96876;0.334;297.9;3;1;3.132e+05;0.925;0.225;0.045
0.88736;0.11264;1e+05;0.37385;97886;2113.9;997.16;1.1562;0.1187;53462;0.99998;2.1704e-05;0.019465;0.98053;0.99999;1.3502e-05;0.030925;0.96908;0.334;297.74;3;1;3.168e+05;0.925;0.225;0.045
0.88774;0.11226;1e+05;0.36854;97885;2115.6;997.17;1.1565;0.11451;53509;0.99998;2.1723e-05;0.019409;0.98059;0.99999;1.3513e-05;0.030837;0.96916;0.334;297.69;3;1;3.204e+05;0.925;0.225;0.045
0.88811;0.11189;1e+05;0.36218;97883;2117.3;997.17;1.1565;0.11063;53549;0.99998;2.1724e-05;0.019404;0.9806;0.99999;1.3514e-05;0.03083;0.96917;0.334;297.68;3;1;3.24e+05;0.925;0.225;0.045
0.88848;0.11152;1e+05;0.36606;97881;2119;997.17;1.1563;0.10696;53586;0.99998;2.1714e-05;0.019435;0.98057;0.99999;1.3508e-05;0.030878;0.96912;0.334;297.71;3;1;3.276e+05;0.925;0.225;0.045
0.88884;0.11116;1e+05;0.36118;97880;2120.7;997.17;1.1564;0.10332;53626;0.99998;2.1721e-05;0.019415;0.98058;0.99999;1.3512e-05;0.030846;0.96915;0.334;297.69;3;1;3.312e+05;0.925;0.225;0.045
0.88919;0.11081;1e+05;0.36733;97878;2122.4;997.17;1.1564;0.099852;53664;0.99998;2.1719e-05;0.019419;0.98058;0.99999;1.3511e-05;0.030853;0.96915;0.334;297.7;3;1;3.348e+05;0.925;0.225;0.045
0.88954;0.11046;1e+05;0.35821;97876;2124;997.18;1.1565;0.096439;53703;0.99998;2.1731e-05;0.019385;0.98062;0.99999;1.3518e-05;0.030799;0.9692;0.334;297.67;3;1;3.384e+05;0.925;0.225;0.045
0.88988;0.11012;1e+05;0.36802;97875;2125.7;997.16;1.1562;0.09338;53731;0.99998;2.1701e-05;0.019476;0.98052;0.99999;1.3499e-05;0.030941;0.96906;0.334;297.74;3;1;3.42e+05;0.925;0.225;0.045
0.89022;0.10978;1e+05;0.37158;97873;2127.4;997.15;1.1561;0.090285;53765;0.99998;2.1694e-05;0.019495;0.9805;0.99999;1.3496e-05;0.030971;0.96903;0.334;297.76;3;1;3.456e+05;0.925;0.225;0.045
0.89056;0.10944;1e+05;0.36818;97871;2129.1;997.16;1.1561;0.087256;53800;0.99998;2.1696e-05;0.019489;0.98051;0.99999;1.3497e-05;0.030962;0.96904;0.334;297.76;3;1;3.492e+05;0.925;0.225;0.045
0.89089;0.10911;1e+05;0.36733;97870;2130.8;997.16;1.1561;0.084335;53833;0.99998;2.1698e-05;0.019483;0.98052;0.99999;1.3498e-05;0.030952;0.96905;0.334;297.75;3;1;3.528e+05;0.925;0.225;0.045
0.89121;0.10879;1e+05;0.37426;97868;2132.4;997.13;1.1557;0.081702;53857;0.99998;2.1663e-05;0.01959;0.98041;0.99999;1.3476e-05;0.031121;0.96888;0.334;297.84;3;1;3.564e+05;0.925;0.225;0.045
0.89152;0.10848;1e+05;0.37579;97866;2134.1;997.14;1.1558;0.079043;53889;0.99998;2.1667e-05;0.019577;0.98042;0.99999;1.3479e-05;0.031101;0.9689;0.334;297.83;3;1;3.6e+05;0.925;0.225;0.045
0.89183;0.10817;1e+05;0.36545;97865;2135.7;997.15;1.156;0.076432;53923;0.99998;2.1683e-05;0.019529;0.98047;0.99999;1.3489e-05;0.031026;0.96897;0.334;297.79;3;1;3.636e+05;0.925;0.225;0.045
0.89213;0.10787;1e+05;0.37335;97863;2137.3;997.13;1.1556;0.074131;53945;0.99998;2.1654e-05;0.01962;0.98038;0.99999;1.347e-05;0.031168;0.96883;0.334;297.87;3;1;3.672e+05;0.925;0.225;0.045
0.89242;0.10758;1e+05;0.37584;97862;2138.9;997.08;1.1548;0.072075;53958;0.99998;2.159e-05;0.019821;0.98018;0.99999;1.3431e-05;0.031484;0.96852;0.334;298.04;3;1;3.708e+05;0.925;0.225;0.045
0.8927;0.1073;1e+05;0.37811;97860;2140.5;997.06;1.1544;0.06994;53978;0.99998;2.1559e-05;0.019919;0.98008;0.99999;1.3411e-05;0.031638;0.96836;0.334;298.12;3;1;3.744e+05;0.925;0.225;0.045
0.89299;0.10701;1e+05;0.37846;97858;2142.1;997.08;1.1548;0.067631;54011;0.99998;2.1586e-05;0.019835;0.98017;0.99999;1.3428e-05;0.031506;0.96849;0.334;298.05;3;1;3.78e+05;0.925;0.225;0.045
0.89327;0.10673;1e+05;0.37681;97857;2143.6;997.09;1.1549;0.065479;54040;0.99998;2.1598e-05;0.019798;0.9802;0.99999;1.3435e-05;0.031447;0.96855;0.334;298.02;3;1;3.816e+05;0.925;0.225;0.045
0.89354;0.10646;1e+05;0.37632;97855;2145.2;997.09;1.155;0.063431;54067;0.99998;2.1606e-05;0.019772;0.98023;0.99999;1.344e-05;0.031407;0.96859;0.334;297.99;3;1;3.852e+05;0.925;0.225;0.045
0.8938;0.1062;1e+05;0.37769;97854;2146.7;997.09;1.155;0.061501;54092;0.99998;2.1607e-05;0.019768;0.98023;0.99999;1.3441e-05;0.031401;0.9686;0.334;297.99;3;1;3.888e+05;0.925;0.225;0.045
0.89406;0.10594;1e+05;0.37361;97852;2148.2;997.1;1.1551;0.059636;54117;0.99998;2.1614e-05;0.019746;0.98025;0.99999;1.3446e-05;0.031366;0.96863;0.334;297.97;3;1;3.924e+05;0.925;0.225;0.045
0.89431;0.10569;1e+05;0.37614;97851;2149.7;997.09;1.155;0.057924;54137;0.99998;2.1603e-05;0.019781;0.98022;0.99999;1.3439e-05;0.03142;0.96858;0.334;298;3;1;3.96e+05;0.925;0.225;0.045
0.89455;0.10544;1e+05;0.37631;97849;2151.2;997.11;1.1553;0.056147;54166;0.99998;2.1632e-05;0.019687;0.98031;0.99999;1.3457e-05;0.031274;0.96873;0.334;297.92;3;1;3.996e+05;0.925;0.225;0.045
0.89479;0.10521;1e+05;0.3759;97848;2152.6;997.16;1.1562;0.0543;54205;0.99998;2.1705e-05;0.019461;0.98054;0.99999;1.3502e-05;0.030919;0.96908;0.334;297.73;3;1;4.032e+05;0.925;0.225;0.045
0.89503;0.10497;1e+05;0.37567;97846;2154.1;997.15;1.1561;0.052772;54223;0.99998;2.1695e-05;0.019494;0.98051;0.99999;1.3496e-05;0.030971;0.96903;0.334;297.76;3;1;4.068e+05;0.925;0.225;0.045
0.89526;0.10474;1e+05;0.37331;97845;2155.5;997.16;1.1562;0.051249;54245;0.99998;2.17e-05;0.019477;0.98052;0.99999;1.3499e-05;0.030944;0.96906;0.334;297.75;3;1;4.104e+05;0.925;0.225;0.045
0.89548;0.10452;1e+05;0.37061;97844;2156.9;997.16;1.1562;0.049837;54265;0.99998;2.1705e-05;0.019462;0.98054;0.99999;1.3502e-05;0.030921;0.96908;0.334;297.73;3;1;4.14e+05;0.925;0.225;0.045
0.89569;0.10431;1e+05;0.37127;97842;2158.2;997.16;1.1563;0.04851;54284;0.99998;2.1711e-05;0.019445;0.98055;0.99999;1.3506e-05;0.030894;0.96911;0.334;297.72;3;1;4.176e+05;0.925;0.225;0.045
0.8959;0.1041;1e+05;0.369;97841;2159.6;997.16;1.1563;0.047231;54302;0.99998;2.1708e-05;0.019455;0.98054;0.99999;1.3504e-05;0.030909;0.96909;0.334;297.73;3;1;4.212e+05;0.925;0.225;0.045
0.8961;0.1039;1e+05;0.3718;97840;2160.9;997.16;1.1562;0.046024;54318;0.99998;2.1705e-05;0.019463;0.98054;0.99999;1.3502e-05;0.030921;0.96908;0.334;297.73;3;1;4.248e+05;0.925;0.225;0.045
0.8963;0.1037;1e+05;0.37431;97838;2162.2;997.15;1.156;0.044913;54330;0.99998;2.1686e-05;0.019519;0.98048;0.99999;1.3491e-05;0.03101;0.96899;0.334;297.78;3;1;4.284e+05;0.925;0.225;0.045
0.89648;0.10352;1e+05;0.36941;97837;2163.4;997.15;1.156;0.043853;54344;0.99998;2.1683e-05;0.019529;0.98047;0.99999;1.3489e-05;0.031026;0.96897;0.334;297.79;3;1;4.32e+05;0.925;0.225;0.045
0.89666;0.10334;1e+05;0.37565;97836;2164.6;997.14;1.1558;0.04283;54356;0.99998;2.1673e-05;0.019561;0.98044;0.99999;1.3482e-05;0.031076;0.96892;0.334;297.82;3;1;4.356e+05;0.925;0.225;0.045
0.89684;0.10317;1e+05;0.36646;97835;2165.8;997.15;1.156;0.041794;54374;0.99998;2.1685e-05;0.019525;0.98048;0.99999;1.3489e-05;0.031018;0.96898;0.334;297.79;3;1;4.392e+05;0.925;0.225;0.045
0.89701;0.10299;1e+05;0.36928;97833;2167;997.14;1.1559;0.040825;54386;0.99998;2.1674e-05;0.019558;0.98044;0.99999;1.3483e-05;0.03107;0.96893;0.334;297.82;3;1;4.428e+05;0.925;0.225;0.045
0.89718;0.10282;1e+05;0.36861;97832;2168.1;997.14;1.1558;0.039896;54398;0.99998;2.167e-05;0.019568;0.98043;0.99999;1.3481e-05;0.031087;0.96891;0.334;297.83;3;1;4.464e+05;0.925;0.225;0.045
0.89734;0.10266;1e+05;0.37116;97831;2169.3;997.13;1.1557;0.039028;54409;0.99998;2.166e-05;0.0196;0.9804;0.99999;1.3474e-05;0.031137;0.96886;0.334;297.85;3;1;4.5e+05;0.925;0.225;0.045
0.89751;0.10249;1e+05;0.37271;97830;2170.4;997.08;1.1548;0.038307;54405;0.99998;2.1588e-05;0.019829;0.98017;0.99999;1.3429e-05;0.031496;0.9685;0.334;298.04;3;1;4.536e+05;0.925;0.225;0.045
0.89767;0.10233;1e+05;0.3745;97829;2171.6;997.04;1.154;0.03757;54402;0.99998;2.1524e-05;0.020032;0.97997;0.99999;1.339e-05;0.031814;0.96819;0.334;298.21;3;1;4.572e+05;0.925;0.225;0.045
0.89784;0.10216;1e+05;0.37702;97828;2172.8;997.03;1.1539;0.036727;54413;0.99998;2.1515e-05;0.020061;0.97994;0.99999;1.3384e-05;0.03186;0.96814;0.334;298.23;3;1;4.608e+05;0.925;0.225;0.045
0.898;0.102;1e+05;0.37914;97826;2173.9;997.01;1.1534;0.035964;54417;0.99998;2.1479e-05;0.020174;0.97983;0.99999;1.3362e-05;0.032038;0.96796;0.334;298.33;3;1;4.644e+05;0.925;0.225;0.045
0.89816;0.10184;1e+05;0.37775;97825;2175.1;997.01;1.1534;0.035135;54429;0.99998;2.1477e-05;0.020181;0.97982;0.99999;1.336e-05;0.032049;0.96795;0.334;298.34;3;1;4.68e+05;0.925;0.225;0.045
0.89832;0.10168;1e+05;0.37883;97824;2176.3;997.01;1.1534;0.034311;54441;0.99998;2.1478e-05;0.02018;0.97982;0.99999;1.3361e-05;0.032047;0.96795;0.334;298.33;3;1;4.716e+05;0.925;0.225;0.045
0.89848;0.10152;1e+05;0.37212;97823;2177.5;997.01;1.1535;0.0335;54454;0.99998;2.1482e-05;0.020165;0.97983;0.99999;1.3364e-05;0.032024;0.96798;0.334;298.32;3;1;4.752e+05;0.925;0.225;0.045
0.89864;0.10136;1e+05;0.37894;97822;2178.6;997.01;1.1535;0.032709;54468;0.99998;2.1488e-05;0.020146;0.97985;0.99999;1.3367e-05;0.031994;0.96801;0.334;298.31;3;1;4.788e+05;0.925;0.225;0.045
0.8988;0.1012;1e+05;0.36612;97820;2179.9;997.06;1.1543;0.031817;54495;0.99998;2.155e-05;0.019949;0.98005;0.99999;1.3406e-05;0.031684;0.96832;0.334;298.14;3;1;4.824e+05;0.925;0.225;0.045
0.89896;0.10104;1e+05;0.36603;97819;2181;997.1;1.1551;0.03096;54521;0.99998;2.1609e-05;0.01976;0.98024;0.99999;1.3443e-05;0.031389;0.96861;0.334;297.98;3;1;4.86e+05;0.925;0.225;0.045
0.89911;0.1009;1e+05;0.36337;97818;2182.2;997.11;1.1552;0.030243;54536;0.99998;2.1623e-05;0.019716;0.98028;0.99999;1.3451e-05;0.031319;0.96868;0.334;297.95;3;1;4.896e+05;0.925;0.225;0.045
0.89926;0.10074;1e+05;0.36454;97817;2183.4;997.11;1.1553;0.029511;54548;0.99998;2.1629e-05;0.019698;0.9803;0.99999;1.3455e-05;0.031291;0.96871;0.334;297.93;3;1;4.932e+05;0.925;0.225;0.045
0.89942;0.10058;1e+05;0.36518;97816;2184.6;997.12;1.1556;0.02876;54565;0.99998;2.165e-05;0.019633;0.98037;0.99999;1.3468e-05;0.031188;0.96881;0.334;297.88;3;1;4.968e+05;0.925;0.225;0.045
0.89958;0.10042;1e+05;0.36718;97814;2185.9;997.14;1.1558;0.028007;54582;0.99998;2.1672e-05;0.019563;0.98044;0.99999;1.3482e-05;0.031079;0.96892;0.334;297.82;3;1;5.004e+05;0.925;0.225;0.045
0.89973;0.10026;1e+05;0.37003;97813;2187.1;997.15;1.1561;0.027288;54598;0.99998;2.1693e-05;0.019498;0.9805;0.99999;1.3495e-05;0.030977;0.96902;0.334;297.77;3;1;5.04e+05;0.925;0.225;0.045
0.8999;0.1001;1e+05;0.37528;97812;2188.5;997.15;1.156;0.026582;54608;0.99998;2.1687e-05;0.019518;0.98048;0.99999;1.3491e-05;0.031008;0.96899;0.334;297.78;3;1;5.076e+05;0.925;0.225;0.045
0.90006;0.099941;1e+05;0.36761;97811;2189.8;997.14;1.1559;0.02592;54618;0.99998;2.1681e-05;0.019537;0.98046;0.99999;1.3487e-05;0.031038;0.96896;0.334;297.8;3;1;5.112e+05;0.925;0.225;0.045
0.90022;0.099785;1e+05;0.36958;97809;2191.1;997.13;1.1557;0.025299;54624;0.99998;2.1662e-05;0.019595;0.9804;0.99999;1.3475e-05;0.031129;0.96887;0.334;297.85;3;1;5.148e+05;0.925;0.225;0.045
0.90037;0.099633;1e+05;0.36799;97808;2192.3;997.14;1.1559;0.024651;54638;0.99998;2.1675e-05;0.019555;0.98045;0.99999;1.3483e-05;0.031066;0.96893;0.334;297.81;3;1;5.184e+05;0.925;0.225;0.045
0.90051;0.099487;1e+05;0.36994;97807;2193.6;997.14;1.1559;0.02406;54648;0.99998;2.1674e-05;0.019559;0.98044;0.99999;1.3483e-05;0.031072;0.96893;0.334;297.82;3;1;5.22e+05;0.925;0.225;0.045
0.90066;0.099335;1e+05;0.3777;97806;2194.9;997.13;1.1557;0.023469;54656;0.99998;2.1663e-05;0.019592;0.98041;0.99999;1.3476e-05;0.031125;0.96887;0.334;297.85;3;1;5.256e+05;0.925;0.225;0.045
0.90082;0.099184;1e+05;0.38078;97804;2196.1;997.12;1.1555;0.022898;54662;0.99998;2.1646e-05;0.019645;0.98036;0.99999;1.3465e-05;0.031208;0.96879;0.334;297.89;3;1;5.292e+05;0.925;0.225;0.045
0.90096;0.099035;1e+05;0.38106;97803;2197.4;997.13;1.1557;0.022305;54675;0.99998;2.1659e-05;0.019603;0.9804;0.99999;1.3474e-05;0.031142;0.96886;0.334;297.85;3;1;5.328e+05;0.925;0.225;0.045
0.9011;0.098897;1e+05;0.37877;97802;2198.6;997.13;1.1556;0.021784;54683;0.99998;2.1652e-05;0.019625;0.98037;0.99999;1.3469e-05;0.031176;0.96882;0.334;297.87;3;1;5.364e+05;0.925;0.225;0.045
0.90125;0.098751;1e+05;0.37543;97800;2199.9;997.1;1.1552;0.021281;54684;0.99998;2.1618e-05;0.019732;0.98027;0.99999;1.3448e-05;0.031345;0.96865;0.334;297.96;3;1;5.4e+05;0.925;0.225;0.045
0.90139;0.098606;1e+05;0.38769;97799;2201.2;997.09;1.1549;0.020774;54688;0.99998;2.1594e-05;0.019809;0.98019;0.99999;1.3433e-05;0.031464;0.96854;0.334;298.02;3;1;5.436e+05;0.925;0.225;0.045
0.90154;0.098462;1e+05;0.37952;97798;2202.5;997.07;1.1546;0.020269;54692;0.99998;2.1576e-05;0.019867;0.98013;0.99999;1.3422e-05;0.031556;0.96844;0.334;298.07;3;1;5.472e+05;0.925;0.225;0.045
0.90168;0.098321;1e+05;0.38623;97797;2203.8;997.06;1.1543;0.019791;54696;0.99998;2.1551e-05;0.019944;0.98006;0.99999;1.3407e-05;0.031677;0.96832;0.334;298.14;3;1;5.508e+05;0.925;0.225;0.045
0.90181;0.098186;1e+05;0.38144;97795;2205.1;997.07;1.1545;0.019296;54708;0.99998;2.1565e-05;0.019899;0.9801;0.99999;1.3415e-05;0.031606;0.96839;0.334;298.1;3;1;5.544e+05;0.925;0.225;0.045
0.90195;0.098051;1e+05;0.38219;97794;2206.3;997.07;1.1546;0.018819;54717;0.99998;2.157e-05;0.019884;0.98012;0.99999;1.3418e-05;0.031583;0.96842;0.334;298.09;3;1;5.58e+05;0.925;0.225;0.045
0.90208;0.097921;1e+05;0.37437;97793;2207.6;997.08;1.1548;0.018351;54730;0.99998;2.1587e-05;0.019832;0.98017;0.99999;1.3429e-05;0.031501;0.9685;0.334;298.05;3;1;5.616e+05;0.925;0.225;0.045
0.90221;0.097791;1e+05;0.37498;97792;2208.8;997.1;1.1551;0.017887;54744;0.99998;2.1611e-05;0.019755;0.98024;0.99999;1.3444e-05;0.031381;0.96862;0.334;297.98;3;1;5.652e+05;0.925;0.225;0.045
0.90234;0.097663;1e+05;0.36934;97790;2210;997.11;1.1552;0.017444;54755;0.99998;2.1625e-05;0.01971;0.98029;0.99999;1.3453e-05;0.03131;0.96869;0.334;297.94;3;1;5.688e+05;0.925;0.225;0.045
0.90246;0.097537;1e+05;0.3688;97789;2211.2;997.13;1.1556;0.017001;54770;0.99998;2.1655e-05;0.019617;0.98038;0.99999;1.3471e-05;0.031164;0.96884;0.334;297.87;3;1;5.724e+05;0.925;0.225;0.045
0.90259;0.097409;1e+05;0.36764;97788;2212.5;997.13;1.1557;0.016586;54778;0.99998;2.1658e-05;0.019607;0.98039;0.99999;1.3473e-05;0.031148;0.96885;0.334;297.86;3;1;5.76e+05;0.925;0.225;0.045
0.90272;0.09728;1e+05;0.36801;97787;2213.7;997.14;1.1559;0.016161;54790;0.99998;2.1674e-05;0.019558;0.98044;0.99999;1.3483e-05;0.031071;0.96893;0.334;297.82;3;1;5.796e+05;0.925;0.225;0.045
0.90285;0.097154;1e+05;0.36731;97785;2215;997.14;1.1558;0.015768;54797;0.99998;2.1672e-05;0.019563;0.98044;0.99999;1.3482e-05;0.031078;0.96892;0.334;297.82;3;1;5.832e+05;0.925;0.225;0.045
0.90297;0.09703;1e+05;0.36692;97784;2216.2;997.16;1.1562;0.01536;54812;0.99998;2.1701e-05;0.019475;0.98053;0.99999;1.35e-05;0.03094;0.96906;0.334;297.74;3;1;5.868e+05;0.925;0.225;0.045
0.90309;0.096909;1e+05;0.37054;97783;2217.5;997.15;1.156;0.01501;54814;0.99998;2.1683e-05;0.019529;0.98047;0.99999;1.3489e-05;0.031026;0.96897;0.334;297.79;3;1;5.904e+05;0.925;0.225;0.045
0.90321;0.09679;1e+05;0.37433;97782;2218.7;997.14;1.1559;0.014657;54821;0.99998;2.168e-05;0.019538;0.98046;0.99999;1.3487e-05;0.03104;0.96896;0.334;297.8;3;1;5.94e+05;0.925;0.225;0.045
0.90333;0.096673;1e+05;0.37106;97780;2219.9;997.14;1.1558;0.01432;54826;0.99998;2.1672e-05;0.019563;0.98044;0.99999;1.3482e-05;0.031079;0.96892;0.334;297.82;3;1;5.976e+05;0.925;0.225;0.045
0.90344;0.096558;1e+05;0.37007;97779;2221.1;997.14;1.1558;0.013989;54832;0.99998;2.1671e-05;0.019567;0.98043;0.99999;1.3481e-05;0.031084;0.96892;0.334;297.82;3;1;6.012e+05;0.925;0.225;0.045
0.90355;0.096446;1e+05;0.37405;97778;2222.3;997.12;1.1555;0.013685;54833;0.99998;2.1649e-05;0.019636;0.98036;0.99999;1.3467e-05;0.031194;0.96881;0.334;297.88;3;1;6.048e+05;0.925;0.225;0.045
0.90366;0.096337;1e+05;0.37772;97777;2223.4;997.12;1.1555;0.013381;54838;0.99998;2.1645e-05;0.019649;0.98035;0.99999;1.3465e-05;0.031214;0.96879;0.334;297.89;3;1;6.084e+05;0.925;0.225;0.045
0.90377;0.096229;1e+05;0.37304;97776;2224.6;997.12;1.1554;0.013083;54843;0.99998;2.164e-05;0.019663;0.98034;0.99999;1.3462e-05;0.031235;0.96877;0.334;297.9;3;1;6.12e+05;0.925;0.225;0.045
0.90388;0.096123;1e+05;0.38214;97775;2225.8;997.11;1.1554;0.012795;54848;0.99998;2.1637e-05;0.019673;0.98033;0.99999;1.346e-05;0.031251;0.96875;0.334;297.91;3;1;6.156e+05;0.925;0.225;0.045
0.90398;0.096021;1e+05;0.37678;97774;2226.9;997.1;1.1552;0.012532;54850;0.99998;2.1621e-05;0.019723;0.98028;0.99999;1.345e-05;0.031331;0.96867;0.334;297.95;3;1;6.192e+05;0.925;0.225;0.045
0.90408;0.095922;1e+05;0.38256;97772;2228;997.1;1.155;0.012275;54852;0.99998;2.1609e-05;0.019763;0.98024;0.99999;1.3442e-05;0.031393;0.96861;0.334;297.99;3;1;6.228e+05;0.925;0.225;0.045
0.90418;0.095824;1e+05;0.3782;97771;2229.1;997.09;1.155;0.012021;54856;0.99998;2.1604e-05;0.019779;0.98022;0.99999;1.3439e-05;0.031417;0.96858;0.334;298;3;1;6.264e+05;0.925;0.225;0.045
0.90427;0.095728;1e+05;0.38255;97770;2230.1;997.09;1.1549;0.011776;54860;0.99998;2.1596e-05;0.019802;0.9802;0.99999;1.3434e-05;0.031454;0.96855;0.334;298.02;3;1;6.3e+05;0.925;0.225;0.045
0.90437;0.095634;1e+05;0.38032;97769;2231.2;997.08;1.1548;0.011537;54863;0.99998;2.1591e-05;0.01982;0.98018;0.99999;1.3431e-05;0.031482;0.96852;0.334;298.04;3;1;6.336e+05;0.925;0.225;0.045
0.9045;0.095503;1e+05;0.3844;97768;2232.7;997.08;1.1547;0.01121;54869;0.99998;2.1584e-05;0.019842;0.98016;0.99999;1.3427e-05;0.031517;0.96848;0.334;298.05;3;1;6.372e+05;0.925;0.225;0.045
0.9046;0.095401;1e+05;0.37657;97766;2233.9;997.08;1.1548;0.010952;54875;0.99998;2.1586e-05;0.019834;0.98017;0.99999;1.3428e-05;0.031504;0.9685;0.334;298.05;3;1;6.408e+05;0.925;0.225;0.045
0.90469;0.095309;1e+05;0.38293;97765;2234.9;997.07;1.1546;0.010738;54875;0.99998;2.1569e-05;0.019887;0.98011;0.99999;1.3418e-05;0.031587;0.96841;0.334;298.09;3;1;6.444e+05;0.925;0.225;0.045
0.90478;0.095221;1e+05;0.3721;97764;2236;997.07;1.1545;0.010525;54879;0.99998;2.1564e-05;0.019903;0.9801;0.99999;1.3415e-05;0.031613;0.96839;0.334;298.1;3;1;6.48e+05;0.925;0.225;0.045
0.90487;0.095135;1e+05;0.37808;97763;2237;997.07;1.1545;0.010318;54884;0.99998;2.1567e-05;0.019895;0.9801;0.99999;1.3416e-05;0.031601;0.9684;0.334;298.1;3;1;6.516e+05;0.925;0.225;0.045
0.90495;0.09505;1e+05;0.37638;97762;2238;997.05;1.1542;0.010132;54881;0.99998;2.1539e-05;0.019985;0.98001;0.99999;1.3399e-05;0.031741;0.96826;0.334;298.17;3;1;6.552e+05;0.925;0.225;0.045
0.90503;0.094967;1e+05;0.37269;97761;2239;997.06;1.1544;0.0099283;54889;0.99998;2.1553e-05;0.01994;0.98006;0.99999;1.3407e-05;0.03167;0.96833;0.334;298.13;3;1;6.588e+05;0.925;0.225;0.045
0.90512;0.094885;1e+05;0.37177;97760;2240;997.08;1.1548;0.0097176;54902;0.99998;2.159e-05;0.019821;0.98018;0.99999;1.3431e-05;0.031484;0.96852;0.334;298.04;3;1;6.624e+05;0.925;0.225;0.045
0.90519;0.094805;1e+05;0.37395;97759;2241;997.09;1.155;0.0095252;54910;0.99998;2.1605e-05;0.019773;0.98023;0.99999;1.344e-05;0.031409;0.96859;0.334;298;3;1;6.66e+05;0.925;0.225;0.045
0.90527;0.094727;1e+05;0.36911;97758;2241.9;997.09;1.155;0.0093469;54914;0.99998;2.1607e-05;0.019767;0.98023;0.99999;1.3441e-05;0.031399;0.9686;0.334;297.99;3;1;6.696e+05;0.925;0.225;0.045
0.90535;0.09465;1e+05;0.36108;97758;2242.9;997.11;1.1553;0.0091645;54923;0.99998;2.1628e-05;0.019703;0.9803;0.99999;1.3454e-05;0.031298;0.9687;0.334;297.94;3;1;6.732e+05;0.925;0.225;0.045
0.90542;0.094582;1e+05;0.36255;97757;2243.8;997.11;1.1553;0.0090132;54928;0.99998;2.1631e-05;0.019691;0.98031;0.99999;1.3456e-05;0.03128;0.96872;0.334;297.93;3;1;6.768e+05;0.925;0.225;0.045
0.90549;0.094513;1e+05;0.36483;97756;2244.6;997.12;1.1554;0.0088561;54933;0.99998;2.164e-05;0.019665;0.98033;0.99999;1.3462e-05;0.031239;0.96876;0.334;297.9;3;1;6.804e+05;0.925;0.225;0.045
0.90556;0.094443;1e+05;0.36703;97755;2245.5;997.11;1.1553;0.008708;54935;0.99998;2.1633e-05;0.019685;0.98032;0.99999;1.3458e-05;0.03127;0.96873;0.334;297.92;3;1;6.84e+05;0.925;0.225;0.045
0.90564;0.094361;1e+05;0.36265;97754;2246.6;997.11;1.1553;0.0085376;54937;0.99998;2.1627e-05;0.019705;0.9803;0.99999;1.3454e-05;0.031302;0.9687;0.334;297.94;3;1;6.876e+05;0.925;0.225;0.045
0.90571;0.094285;1e+05;0.362;97753;2247.5;997.11;1.1552;0.0083771;54940;0.99998;2.1625e-05;0.019711;0.98029;0.99999;1.3452e-05;0.031312;0.96869;0.334;297.94;3;1;6.912e+05;0.925;0.225;0.045
