"Sn";"Sw";"pn";"pn_rel";"pw";"pc";"rhoW";"rhoN";"mobW";"mobN";"X_liquid^H2O";"X_liquid^Air";"X_gas^H2O";"X_gas^Air";"x_liquid^H2O";"x_liquid^Air";"x_gas^H2O";"x_gas^Air";"porosity";"temperature";"phase presence";"vtkValidPointMask";"Time";"Point Coordinates:0";"Point Coordinates:1";"Point Coordinates:2"
0.02;0.98;1e+05;0;98656;1343.7;996.33;1.1415;1185.8;2.755;0.99998;2.0577e-05;0.023452;0.97655;0.99999;1.28e-05;0.037171;0.96283;0.334;300.85;3;1;0;0.925;0.175;0
0.019992;0.98001;1.0002e+05;20.603;98677;1343.7;996.33;1.1418;1185.8;2.75;0.99998;2.0581e-05;0.023448;0.97655;0.99999;1.2803e-05;0.037163;0.96284;0.334;300.85;3;1;0.005;0.925;0.175;0
0.014194;0.98581;1e+05;0.11164;99058;941.86;996.74;1.1487;1152.7;0.40096;0.99998;2.111e-05;0.021427;0.97857;0.99999;1.3132e-05;0.034003;0.966;0.334;299.33;3;1;3600;0.925;0.175;0
0.014427;0.98557;99999;-1.1985;99021;977.41;997.11;1.1553;1116.3;0.45324;0.99998;2.1632e-05;0.019688;0.98031;0.99999;1.3457e-05;0.031276;0.96872;0.334;297.92;3;1;7200;0.925;0.175;0
0.014629;0.98537;99999;-0.60263;98992;1006.9;997.36;1.16;1091.1;0.50144;0.99998;2.2015e-05;0.018544;0.98146;0.99999;1.3695e-05;0.029477;0.97052;0.334;296.94;3;1;10800;0.925;0.175;0
0.0148;0.9852;1e+05;-0.2365;98969;1030.6;997.52;1.1631;1074.4;0.54392;0.99998;2.2278e-05;0.017813;0.98219;0.99999;1.3859e-05;0.028328;0.97167;0.334;296.28;3;1;14400;0.925;0.175;0
0.014952;0.98505;1e+05;-0.05155;98949;1051.1;997.64;1.1654;1061.5;0.58359;0.99998;2.2486e-05;0.017266;0.98273;0.99999;1.3988e-05;0.027467;0.97253;0.334;295.77;3;1;18000;0.925;0.175;0
0.015098;0.9849;1e+05;0.17775;98930;1070.1;997.73;1.1672;1051.8;0.62287;0.99998;2.2645e-05;0.016865;0.98313;0.99999;1.4087e-05;0.026836;0.97316;0.334;295.39;3;1;21600;0.925;0.175;0
0.01524;0.98476;1e+05;0.35369;98912;1087.9;997.79;1.1686;1044.7;0.66242;0.99998;2.2764e-05;0.016574;0.98343;0.99999;1.4161e-05;0.026378;0.97362;0.334;295.1;3;1;25200;0.925;0.175;0
0.015383;0.98462;1e+05;0.46044;98895;1105.2;997.85;1.1698;1038;0.70363;0.99998;2.2877e-05;0.016303;0.9837;0.99999;1.4231e-05;0.025951;0.97405;0.334;294.84;3;1;28800;0.925;0.175;0
0.015524;0.98448;1e+05;0.57743;98879;1121.5;997.9;1.1708;1032.4;0.74535;0.99998;2.2971e-05;0.016085;0.98391;0.99999;1.429e-05;0.025608;0.97439;0.334;294.62;3;1;32400;0.925;0.175;0
0.015664;0.98434;1e+05;0.6555;98863;1137.3;997.94;1.1716;1028;0.78836;0.99998;2.3046e-05;0.015913;0.98409;0.99999;1.4337e-05;0.025336;0.97466;0.334;294.44;3;1;36000;0.925;0.175;0
0.015804;0.9842;1e+05;0.70856;98848;1152.4;997.97;1.1722;1024.9;0.83253;0.99998;2.31e-05;0.01579;0.98421;0.99999;1.437e-05;0.025141;0.97486;0.334;294.32;3;1;39600;0.925;0.175;0
0.015943;0.98406;1e+05;0.74872;98834;1166.7;997.98;1.1726;1022.7;0.87753;0.99998;2.3136e-05;0.01571;0.98429;0.99999;1.4393e-05;0.025015;0.97499;0.334;294.24;3;1;43200;0.925;0.175;0
0.016082;0.98392;1e+05;0.78137;98820;1180.5;997.99;1.1728;1021.7;0.9239;0.99998;2.3153e-05;0.015673;0.98433;0.99999;1.4403e-05;0.024957;0.97504;0.334;294.2;3;1;46800;0.925;0.175;0
0.016215;0.98378;1e+05;0.80928;98808;1193.2;997.98;1.1726;1022.7;0.96929;0.99998;2.3133e-05;0.015718;0.98428;0.99999;1.439e-05;0.025028;0.97497;0.334;294.24;3;1;50400;0.925;0.175;0
0.016355;0.98365;1e+05;0.80667;98795;1205.8;997.98;1.1726;1022.2;1.0182;0.99998;2.314e-05;0.015703;0.9843;0.99999;1.4395e-05;0.025004;0.975;0.334;294.23;3;1;54000;0.925;0.175;0
0.016498;0.9835;1e+05;0.8185;98783;1218.2;998;1.173;1020.3;1.07;0.99998;2.317e-05;0.015635;0.98436;0.99999;1.4414e-05;0.024897;0.9751;0.334;294.16;3;1;57600;0.925;0.175;0
0.016646;0.98335;1e+05;0.83294;98770;1230.4;998.02;1.1734;1017.7;1.1253;0.99998;2.3215e-05;0.015538;0.98446;0.99999;1.4441e-05;0.024744;0.97526;0.334;294.06;3;1;61200;0.925;0.175;0
0.016801;0.9832;1e+05;0.84818;98758;1242.4;998.04;1.1738;1016;1.1843;0.99998;2.3243e-05;0.015475;0.98453;0.99999;1.4459e-05;0.024645;0.97536;0.334;293.99;3;1;64800;0.925;0.175;0
0.016957;0.98304;1e+05;0.86041;98747;1253.7;998.03;1.1737;1016.1;1.2454;0.99998;2.3239e-05;0.015484;0.98452;0.99999;1.4457e-05;0.024659;0.97534;0.334;294;3;1;68400;0.925;0.175;0
0.017118;0.98288;1e+05;0.86685;98736;1264.7;998.03;1.1736;1016.4;1.3105;0.99998;2.3231e-05;0.015503;0.9845;0.99999;1.4451e-05;0.024689;0.97531;0.334;294.02;3;1;72000;0.925;0.175;0
0.017286;0.98271;1e+05;0.87148;98726;1275.3;998.02;1.1734;1017.2;1.3799;0.99998;2.3213e-05;0.015542;0.98446;0.99999;1.444e-05;0.024751;0.97525;0.334;294.06;3;1;75600;0.925;0.175;0
0.017465;0.98254;1e+05;0.87539;98715;1285.7;998.01;1.1732;1018;1.4564;0.99998;2.3196e-05;0.01558;0.98442;0.99999;1.4429e-05;0.02481;0.97519;0.334;294.1;3;1;79200;0.925;0.175;0
0.017666;0.98233;1e+05;0.87713;98705;1296.2;998.01;1.1732;1018.3;1.5447;0.99998;2.3188e-05;0.015597;0.9844;0.99999;1.4425e-05;0.024837;0.97516;0.334;294.12;3;1;82800;0.925;0.175;0
0.017896;0.9821;1e+05;0.8791;98694;1306.7;998;1.173;1018.8;1.6493;0.99998;2.3174e-05;0.015627;0.98437;0.99999;1.4416e-05;0.024885;0.97512;0.334;294.15;3;1;86400;0.925;0.175;0
0.018168;0.98183;1e+05;0.87949;98684;1317.1;997.99;1.1728;1019.8;1.778;0.99998;2.3151e-05;0.015678;0.98432;0.99999;1.4402e-05;0.024966;0.97503;0.334;294.2;3;1;90000;0.925;0.175;0
0.018519;0.98148;1e+05;0.88063;98674;1327.4;997.98;1.1726;1020.5;1.9521;0.99998;2.3132e-05;0.01572;0.98428;0.99999;1.439e-05;0.025032;0.97497;0.334;294.25;3;1;93600;0.925;0.175;0
0.0192;0.9808;1e+05;0.879;98664;1337.4;997.97;1.1723;1021.1;2.3152;0.99998;2.3108e-05;0.015773;0.98423;0.99999;1.4375e-05;0.025115;0.97488;0.334;294.3;3;1;97200;0.925;0.175;0
0.020445;0.97956;1e+05;0.8772;98654;1347;997.96;1.172;1021.1;3.0686;0.99998;2.308e-05;0.015837;0.98416;0.99999;1.4357e-05;0.025216;0.97478;0.334;294.37;3;1;1.008e+05;0.925;0.175;0
0.021896;0.9781;1e+05;0.88087;98644;1357.1;997.95;1.1719;1019.6;4.0958;0.99998;2.3069e-05;0.015863;0.98414;0.99999;1.435e-05;0.025256;0.97474;0.334;294.39;3;1;1.044e+05;0.925;0.175;0
0.023581;0.97642;1e+05;0.88153;98634;1367.3;997.95;1.1719;1017;5.4966;0.99998;2.3067e-05;0.015867;0.98413;0.99999;1.4349e-05;0.025263;0.97474;0.334;294.4;3;1;1.08e+05;0.925;0.175;0
0.025493;0.97451;1e+05;0.88235;98623;1377.7;997.95;1.1718;1013.9;7.3625;0.99998;2.3061e-05;0.015879;0.98412;0.99999;1.4346e-05;0.025282;0.97472;0.334;294.41;3;1;1.116e+05;0.925;0.175;0
0.027666;0.97233;1e+05;0.88232;98613;1388.1;997.94;1.1718;1009.7;9.8536;0.99998;2.3058e-05;0.015887;0.98411;0.99999;1.4344e-05;0.025295;0.9747;0.334;294.42;3;1;1.152e+05;0.925;0.175;0
0.0301;0.9699;1e+05;0.88485;98602;1398.4;997.94;1.1716;1005.2;13.122;0.99998;2.3042e-05;0.015923;0.98408;0.99999;1.4334e-05;0.025351;0.97465;0.334;294.45;3;1;1.188e+05;0.925;0.175;0
0.032839;0.96716;1e+05;0.88274;98592;1408.7;997.92;1.1714;999.67;17.422;0.99998;2.3019e-05;0.015976;0.98402;0.99999;1.432e-05;0.025435;0.97457;0.334;294.51;3;1;1.224e+05;0.925;0.175;0
0.035851;0.96415;1e+05;0.88471;98582;1418.8;997.92;1.1712;992.18;22.934;0.99998;2.3006e-05;0.016005;0.984;0.99999;1.4312e-05;0.025481;0.97452;0.334;294.54;3;1;1.26e+05;0.925;0.175;0
0.03902;0.96098;1e+05;0.88457;98572;1428.4;997.91;1.171;984.04;29.64;0.99998;2.2983e-05;0.016058;0.98394;0.99999;1.4297e-05;0.025564;0.97444;0.334;294.59;3;1;1.296e+05;0.925;0.175;0
0.042165;0.95784;1e+05;0.88611;98564;1436.9;997.86;1.1701;978.48;37.229;0.99998;2.2902e-05;0.016246;0.98375;0.99999;1.4247e-05;0.025861;0.97414;0.334;294.78;3;1;1.332e+05;0.925;0.175;0
0.045173;0.95483;1e+05;0.88739;98556;1444.5;997.81;1.1689;974.07;45.376;0.99998;2.2795e-05;0.016501;0.9835;0.99999;1.418e-05;0.026262;0.97374;0.334;295.03;3;1;1.368e+05;0.925;0.175;0
0.048142;0.95186;1e+05;0.88625;98550;1451.3;997.76;1.168;968.11;54.293;0.99998;2.2709e-05;0.016707;0.98329;0.99999;1.4127e-05;0.026587;0.97341;0.334;295.23;3;1;1.404e+05;0.925;0.175;0
0.051126;0.94887;1e+05;0.88622;98543;1457.8;997.73;1.1674;959.77;64.156;0.99998;2.2658e-05;0.016833;0.98317;0.99999;1.4095e-05;0.026787;0.97321;0.334;295.36;3;1;1.44e+05;0.925;0.175;0
0.054045;0.94595;1e+05;0.88523;98537;1463.7;997.69;1.1665;952.51;74.672;0.99998;2.2583e-05;0.017022;0.98298;0.99999;1.4048e-05;0.027083;0.97292;0.334;295.54;3;1;1.476e+05;0.925;0.175;0
0.056855;0.94314;1e+05;0.88498;98532;1469.1;997.65;1.1658;945.09;85.623;0.99998;2.2513e-05;0.017198;0.9828;0.99999;1.4005e-05;0.02736;0.97264;0.334;295.7;3;1;1.512e+05;0.925;0.175;0
0.059596;0.9404;1e+05;0.88419;98527;1474.1;997.62;1.165;937.43;97.101;0.99998;2.2448e-05;0.017363;0.98264;0.99999;1.3965e-05;0.02762;0.97238;0.334;295.86;3;1;1.548e+05;0.925;0.175;0
0.062344;0.93766;1e+05;0.88499;98522;1478.8;997.58;1.1644;929.17;109.41;0.99998;2.239e-05;0.017516;0.98248;0.99999;1.3928e-05;0.027862;0.97214;0.334;296;3;1;1.584e+05;0.925;0.175;0
0.065121;0.93488;1e+05;0.88515;98518;1483.4;997.56;1.1639;919.67;122.67;0.99998;2.2351e-05;0.017621;0.98238;0.99999;1.3904e-05;0.028026;0.97197;0.334;296.1;3;1;1.62e+05;0.925;0.175;0
0.067871;0.93213;1e+05;0.88625;98513;1487.7;997.53;1.1634;910.63;136.63;0.99998;2.2303e-05;0.017746;0.98225;0.99999;1.3874e-05;0.028224;0.97178;0.334;296.22;3;1;1.656e+05;0.925;0.175;0
0.070559;0.92944;1e+05;0.88586;98509;1491.8;997.5;1.1627;902.5;151.06;0.99998;2.2243e-05;0.017909;0.98209;0.99999;1.3837e-05;0.028479;0.97152;0.334;296.37;3;1;1.692e+05;0.925;0.175;0
0.073259;0.92674;1e+05;0.88735;98505;1495.7;997.47;1.1621;893.52;166.37;0.99998;2.2198e-05;0.018033;0.98197;0.99999;1.3808e-05;0.028674;0.97133;0.334;296.48;3;1;1.728e+05;0.925;0.175;0
0.076021;0.92398;1e+05;0.8867;98501;1499.6;997.45;1.1618;883.66;182.87;0.99998;2.2166e-05;0.018119;0.98188;0.99999;1.3789e-05;0.02881;0.97119;0.334;296.56;3;1;1.764e+05;0.925;0.175;0
0.078838;0.92116;1e+05;0.887;98498;1503.4;997.44;1.1616;872.84;200.6;0.99998;2.2152e-05;0.018158;0.98184;0.99999;1.3781e-05;0.02887;0.97113;0.334;296.59;3;1;1.8e+05;0.925;0.175;0
0.081654;0.91835;1e+05;0.88941;98494;1507.1;997.42;1.1612;863.36;219.21;0.99998;2.2117e-05;0.018257;0.98174;0.99999;1.3758e-05;0.029027;0.97097;0.334;296.68;3;1;1.836e+05;0.925;0.175;0
0.084445;0.91556;1e+05;0.88858;98490;1510.6;997.39;1.1606;855.04;238.53;0.99998;2.2065e-05;0.018399;0.9816;0.99999;1.3726e-05;0.029251;0.97075;0.334;296.81;3;1;1.872e+05;0.925;0.175;0
0.087204;0.9128;1e+05;0.88974;98487;1514;997.36;1.1601;846.65;258.51;0.99998;2.2024e-05;0.018519;0.98148;0.99999;1.37e-05;0.029438;0.97056;0.334;296.92;3;1;1.908e+05;0.925;0.175;0
0.090003;0.91;1e+05;0.89087;98484;1517.3;997.33;1.1595;838.79;279.68;0.99998;2.1976e-05;0.018657;0.98134;0.99999;1.3671e-05;0.029656;0.97034;0.334;297.04;3;1;1.944e+05;0.925;0.175;0
0.092834;0.90717;1e+05;0.88963;98480;1520.6;997.31;1.159;830.83;302.03;0.99998;2.1937e-05;0.018769;0.98123;0.99999;1.3646e-05;0.029832;0.97017;0.334;297.14;3;1;1.98e+05;0.925;0.175;0
0.095677;0.90432;1e+05;0.89043;98477;1523.8;997.29;1.1586;823.18;325.42;0.99998;2.1902e-05;0.018872;0.98113;0.99999;1.3624e-05;0.029993;0.97001;0.334;297.23;3;1;2.016e+05;0.925;0.175;0
0.098539;0.90146;1e+05;0.88927;98474;1526.9;997.27;1.1582;816.15;349.93;0.99998;2.1865e-05;0.018979;0.98102;0.99999;1.3602e-05;0.030161;0.96984;0.334;297.32;3;1;2.052e+05;0.925;0.175;0
0.10139;0.89861;1e+05;0.89049;98471;1530;997.25;1.1578;809.41;375.34;0.99998;2.1836e-05;0.019067;0.98093;0.99999;1.3583e-05;0.0303;0.9697;0.334;297.4;3;1;2.088e+05;0.925;0.175;0
0.10421;0.89579;1e+05;0.89034;98468;1532.9;997.23;1.1574;803.05;401.42;0.99998;2.1805e-05;0.01916;0.98084;0.99999;1.3564e-05;0.030446;0.96955;0.334;297.48;3;1;2.124e+05;0.925;0.175;0
0.107;0.893;1e+05;0.89074;98465;1535.7;997.2;1.1569;797.38;428.09;0.99998;2.1762e-05;0.019289;0.98071;0.99999;1.3538e-05;0.030648;0.96935;0.334;297.59;3;1;2.16e+05;0.925;0.175;0
0.10977;0.89024;1e+05;0.89145;98462;1538.4;997.18;1.1566;791.12;455.57;0.99998;2.1733e-05;0.019376;0.98062;0.99999;1.352e-05;0.030785;0.96921;0.334;297.66;3;1;2.196e+05;0.925;0.175;0
0.1126;0.8874;1e+05;0.89228;98460;1541.2;997.17;1.1564;784.06;484.7;0.99998;2.1719e-05;0.01942;0.98058;0.99999;1.3511e-05;0.030855;0.96914;0.334;297.7;3;1;2.232e+05;0.925;0.175;0
0.11553;0.88447;1e+05;0.88997;98457;1543.9;997.17;1.1564;776.19;515.91;0.99998;2.1717e-05;0.019426;0.98057;0.99999;1.351e-05;0.030864;0.96914;0.334;297.7;3;1;2.268e+05;0.925;0.175;0
0.1185;0.8815;1e+05;0.89006;98454;1546.7;997.17;1.1565;767.74;548.61;0.99998;2.1727e-05;0.019397;0.9806;0.99999;1.3516e-05;0.030817;0.96918;0.334;297.68;3;1;2.304e+05;0.925;0.175;0
0.12148;0.87852;1e+05;0.88952;98452;1549.4;997.18;1.1566;759.24;582.54;0.99998;2.1738e-05;0.019361;0.98064;0.99999;1.3523e-05;0.030762;0.96924;0.334;297.65;3;1;2.34e+05;0.925;0.175;0
0.12445;0.87555;1e+05;0.89088;98449;1552;997.19;1.1568;750.75;617.5;0.99998;2.1752e-05;0.019319;0.98068;0.99999;1.3532e-05;0.030696;0.9693;0.334;297.61;3;1;2.376e+05;0.925;0.175;0
0.1274;0.8726;1e+05;0.8901;98446;1554.6;997.2;1.1569;742.72;653.23;0.99998;2.1759e-05;0.019299;0.9807;0.99999;1.3536e-05;0.030665;0.96934;0.334;297.6;3;1;2.412e+05;0.925;0.175;0
0.13032;0.86968;1e+05;0.8898;98444;1557.1;997.2;1.1569;735.04;689.75;0.99998;2.176e-05;0.019295;0.98071;0.99999;1.3536e-05;0.030658;0.96934;0.334;297.59;3;1;2.448e+05;0.925;0.175;0
0.13322;0.86678;1e+05;0.88947;98441;1559.5;997.2;1.1569;727.6;727.04;0.99998;2.1759e-05;0.019299;0.9807;0.99999;1.3536e-05;0.030665;0.96934;0.334;297.6;3;1;2.484e+05;0.925;0.175;0
0.13608;0.86392;1e+05;0.89076;98439;1561.8;997.19;1.1567;720.81;764.89;0.99998;2.1746e-05;0.019339;0.98066;0.99999;1.3528e-05;0.030726;0.96927;0.334;297.63;3;1;2.52e+05;0.925;0.175;0
0.13892;0.86108;1e+05;0.89103;98437;1564.1;997.18;1.1567;713.75;803.49;0.99998;2.1741e-05;0.019352;0.98065;0.99999;1.3525e-05;0.030748;0.96925;0.334;297.64;3;1;2.556e+05;0.925;0.175;0
0.14176;0.85824;1e+05;0.89253;98434;1566.3;997.18;1.1566;706.71;843.23;0.99998;2.1737e-05;0.019364;0.98064;0.99999;1.3522e-05;0.030767;0.96923;0.334;297.65;3;1;2.592e+05;0.925;0.175;0
0.14465;0.85535;1e+05;0.89095;98432;1568.6;997.17;1.1565;699.94;884.6;0.99998;2.1726e-05;0.0194;0.9806;0.99999;1.3515e-05;0.030823;0.96918;0.334;297.68;3;1;2.628e+05;0.925;0.175;0
0.14758;0.85242;1e+05;0.89146;98430;1570.8;997.17;1.1564;693.01;927.64;0.99998;2.1716e-05;0.019429;0.98057;0.99999;1.3509e-05;0.030868;0.96913;0.334;297.7;3;1;2.664e+05;0.925;0.175;0
0.15053;0.84947;1e+05;0.89142;98428;1573.1;997.17;1.1564;685.76;972.29;0.99998;2.1714e-05;0.019435;0.98057;0.99999;1.3508e-05;0.030878;0.96912;0.334;297.71;3;1;2.7e+05;0.925;0.175;0
0.15351;0.84649;1e+05;0.89252;98426;1575.3;997.16;1.1563;678.55;1018.3;0.99998;2.1711e-05;0.019444;0.98056;0.99999;1.3506e-05;0.030891;0.96911;0.334;297.72;3;1;2.736e+05;0.925;0.175;0
0.15647;0.84352;1e+05;0.89237;98424;1577.4;997.16;1.1562;671.63;1065.4;0.99998;2.1703e-05;0.019469;0.98053;0.99999;1.3501e-05;0.030931;0.96907;0.334;297.74;3;1;2.772e+05;0.925;0.175;0
0.15942;0.84058;1e+05;0.89274;98421;1579.6;997.15;1.156;665.23;1113.3;0.99998;2.1684e-05;0.019527;0.98047;0.99999;1.3489e-05;0.031022;0.96898;0.334;297.79;3;1;2.808e+05;0.925;0.175;0
0.16235;0.83765;1e+05;0.89229;98419;1581.6;997.14;1.1558;658.71;1162;0.99998;2.167e-05;0.019569;0.98043;0.99999;1.3481e-05;0.031088;0.96891;0.334;297.83;3;1;2.844e+05;0.925;0.175;0
0.16525;0.83474;1e+05;0.89308;98417;1583.7;997.12;1.1556;652.57;1211.5;0.99998;2.1649e-05;0.019636;0.98036;0.99999;1.3467e-05;0.031193;0.96881;0.334;297.88;3;1;2.88e+05;0.925;0.175;0
0.16814;0.83186;1e+05;0.89224;98415;1585.7;997.1;1.1551;646.98;1261.5;0.99998;2.1616e-05;0.01974;0.98026;0.99999;1.3447e-05;0.031356;0.96864;0.334;297.97;3;1;2.916e+05;0.925;0.175;0
0.171;0.829;1e+05;0.89337;98413;1587.6;997.08;1.1547;641.42;1312.4;0.99998;2.1584e-05;0.019841;0.98016;0.99999;1.3427e-05;0.031516;0.96848;0.334;298.05;3;1;2.952e+05;0.925;0.175;0
0.17386;0.82614;1e+05;0.89263;98411;1589.5;997.06;1.1544;635.87;1364.2;0.99998;2.1553e-05;0.019938;0.98006;0.99999;1.3408e-05;0.031668;0.96833;0.334;298.13;3;1;2.988e+05;0.925;0.175;0
0.17669;0.82331;1e+05;0.89335;98410;1591.4;997.04;1.154;630.36;1416.6;0.99998;2.1524e-05;0.020033;0.97997;0.99999;1.3389e-05;0.031816;0.96818;0.334;298.21;3;1;3.024e+05;0.925;0.175;0
0.17948;0.82052;1e+05;0.89185;98408;1593.3;997.03;1.1538;624.55;1469.5;0.99998;2.1505e-05;0.020093;0.97991;0.99999;1.3378e-05;0.03191;0.96809;0.334;298.26;3;1;3.06e+05;0.925;0.175;0
0.18227;0.81773;1e+05;0.89064;98406;1595.1;997.02;1.1536;618.53;1523.3;0.99998;2.1494e-05;0.020128;0.97987;0.99999;1.3371e-05;0.031966;0.96803;0.334;298.29;3;1;3.096e+05;0.925;0.175;0
0.18504;0.81496;1e+05;0.89016;98404;1596.8;997.02;1.1537;611.99;1578;0.99998;2.1498e-05;0.020116;0.97988;0.99999;1.3373e-05;0.031946;0.96805;0.334;298.28;3;1;3.132e+05;0.925;0.175;0
0.18784;0.81216;1e+05;0.89091;98402;1598.6;997.04;1.1541;604.32;1634.5;0.99998;2.1532e-05;0.020006;0.97999;0.99999;1.3395e-05;0.031774;0.96823;0.334;298.19;3;1;3.168e+05;0.925;0.175;0
0.19064;0.80936;1e+05;0.8898;98400;1600.4;997.06;1.1544;597.08;1692.2;0.99998;2.1557e-05;0.019927;0.98007;0.99999;1.341e-05;0.03165;0.96835;0.334;298.12;3;1;3.204e+05;0.925;0.175;0
0.19345;0.80655;1e+05;0.88851;98399;1602.1;997.07;1.1545;590.42;1750.8;0.99998;2.1567e-05;0.019895;0.9801;0.99999;1.3416e-05;0.0316;0.9684;0.334;298.1;3;1;3.24e+05;0.925;0.175;0
0.19625;0.80375;1e+05;0.8892;98397;1603.9;997.07;1.1546;583.99;1810.5;0.99998;2.1572e-05;0.019878;0.98012;0.99999;1.342e-05;0.031574;0.96843;0.334;298.08;3;1;3.276e+05;0.925;0.175;0
0.19907;0.80093;1e+05;0.88837;98395;1605.6;997.08;1.1546;577.62;1871.6;0.99998;2.1576e-05;0.019865;0.98014;0.99999;1.3422e-05;0.031553;0.96845;0.334;298.07;3;1;3.312e+05;0.925;0.175;0
0.2019;0.7981;1e+05;0.8895;98394;1607.3;997.08;1.1547;571.2;1933.9;0.99998;2.1583e-05;0.019845;0.98015;0.99999;1.3426e-05;0.031522;0.96848;0.334;298.06;3;1;3.348e+05;0.925;0.175;0
0.20473;0.79527;1e+05;0.88754;98392;1609;997.08;1.1548;564.85;1997.5;0.99998;2.1588e-05;0.019829;0.98017;0.99999;1.3429e-05;0.031496;0.9685;0.334;298.04;3;1;3.384e+05;0.925;0.175;0
0.20756;0.79244;1e+05;0.88969;98390;1610.7;997.08;1.1548;558.84;2062.1;0.99998;2.1585e-05;0.019837;0.98016;0.99999;1.3428e-05;0.031509;0.96849;0.334;298.05;3;1;3.42e+05;0.925;0.175;0
0.21038;0.78962;1e+05;0.89075;98389;1612.3;997.08;1.1547;552.95;2127.6;0.99998;2.158e-05;0.019853;0.98015;0.99999;1.3424e-05;0.031534;0.96847;0.334;298.06;3;1;3.456e+05;0.925;0.175;0
0.2132;0.7868;1e+05;0.89001;98387;1614;997.08;1.1547;546.99;2194.1;0.99998;2.1579e-05;0.019857;0.98014;0.99999;1.3424e-05;0.031541;0.96846;0.334;298.07;3;1;3.492e+05;0.925;0.175;0
0.216;0.784;1e+05;0.8898;98385;1615.6;997.08;1.1547;541.07;2261.3;0.99998;2.1579e-05;0.019856;0.98014;0.99999;1.3424e-05;0.031539;0.96846;0.334;298.07;3;1;3.528e+05;0.925;0.175;0
0.21877;0.78123;1e+05;0.89155;98384;1617.2;997.07;1.1546;535.58;2328.9;0.99998;2.1569e-05;0.019888;0.98011;0.99999;1.3418e-05;0.031589;0.96841;0.334;298.09;3;1;3.564e+05;0.925;0.175;0
0.22151;0.77849;1e+05;0.89097;98382;1618.7;997.07;1.1545;529.95;2397;0.99998;2.1566e-05;0.019898;0.9801;0.99999;1.3416e-05;0.031605;0.96839;0.334;298.1;3;1;3.6e+05;0.925;0.175;0
0.22423;0.77577;1e+05;0.88927;98381;1620.2;997.07;1.1545;524.38;2465.4;0.99998;2.1564e-05;0.019905;0.9801;0.99999;1.3414e-05;0.031615;0.96838;0.334;298.11;3;1;3.636e+05;0.925;0.175;0
0.22692;0.77308;1e+05;0.89047;98379;1621.8;997.06;1.1544;519.17;2534.1;0.99998;2.1554e-05;0.019937;0.98006;0.99999;1.3408e-05;0.031665;0.96833;0.334;298.13;3;1;3.672e+05;0.925;0.175;0
0.22958;0.77042;1e+05;0.89036;98378;1623.2;997.03;1.1539;514.9;2602.6;0.99998;2.1517e-05;0.020055;0.97995;0.99999;1.3385e-05;0.031851;0.96815;0.334;298.23;3;1;3.708e+05;0.925;0.175;0
0.23223;0.76777;1e+05;0.89044;98376;1624.7;997.01;1.1535;510.65;2671.8;0.99998;2.1481e-05;0.020171;0.97983;0.99999;1.3362e-05;0.032032;0.96797;0.334;298.33;3;1;3.744e+05;0.925;0.175;0
0.23486;0.76514;1e+05;0.89063;98375;1626.1;997;1.1532;505.82;2741.9;0.99998;2.1464e-05;0.020224;0.97978;0.99999;1.3352e-05;0.032116;0.96788;0.334;298.37;3;1;3.78e+05;0.925;0.175;0
0.23748;0.76252;1e+05;0.89048;98373;1627.6;996.99;1.1532;500.69;2812.8;0.99998;2.146e-05;0.02024;0.97976;0.99999;1.3349e-05;0.032141;0.96786;0.334;298.38;3;1;3.816e+05;0.925;0.175;0
0.24009;0.75991;1e+05;0.8902;98372;1628.9;996.99;1.1531;495.6;2884.4;0.99998;2.1455e-05;0.020254;0.97975;0.99999;1.3347e-05;0.032163;0.96784;0.334;298.39;3;1;3.852e+05;0.925;0.175;0
0.2427;0.7573;1e+05;0.89032;98370;1630.3;996.99;1.1531;490.6;2956.8;0.99998;2.1449e-05;0.020273;0.97973;0.99999;1.3343e-05;0.032192;0.96781;0.334;298.41;3;1;3.888e+05;0.925;0.175;0
0.24531;0.75469;1e+05;0.88936;98369;1631.7;996.98;1.153;485.56;3030.3;0.99998;2.1446e-05;0.020285;0.97971;0.99999;1.3341e-05;0.032212;0.96779;0.334;298.42;3;1;3.924e+05;0.925;0.175;0
0.24791;0.75208;1e+05;0.89006;98368;1633.1;996.98;1.153;480.59;3104.7;0.99998;2.1441e-05;0.020299;0.9797;0.99999;1.3338e-05;0.032234;0.96777;0.334;298.43;3;1;3.96e+05;0.925;0.175;0
0.25052;0.74948;1e+05;0.8895;98366;1634.5;996.98;1.153;475.53;3180.2;0.99998;2.1441e-05;0.020302;0.9797;0.99999;1.3338e-05;0.032238;0.96776;0.334;298.43;3;1;3.996e+05;0.925;0.175;0
0.25314;0.74686;1e+05;0.8899;98365;1635.9;997.01;1.1534;469.47;3257.3;0.99998;2.1477e-05;0.020183;0.97982;0.99999;1.336e-05;0.032052;0.96795;0.334;298.34;3;1;4.032e+05;0.925;0.175;0
0.25573;0.74427;1e+05;0.88996;98364;1637.2;997.02;1.1536;464.09;3334.6;0.99998;2.1491e-05;0.020136;0.97986;0.99999;1.3369e-05;0.031978;0.96802;0.334;298.3;3;1;4.068e+05;0.925;0.175;0
0.25833;0.74167;1e+05;0.88959;98362;1638.6;997.03;1.1538;458.77;3413;0.99998;2.1505e-05;0.020092;0.97991;0.99999;1.3378e-05;0.031909;0.96809;0.334;298.26;3;1;4.104e+05;0.925;0.175;0
0.26095;0.73905;1e+05;0.88942;98361;1639.9;997.04;1.1539;453.44;3492.9;0.99998;2.152e-05;0.020046;0.97995;0.99999;1.3387e-05;0.031836;0.96816;0.334;298.22;3;1;4.14e+05;0.925;0.175;0
0.26358;0.73642;1e+05;0.8894;98360;1641.2;997.04;1.1541;448.16;3574.2;0.99998;2.1533e-05;0.020002;0.98;0.99999;1.3395e-05;0.031768;0.96823;0.334;298.19;3;1;4.176e+05;0.925;0.175;0
0.26621;0.73379;1e+05;0.88948;98358;1642.6;997.05;1.1543;442.96;3656.7;0.99998;2.1545e-05;0.019964;0.98004;0.99999;1.3403e-05;0.031709;0.96829;0.334;298.15;3;1;4.212e+05;0.925;0.175;0
0.26886;0.73114;1e+05;0.89015;98357;1643.9;997.06;1.1544;437.75;3740.6;0.99998;2.1558e-05;0.019924;0.98008;0.99999;1.3411e-05;0.031645;0.96836;0.334;298.12;3;1;4.248e+05;0.925;0.175;0
0.27151;0.72849;1e+05;0.89082;98356;1645.2;997.06;1.1545;432.85;3825.4;0.99998;2.156e-05;0.019916;0.98008;0.99999;1.3412e-05;0.031633;0.96837;0.334;298.11;3;1;4.284e+05;0.925;0.175;0
0.27415;0.72585;1e+05;0.88887;98354;1646.6;997.06;1.1545;428.08;3910.8;0.99998;2.156e-05;0.019916;0.98009;0.99999;1.3412e-05;0.031632;0.96837;0.334;298.11;3;1;4.32e+05;0.925;0.175;0
0.27675;0.72325;1e+05;0.89036;98353;1647.9;997.06;1.1545;423.38;3996.3;0.99998;2.1561e-05;0.019913;0.98009;0.99999;1.3413e-05;0.031628;0.96837;0.334;298.11;3;1;4.356e+05;0.925;0.175;0
0.27935;0.72066;1e+05;0.88841;98352;1649.2;997.07;1.1545;418.63;4082.3;0.99998;2.1566e-05;0.019897;0.9801;0.99999;1.3416e-05;0.031604;0.9684;0.334;298.1;3;1;4.392e+05;0.925;0.175;0
0.28192;0.71808;1e+05;0.88973;98350;1650.4;997.07;1.1546;414.01;4168.6;0.99998;2.1569e-05;0.019889;0.98011;0.99999;1.3417e-05;0.03159;0.96841;0.334;298.09;3;1;4.428e+05;0.925;0.175;0
0.28448;0.71552;1e+05;0.88936;98349;1651.7;997.07;1.1546;409.5;4255.6;0.99998;2.1569e-05;0.019889;0.98011;0.99999;1.3417e-05;0.03159;0.96841;0.334;298.09;3;1;4.464e+05;0.925;0.175;0
0.28703;0.71297;1e+05;0.88953;98348;1652.9;997.07;1.1546;405.05;4342.9;0.99998;2.1569e-05;0.019887;0.98011;0.99999;1.3418e-05;0.031588;0.96841;0.334;298.09;3;1;4.5e+05;0.925;0.175;0
0.28954;0.71046;1e+05;0.88976;98347;1654.1;997.06;1.1544;401.03;4429.7;0.99998;2.1555e-05;0.019931;0.98007;0.99999;1.3409e-05;0.031657;0.96834;0.334;298.13;3;1;4.536e+05;0.925;0.175;0
0.29201;0.70799;1e+05;0.89004;98346;1655.3;997.03;1.1538;397.83;4515.2;0.99998;2.1512e-05;0.02007;0.97993;0.99999;1.3382e-05;0.031874;0.96813;0.334;298.24;3;1;4.572e+05;0.925;0.175;0
0.29446;0.70554;1e+05;0.89067;98344;1656.5;997.02;1.1536;394.18;4601.7;0.99998;2.1489e-05;0.020145;0.97986;0.99999;1.3368e-05;0.031992;0.96801;0.334;298.3;3;1;4.608e+05;0.925;0.175;0
0.29691;0.70309;1e+05;0.89111;98343;1657.7;997;1.1532;390.66;4688.5;0.99998;2.1461e-05;0.020235;0.97976;0.99999;1.335e-05;0.032133;0.96787;0.334;298.38;3;1;4.644e+05;0.925;0.175;0
0.29936;0.70064;1e+05;0.89071;98342;1658.9;996.98;1.153;386.95;4776.6;0.99998;2.1442e-05;0.020298;0.9797;0.99999;1.3339e-05;0.032232;0.96777;0.334;298.43;3;1;4.68e+05;0.925;0.175;0
0.30182;0.69818;1e+05;0.8909;98341;1660.1;996.97;1.1528;383.2;4866;0.99998;2.1425e-05;0.020354;0.97965;0.99999;1.3328e-05;0.03232;0.96768;0.334;298.48;3;1;4.716e+05;0.925;0.175;0
0.3043;0.6957;1e+05;0.88901;98340;1661.2;996.96;1.1526;379.36;4956.8;0.99998;2.1411e-05;0.020399;0.9796;0.99999;1.3319e-05;0.03239;0.96761;0.334;298.51;3;1;4.752e+05;0.925;0.175;0
0.30678;0.69322;1e+05;0.89064;98338;1662.4;996.96;1.1525;375.4;5048.9;0.99998;2.1404e-05;0.020422;0.97958;0.99999;1.3315e-05;0.032427;0.96757;0.334;298.53;3;1;4.788e+05;0.925;0.175;0
0.30926;0.69074;1e+05;0.88828;98337;1663.6;996.96;1.1526;371.15;5142.2;0.99998;2.1411e-05;0.020401;0.9796;0.99999;1.3319e-05;0.032394;0.96761;0.334;298.51;3;1;4.824e+05;0.925;0.175;0
0.31173;0.68827;1e+05;0.88847;98336;1664.7;996.98;1.153;366.38;5237;0.99998;2.1442e-05;0.020296;0.9797;0.99999;1.3339e-05;0.032229;0.96777;0.334;298.43;3;1;4.86e+05;0.925;0.175;0
0.31417;0.68583;1e+05;0.88801;98335;1665.9;997;1.1532;361.98;5330.8;0.99998;2.1462e-05;0.020232;0.97977;0.99999;1.3351e-05;0.032128;0.96787;0.334;298.38;3;1;4.896e+05;0.925;0.175;0
0.31659;0.68341;1e+05;0.88836;98334;1667;997;1.1533;357.86;5424.5;0.99998;2.1473e-05;0.020196;0.9798;0.99999;1.3358e-05;0.032073;0.96793;0.334;298.35;3;1;4.932e+05;0.925;0.175;0
0.319;0.681;1e+05;0.8893;98333;1668.1;997.01;1.1535;353.67;5519.2;0.99998;2.1487e-05;0.020149;0.97985;0.99999;1.3367e-05;0.031999;0.968;0.334;298.31;3;1;4.968e+05;0.925;0.175;0
0.32145;0.67855;1e+05;0.89005;98332;1669.3;997.03;1.1537;349.42;5616;0.99998;2.1504e-05;0.020095;0.97991;0.99999;1.3377e-05;0.031914;0.96809;0.334;298.26;3;1;5.004e+05;0.925;0.175;0
0.3239;0.6761;1e+05;0.89134;98330;1670.4;997.04;1.154;345.18;5713.9;0.99998;2.1523e-05;0.020035;0.97996;0.99999;1.3389e-05;0.03182;0.96818;0.334;298.21;3;1;5.04e+05;0.925;0.175;0
0.32638;0.67362;1e+05;0.89255;98329;1671.6;997.05;1.1541;341.08;5813.7;0.99998;2.1534e-05;0.02;0.98;0.99999;1.3396e-05;0.031765;0.96824;0.334;298.18;3;1;5.076e+05;0.925;0.175;0
0.32888;0.67112;1e+05;0.89075;98328;1672.7;997.05;1.1542;337.12;5915.2;0.99998;2.1538e-05;0.019988;0.98001;0.99999;1.3398e-05;0.031746;0.96825;0.334;298.17;3;1;5.112e+05;0.925;0.175;0
0.33138;0.66862;1e+05;0.89117;98327;1673.9;997.05;1.1541;333.35;6017.5;0.99998;2.1534e-05;0.020001;0.98;0.99999;1.3396e-05;0.031766;0.96823;0.334;298.18;3;1;5.148e+05;0.925;0.175;0
0.3339;0.6661;1e+05;0.89088;98326;1675;997.05;1.1542;329.4;6121.4;0.99998;2.1539e-05;0.019983;0.98002;0.99999;1.3399e-05;0.031738;0.96826;0.334;298.17;3;1;5.184e+05;0.925;0.175;0
0.3364;0.6636;1e+05;0.89133;98325;1676.2;997.05;1.1543;325.5;6225.8;0.99998;2.1545e-05;0.019965;0.98004;0.99999;1.3403e-05;0.03171;0.96829;0.334;298.16;3;1;5.22e+05;0.925;0.175;0
0.3389;0.6611;1e+05;0.8931;98324;1677.3;997.05;1.1543;321.72;6330.9;0.99998;2.1546e-05;0.019961;0.98004;0.99999;1.3403e-05;0.031703;0.9683;0.334;298.15;3;1;5.256e+05;0.925;0.175;0
0.3414;0.6586;1e+05;0.89371;98322;1678.4;997.05;1.1542;318.16;6436.7;0.99998;2.1537e-05;0.01999;0.98001;0.99999;1.3398e-05;0.031748;0.96825;0.334;298.18;3;1;5.292e+05;0.925;0.175;0
0.34391;0.65609;1e+05;0.89375;98321;1679.6;997.05;1.1542;314.42;6544.2;0.99998;2.1538e-05;0.019986;0.98001;0.99999;1.3399e-05;0.031743;0.96826;0.334;298.17;3;1;5.328e+05;0.925;0.175;0
0.3464;0.65359;1e+05;0.89257;98320;1680.7;997.05;1.1542;310.73;6652.1;0.99998;2.1539e-05;0.019983;0.98002;0.99999;1.3399e-05;0.031738;0.96826;0.334;298.17;3;1;5.364e+05;0.925;0.175;0
0.34888;0.65112;1e+05;0.89226;98319;1681.8;997.04;1.1541;307.3;6759.7;0.99998;2.1529e-05;0.020015;0.97998;0.99999;1.3393e-05;0.031788;0.96821;0.334;298.2;3;1;5.4e+05;0.925;0.175;0
0.35136;0.64864;1e+05;0.89507;98318;1682.9;997.03;1.1539;304.01;6868;0.99998;2.1514e-05;0.020065;0.97993;0.99999;1.3383e-05;0.031867;0.96813;0.334;298.24;3;1;5.436e+05;0.925;0.175;0
0.35383;0.64617;1e+05;0.89275;98317;1684.1;997.02;1.1537;300.77;6977;0.99998;2.1496e-05;0.020121;0.97988;0.99999;1.3372e-05;0.031954;0.96805;0.334;298.29;3;1;5.472e+05;0.925;0.175;0
0.3563;0.6437;1e+05;0.89428;98316;1685.2;997.01;1.1534;297.57;7086.7;0.99998;2.1478e-05;0.020178;0.97982;0.99999;1.3361e-05;0.032045;0.96795;0.334;298.33;3;1;5.508e+05;0.925;0.175;0
0.35877;0.64123;1e+05;0.89305;98315;1686.3;997;1.1533;294.2;7197.5;0.99998;2.1471e-05;0.020202;0.9798;0.99999;1.3356e-05;0.032082;0.96792;0.334;298.35;3;1;5.544e+05;0.925;0.175;0
0.36122;0.63878;1e+05;0.89311;98314;1687.4;997;1.1533;290.8;7308.8;0.99998;2.1467e-05;0.020215;0.97979;0.99999;1.3354e-05;0.032102;0.9679;0.334;298.36;3;1;5.58e+05;0.925;0.175;0
0.36366;0.63634;1e+05;0.89146;98312;1688.4;997;1.1533;287.38;7420.5;0.99998;2.1468e-05;0.020213;0.97979;0.99999;1.3354e-05;0.032099;0.9679;0.334;298.36;3;1;5.616e+05;0.925;0.175;0
0.36609;0.63391;1e+05;0.89155;98311;1689.5;997.01;1.1535;283.78;7533;0.99998;2.1481e-05;0.02017;0.97983;0.99999;1.3363e-05;0.032031;0.96797;0.334;298.33;3;1;5.652e+05;0.925;0.175;0
0.36849;0.63151;1e+05;0.89049;98310;1690.6;997.02;1.1536;280.3;7645.3;0.99998;2.149e-05;0.020139;0.97986;0.99999;1.3369e-05;0.031983;0.96802;0.334;298.3;3;1;5.688e+05;0.925;0.175;0
0.37088;0.62912;1e+05;0.8908;98309;1691.7;997.03;1.1537;276.8;7757.7;0.99998;2.1504e-05;0.020095;0.97991;0.99999;1.3377e-05;0.031913;0.96809;0.334;298.26;3;1;5.724e+05;0.925;0.175;0
0.37324;0.62676;1e+05;0.89103;98308;1692.7;997.03;1.1539;273.42;7869.6;0.99998;2.1515e-05;0.020059;0.97994;0.99999;1.3384e-05;0.031858;0.96814;0.334;298.23;3;1;5.76e+05;0.925;0.175;0
0.37558;0.62442;1e+05;0.89171;98307;1693.7;997.04;1.154;270.11;7981.2;0.99998;2.1525e-05;0.020027;0.97997;0.99999;1.339e-05;0.031808;0.96819;0.334;298.21;3;1;5.796e+05;0.925;0.175;0
0.37789;0.62211;1e+05;0.89127;98306;1694.8;997.05;1.1541;266.9;8092.5;0.99998;2.1534e-05;0.020001;0.98;0.99999;1.3395e-05;0.031766;0.96823;0.334;298.19;3;1;5.832e+05;0.925;0.175;0
0.38018;0.61982;1e+05;0.89177;98305;1695.8;997.05;1.1543;263.68;8203.6;0.99998;2.1546e-05;0.019962;0.98004;0.99999;1.3403e-05;0.031706;0.96829;0.334;298.15;3;1;5.868e+05;0.925;0.175;0
0.38244;0.61756;1e+05;0.89219;98304;1696.8;997.06;1.1544;260.6;8314.1;0.99998;2.1552e-05;0.019941;0.98006;0.99999;1.3407e-05;0.031673;0.96833;0.334;298.14;3;1;5.904e+05;0.925;0.175;0
0.3847;0.6153;1e+05;0.89303;98303;1697.8;997.06;1.1544;257.61;8424.8;0.99998;2.1556e-05;0.019931;0.98007;0.99999;1.3409e-05;0.031656;0.96834;0.334;298.13;3;1;5.94e+05;0.925;0.175;0
0.38694;0.61306;1e+05;0.89206;98302;1698.8;997.06;1.1544;254.75;8535.5;0.99998;2.1553e-05;0.019939;0.98006;0.99999;1.3408e-05;0.03167;0.96833;0.334;298.13;3;1;5.976e+05;0.925;0.175;0
0.38919;0.61081;1e+05;0.89164;98301;1699.7;997.06;1.1543;251.94;8647;0.99998;2.1548e-05;0.019954;0.98005;0.99999;1.3405e-05;0.031693;0.96831;0.334;298.15;3;1;6.012e+05;0.925;0.175;0
0.39143;0.60857;1e+05;0.89231;98300;1700.7;997.05;1.1541;249.27;8759;0.99998;2.1535e-05;0.019996;0.98;0.99999;1.3397e-05;0.031758;0.96824;0.334;298.18;3;1;6.048e+05;0.925;0.175;0
0.39367;0.60633;1e+05;0.89319;98299;1701.7;997.04;1.154;246.57;8871.3;0.99998;2.1527e-05;0.020022;0.97998;0.99999;1.3392e-05;0.031799;0.9682;0.334;298.2;3;1;6.084e+05;0.925;0.175;0
0.39589;0.60411;1e+05;0.89205;98298;1702.7;997.03;1.1539;243.94;8983.6;0.99998;2.1515e-05;0.020058;0.97994;0.99999;1.3384e-05;0.031856;0.96814;0.334;298.23;3;1;6.12e+05;0.925;0.175;0
0.3981;0.6019;1e+05;0.89335;98297;1703.7;997.03;1.1538;241.26;9096.4;0.99998;2.151e-05;0.020077;0.97992;0.99999;1.3381e-05;0.031885;0.96811;0.334;298.25;3;1;6.156e+05;0.925;0.175;0
0.40027;0.59973;1e+05;0.89182;98296;1704.6;997.02;1.1537;238.71;9207.5;0.99998;2.1501e-05;0.020106;0.97989;0.99999;1.3375e-05;0.031932;0.96807;0.334;298.27;3;1;6.192e+05;0.925;0.175;0
0.40241;0.59759;1e+05;0.89334;98295;1705.5;997.02;1.1536;236.24;9317.7;0.99998;2.1489e-05;0.020144;0.97986;0.99999;1.3368e-05;0.03199;0.96801;0.334;298.3;3;1;6.228e+05;0.925;0.175;0
0.40454;0.59546;1e+05;0.89193;98294;1706.5;997.01;1.1535;233.75;9428.2;0.99998;2.1481e-05;0.020169;0.97983;0.99999;1.3363e-05;0.03203;0.96797;0.334;298.33;3;1;6.264e+05;0.925;0.175;0
0.40666;0.59334;1e+05;0.89302;98294;1707.4;997;1.1534;231.28;9538.9;0.99998;2.1473e-05;0.020195;0.9798;0.99999;1.3358e-05;0.032071;0.96793;0.334;298.35;3;1;6.3e+05;0.925;0.175;0
0.40877;0.59123;1e+05;0.89241;98293;1708.3;997;1.1532;228.88;9649.7;0.99998;2.1462e-05;0.020232;0.97977;0.99999;1.3351e-05;0.032128;0.96787;0.334;298.38;3;1;6.336e+05;0.925;0.175;0
0.41088;0.58912;1e+05;0.89333;98292;1709.2;996.99;1.1531;226.41;9761.7;0.99998;2.1457e-05;0.020249;0.97975;0.99999;1.3348e-05;0.032155;0.96785;0.334;298.39;3;1;6.372e+05;0.925;0.175;0
0.413;0.587;1e+05;0.89149;98291;1710.2;996.99;1.1531;223.91;9874.7;0.99998;2.1455e-05;0.020256;0.97974;0.99999;1.3346e-05;0.032166;0.96783;0.334;298.4;3;1;6.408e+05;0.925;0.175;0
0.41512;0.58488;1e+05;0.89312;98290;1711.1;996.99;1.153;221.49;9988;0.99998;2.1448e-05;0.020277;0.97972;0.99999;1.3342e-05;0.032199;0.9678;0.334;298.41;3;1;6.444e+05;0.925;0.175;0
0.41724;0.58276;1e+05;0.89048;98289;1712;996.98;1.153;219.06;10102;0.99998;2.1444e-05;0.020292;0.97971;0.99999;1.3339e-05;0.032223;0.96778;0.334;298.43;3;1;6.48e+05;0.925;0.175;0
0.41936;0.58064;1e+05;0.89178;98288;1712.9;996.99;1.153;216.52;10218;0.99998;2.1448e-05;0.020278;0.97972;0.99999;1.3342e-05;0.032201;0.9678;0.334;298.42;3;1;6.516e+05;0.925;0.175;0
0.42147;0.57853;1e+05;0.89109;98287;1713.8;996.98;1.1529;214.21;10333;0.99998;2.1437e-05;0.020314;0.97969;0.99999;1.3335e-05;0.032257;0.96774;0.334;298.44;3;1;6.552e+05;0.925;0.175;0
0.42359;0.57641;1e+05;0.89039;98286;1714.8;996.98;1.1529;211.78;10450;0.99998;2.1436e-05;0.020315;0.97968;0.99999;1.3335e-05;0.03226;0.96774;0.334;298.45;3;1;6.588e+05;0.925;0.175;0
0.42573;0.57427;1e+05;0.8905;98285;1715.7;996.99;1.1531;209.15;10568;0.99998;2.1452e-05;0.020265;0.97973;0.99999;1.3345e-05;0.032181;0.96782;0.334;298.4;3;1;6.624e+05;0.925;0.175;0
0.42786;0.57214;1e+05;0.8911;98284;1716.6;997;1.1533;206.56;10688;0.99998;2.1466e-05;0.020219;0.97978;0.99999;1.3353e-05;0.032109;0.96789;0.334;298.37;3;1;6.66e+05;0.925;0.175;0
0.42998;0.57002;1e+05;0.89012;98283;1717.6;997.01;1.1534;204.08;10807;0.99998;2.1474e-05;0.020193;0.97981;0.99999;1.3358e-05;0.032068;0.96793;0.334;298.35;3;1;6.696e+05;0.925;0.175;0
0.43209;0.56791;1e+05;0.88877;98282;1718.5;997.01;1.1535;201.59;10926;0.99998;2.1484e-05;0.020159;0.97984;0.99999;1.3365e-05;0.032015;0.96798;0.334;298.32;3;1;6.732e+05;0.925;0.175;0
0.43419;0.56581;1e+05;0.8885;98282;1719.4;997.02;1.1536;199.14;11046;0.99998;2.1495e-05;0.020125;0.97988;0.99999;1.3371e-05;0.031961;0.96804;0.334;298.29;3;1;6.768e+05;0.925;0.175;0
0.43626;0.56374;1e+05;0.88898;98281;1720.3;997.03;1.1538;196.72;11164;0.99998;2.1506e-05;0.020088;0.97991;0.99999;1.3379e-05;0.031903;0.9681;0.334;298.26;3;1;6.804e+05;0.925;0.175;0
0.43831;0.56169;1e+05;0.88918;98280;1721.2;997.03;1.1538;194.43;11282;0.99998;2.1512e-05;0.02007;0.97993;0.99999;1.3382e-05;0.031875;0.96812;0.334;298.24;3;1;6.84e+05;0.925;0.175;0
0.44034;0.55966;1e+05;0.88877;98279;1722.1;997.03;1.1539;192.22;11399;0.99998;2.1513e-05;0.020067;0.97993;0.99999;1.3383e-05;0.031869;0.96813;0.334;298.24;3;1;6.876e+05;0.925;0.175;0
0.44238;0.55762;1e+05;0.88894;98278;1723;997.03;1.1539;190.01;11517;0.99998;2.1515e-05;0.020061;0.97994;0.99999;1.3384e-05;0.031861;0.96814;0.334;298.24;3;1;6.912e+05;0.925;0.175;0
