#Time[s];TotalMassChange[kg/(s*extFac)];WaterMassChange[kg/(s*extFac))];IntEnergyChange[J/(m^3*s*extFac)];WaterMass[kg/extFac];WaterMassLoss[kg/extFac];EvaporationRate[mm/d];moistureContent[-]
3600;2.98448e-06;2.98831e-06;4.66959;1.82362;0.010758;11.4751;0.154692
7200;2.71906e-06;2.72244e-06;3.50269;1.81382;0.0205588;10.4542;0.153988
10800;2.6123e-06;2.61551e-06;2.94184;1.8044;0.0299746;10.0436;0.153311
14400;2.43446e-06;2.43742e-06;2.44673;1.79563;0.0387494;9.35969;0.152679
18000;2.36526e-06;2.36814e-06;2.28051;1.7871;0.0472747;9.09368;0.152065
21600;2.3496e-06;2.35243e-06;2.03606;1.77864;0.0557434;9.03334;0.151453
25200;2.33558e-06;2.33838e-06;1.83594;1.77022;0.0641616;8.97938;0.150844
28800;2.39566e-06;2.39856e-06;1.85209;1.76158;0.0727964;9.21047;0.150219
32400;2.36334e-06;2.36618e-06;1.71412;1.75306;0.0813147;9.08614;0.149601
36000;2.34459e-06;2.3474e-06;1.59555;1.74461;0.0897653;9.01403;0.148987
39600;2.28833e-06;2.29107e-06;1.46067;1.73637;0.0980132;8.7977;0.148387
43200;2.24032e-06;2.24299e-06;1.29633;1.72829;0.106088;8.61307;0.147799
46800;2.16745e-06;2.16999e-06;1.09026;1.72048;0.1139;8.33275;0.147229
50400;2.04543e-06;2.04779e-06;0.823394;1.71311;0.121272;7.86353;0.146691
54000;2.04489e-06;2.04733e-06;0.949383;1.70574;0.128642;7.86177;0.146152
57600;2.0204e-06;2.02283e-06;1.03531;1.69846;0.135925;7.76768;0.145619
61200;2.00461e-06;2.00704e-06;1.10588;1.69123;0.14315;7.70704;0.145089
64800;1.9717e-06;1.97405e-06;0.985956;1.68412;0.150256;7.58037;0.144567
68400;1.87186e-06;1.87404e-06;0.738058;1.67738;0.157003;7.19631;0.144071
72000;1.81829e-06;1.82042e-06;0.67539;1.67082;0.163557;6.9904;0.143589
75600;1.75106e-06;1.75308e-06;0.548726;1.66451;0.169868;6.73184;0.143124
79200;1.72411e-06;1.72611e-06;0.508193;1.6583;0.176082;6.62827;0.142666
82800;1.74161e-06;1.74364e-06;0.503756;1.65202;0.182359;6.6956;0.142203
86400;1.74844e-06;1.75044e-06;0.400355;1.64572;0.18866;6.72168;0.141737
90000;1.73787e-06;1.73986e-06;0.315855;1.63946;0.194924;6.68105;0.141274
93600;1.71265e-06;1.71462e-06;0.297832;1.63328;0.201096;6.58413;0.140817
97200;1.66132e-06;1.66318e-06;0.188955;1.6273;0.207084;6.3866;0.140373
100800;1.63347e-06;1.63532e-06;0.147403;1.62141;0.212971;6.27963;0.139936
104400;1.70511e-06;1.70709e-06;0.234809;1.61526;0.219117;6.55522;0.13948
108000;1.75011e-06;1.75212e-06;0.240923;1.60896;0.225424;6.72815;0.139011
111600;1.76295e-06;1.76497e-06;0.225226;1.6026;0.231778;6.7775;0.138538
115200;1.77875e-06;1.78079e-06;0.220448;1.59619;0.238189;6.83822;0.13806
118800;1.78565e-06;1.78764e-06;0.116016;1.58976;0.244624;6.86455;0.13758
122400;1.80907e-06;1.8111e-06;0.0716721;1.58324;0.251144;6.95463;0.137093
126000;1.82313e-06;1.8252e-06;0.118211;1.57666;0.257715;7.00877;0.136601
129600;1.79715e-06;1.7992e-06;0.125686;1.57019;0.264192;6.90893;0.136117
133200;1.81878e-06;1.82085e-06;0.145459;1.56363;0.270747;6.99206;0.135625
136800;1.70274e-06;1.70463e-06;0.0502672;1.5575;0.276884;6.54578;0.135165
140400;1.55696e-06;1.55859e-06;-0.194693;1.55188;0.282495;5.98498;0.134744
144000;1.3893e-06;1.39067e-06;-0.382121;1.54688;0.287501;5.34016;0.134367
147600;1.2701e-06;1.27138e-06;-0.441085;1.5423;0.292078;4.88211;0.134023
151200;1.18668e-06;1.18785e-06;-0.512314;1.53803;0.296355;4.56133;0.133701
154800;1.13059e-06;1.13169e-06;-0.563294;1.53395;0.300429;4.34571;0.133394
158400;1.07173e-06;1.07271e-06;-0.705765;1.53009;0.30429;4.1192;0.133103
162000;9.80497e-07;9.81337e-07;-0.823265;1.52656;0.307823;3.76833;0.132836
165600;9.28568e-07;9.2938e-07;-0.853115;1.52321;0.311169;3.56882;0.132584
169200;9.0222e-07;9.03015e-07;-0.877387;1.51996;0.31442;3.46758;0.132338
172800;9.24204e-07;9.25067e-07;-0.790015;1.51663;0.31775;3.55226;0.132086
176400;9.26819e-07;9.27706e-07;-0.742989;1.51329;0.32109;3.56239;0.131834
180000;9.00721e-07;9.01574e-07;-0.725033;1.51004;0.324335;3.46204;0.131588
183600;8.28112e-07;8.28722e-07;-0.981256;1.50706;0.327319;3.18229;0.131362
187200;7.75447e-07;7.76025e-07;-1.0295;1.50427;0.330113;2.97994;0.131151
190800;7.45851e-07;7.46405e-07;-1.03554;1.50158;0.3328;2.8662;0.130947
194400;7.52976e-07;7.535e-07;-1.11806;1.49887;0.335512;2.89344;0.130742
198000;7.44185e-07;7.44757e-07;-1.06234;1.49619;0.338193;2.85986;0.130538
201600;7.59299e-07;7.5987e-07;-1.06794;1.49345;0.340929;2.9179;0.130331
205200;7.77519e-07;7.78116e-07;-1.06286;1.49065;0.34373;2.98796;0.130118
208800;7.80204e-07;7.80855e-07;-0.994586;1.48784;0.346541;2.99848;0.129904
212400;7.6174e-07;7.62357e-07;-0.975268;1.48509;0.349286;2.92745;0.129696
216000;7.09181e-07;7.09654e-07;-1.11189;1.48254;0.35184;2.72507;0.129502
219600;6.58923e-07;6.59378e-07;-1.10315;1.48017;0.354214;2.53201;0.129321
223200;6.33618e-07;6.34064e-07;-1.0771;1.47788;0.356497;2.43481;0.129147
226800;6.19656e-07;6.20152e-07;-0.971152;1.47565;0.358729;2.38139;0.128977
230400;6.12586e-07;6.13086e-07;-0.884472;1.47344;0.360936;2.35425;0.128809
234000;6.14475e-07;6.15004e-07;-0.789104;1.47123;0.36315;2.36162;0.128641
237600;6.17864e-07;6.1842e-07;-0.707018;1.469;0.365377;2.37473;0.128471
241200;6.24902e-07;6.25438e-07;-0.687678;1.46675;0.367628;2.40168;0.128299
244800;6.42411e-07;6.43015e-07;-0.593968;1.46444;0.369943;2.46918;0.128123
248400;6.47775e-07;6.48392e-07;-0.516884;1.4621;0.372277;2.48983;0.127945
252000;6.59351e-07;6.59938e-07;-0.537488;1.45973;0.374653;2.53416;0.127763
255600;6.60055e-07;6.60687e-07;-0.465588;1.45735;0.377032;2.53704;0.127582
259200;6.53526e-07;6.54114e-07;-0.483702;1.45499;0.379386;2.5118;0.127402
262800;6.25264e-07;6.25779e-07;-0.575414;1.45274;0.381639;2.40299;0.12723
266400;5.68865e-07;5.69278e-07;-0.668923;1.45069;0.383689;2.18603;0.127073
270000;5.3676e-07;5.37139e-07;-0.680399;1.44876;0.385622;2.06261;0.126925
273600;5.17682e-07;5.18045e-07;-0.692833;1.44689;0.387487;1.98929;0.126782
277200;5.00214e-07;5.00527e-07;-0.730069;1.44509;0.389289;1.92202;0.126644
280800;4.90568e-07;4.90852e-07;-0.792838;1.44332;0.391056;1.88487;0.126509
284400;4.87065e-07;4.87381e-07;-0.765495;1.44157;0.392811;1.87154;0.126375
288000;4.92003e-07;4.92266e-07;-0.831336;1.4398;0.394583;1.8903;0.126239
291600;5.01384e-07;5.01628e-07;-0.88724;1.43799;0.396389;1.92625;0.126101
295200;5.09193e-07;5.09511e-07;-0.835014;1.43616;0.398223;1.95652;0.12596
298800;5.16712e-07;5.17055e-07;-0.804018;1.4343;0.400085;1.98549;0.125817
302400;5.24594e-07;5.24944e-07;-0.789199;1.43241;0.401974;2.01579;0.125672
306000;5.21762e-07;5.22148e-07;-0.720125;1.43053;0.403854;2.00505;0.125528
309600;5.24184e-07;5.24597e-07;-0.662195;1.42864;0.405743;2.01445;0.125383
313200;5.23879e-07;5.24428e-07;-0.488757;1.42675;0.407631;2.0138;0.125238
316800;5.18211e-07;5.18807e-07;-0.287124;1.42488;0.409498;1.99222;0.125095
320400;5.1769e-07;5.18218e-07;-0.27089;1.42302;0.411364;1.98996;0.124951
324000;5.19289e-07;5.19745e-07;-0.323995;1.42114;0.413235;1.99582;0.124808
327600;5.24582e-07;5.25047e-07;-0.319918;1.41925;0.415125;2.01618;0.124662
331200;5.28851e-07;5.29339e-07;-0.292517;1.41735;0.417031;2.03266;0.124516
334800;5.33862e-07;5.34369e-07;-0.256095;1.41543;0.418954;2.05198;0.124368
338400;5.32795e-07;5.3331e-07;-0.240718;1.41351;0.420874;2.04791;0.12422
342000;5.25235e-07;5.2568e-07;-0.311679;1.41161;0.422767;2.01861;0.124074
345600;4.94737e-07;4.95163e-07;-0.364579;1.40983;0.424549;1.90143;0.123937
349200;4.53534e-07;4.53885e-07;-0.417143;1.4082;0.426183;1.74292;0.123811
352800;4.34658e-07;4.3499e-07;-0.424387;1.40663;0.427749;1.67036;0.12369
356400;4.24122e-07;4.24381e-07;-0.501527;1.4051;0.429277;1.62962;0.123573
360000;4.09928e-07;4.10225e-07;-0.452799;1.40363;0.430754;1.57526;0.123459
363600;4.01112e-07;4.01435e-07;-0.425816;1.40218;0.432199;1.54151;0.123347
367200;3.94508e-07;3.94744e-07;-0.494716;1.40076;0.43362;1.51582;0.123238
370800;3.92709e-07;3.9283e-07;-0.657227;1.39935;0.435034;1.50847;0.123129
374400;3.93869e-07;3.9405e-07;-0.651331;1.39793;0.436453;1.51315;0.123019
378000;3.94731e-07;3.95038e-07;-0.530789;1.3965;0.437875;1.51694;0.122909
381600;3.95548e-07;3.95848e-07;-0.482592;1.39508;0.4393;1.52005;0.122799
385200;3.98113e-07;3.98442e-07;-0.430561;1.39365;0.440735;1.53002;0.122689
388800;4.00182e-07;4.00486e-07;-0.431712;1.3922;0.442176;1.53786;0.122577
392400;4.02285e-07;4.02596e-07;-0.410583;1.39075;0.443626;1.54597;0.122465
396000;4.02421e-07;4.02724e-07;-0.39701;1.3893;0.445075;1.54646;0.122353
399600;4.02111e-07;4.02503e-07;-0.306386;1.38786;0.446524;1.54561;0.122241
403200;3.95358e-07;3.95873e-07;-0.0857502;1.38643;0.44795;1.52015;0.122131
406800;3.9557e-07;3.9595e-07;-0.156413;1.385;0.449375;1.52045;0.122021
410400;3.95956e-07;3.96368e-07;-0.111829;1.38358;0.450802;1.52205;0.12191
414000;3.99778e-07;4.00187e-07;-0.094937;1.38214;0.452243;1.53672;0.121799
417600;3.98182e-07;3.98594e-07;-0.0688795;1.3807;0.453678;1.5306;0.121688
421200;4.0332e-07;4.03738e-07;-0.0591956;1.37925;0.455131;1.55035;0.121575
424800;4.03376e-07;4.03794e-07;-0.0372914;1.37779;0.456585;1.55057;0.121462
428400;4.05326e-07;4.05716e-07;-0.0587277;1.37633;0.458045;1.55795;0.121349
432000;4.0064e-07;4.01009e-07;-0.0732055;1.37489;0.459489;1.53988;0.121237
435600;4.00804e-07;4.01196e-07;-0.0620096;1.37345;0.460933;1.54059;0.121126
439200;4.00841e-07;4.01246e-07;-0.0438551;1.372;0.462378;1.54078;0.121014
442800;4.04853e-07;4.05271e-07;-0.0385912;1.37054;0.463837;1.55624;0.1209
446400;4.08002e-07;4.08399e-07;-0.0386686;1.36907;0.465307;1.56825;0.120786
450000;4.0551e-07;4.05903e-07;-0.0452586;1.36761;0.466768;1.55867;0.120673
453600;4.11582e-07;4.11809e-07;-0.207391;1.36613;0.468251;1.58135;0.120558
457200;4.25674e-07;4.25881e-07;-0.358033;1.3646;0.469784;1.63538;0.120439
460800;4.31858e-07;4.32201e-07;-0.27489;1.36304;0.47134;1.65965;0.120318
464400;4.37882e-07;4.38169e-07;-0.343038;1.36146;0.472917;1.68257;0.120196
468000;4.42772e-07;4.43134e-07;-0.28962;1.35987;0.474512;1.70163;0.120072
471600;4.41583e-07;4.41979e-07;-0.272837;1.35828;0.476104;1.6972;0.119948
475200;4.2688e-07;4.2728e-07;-0.275484;1.35674;0.477642;1.64075;0.119828
478800;3.90805e-07;3.91175e-07;-0.315732;1.35533;0.47905;1.50211;0.119719
482400;3.64222e-07;3.64625e-07;-0.216083;1.35402;0.480363;1.40016;0.119617
486000;3.52543e-07;3.53005e-07;-0.065414;1.35275;0.481633;1.35554;0.119518
489600;3.41788e-07;3.4215e-07;-0.0914532;1.35151;0.482865;1.31386;0.119422
493200;3.3524e-07;3.35582e-07;-0.100788;1.35031;0.484073;1.28864;0.119328
496800;3.29114e-07;3.29475e-07;-0.0806194;1.34912;0.485259;1.26518;0.119236
500400;3.24229e-07;3.24572e-07;-0.0629924;1.34795;0.486428;1.24636;0.119145
504000;3.18653e-07;3.19029e-07;-0.0187814;1.3468;0.487576;1.22507;0.119055
507600;3.17495e-07;3.17836e-07;-0.0314662;1.34566;0.488721;1.22049;0.118966
511200;3.13965e-07;3.14239e-07;-0.074376;1.34453;0.489852;1.20668;0.118878
514800;3.12907e-07;3.13159e-07;-0.117488;1.3434;0.490979;1.20253;0.11879
518400;3.11468e-07;3.11779e-07;-0.0627282;1.34228;0.492102;1.19723;0.118703
522000;3.08879e-07;3.09182e-07;-0.0556717;1.34116;0.493215;1.18726;0.118616
525600;3.11517e-07;3.11809e-07;-0.0647571;1.34004;0.494337;1.19735;0.118528
529200;3.13315e-07;3.13585e-07;-0.0954394;1.33891;0.495466;1.20417;0.11844
532800;3.1305e-07;3.13376e-07;-0.0353569;1.33779;0.496594;1.20336;0.118352
536400;3.09284e-07;3.09586e-07;-0.0301358;1.33667;0.497709;1.18881;0.118265
540000;3.13638e-07;3.13871e-07;-0.118905;1.33554;0.498839;1.20527;0.118177
543600;3.16853e-07;3.17073e-07;-0.162672;1.3344;0.49998;1.21756;0.118088
547200;3.19538e-07;3.19747e-07;-0.196655;1.33325;0.501131;1.22783;0.117998
550800;3.21055e-07;3.21285e-07;-0.207786;1.33209;0.502288;1.23373;0.117908
554400;3.19091e-07;3.19361e-07;-0.164192;1.33094;0.503438;1.22635;0.117818
558000;3.20753e-07;3.21022e-07;-0.165107;1.32979;0.504593;1.23272;0.117728
561600;3.18956e-07;3.19267e-07;-0.118926;1.32864;0.505743;1.22599;0.117638
565200;3.18019e-07;3.18378e-07;-0.046101;1.32749;0.506889;1.22257;0.117549
568800;3.17482e-07;3.17821e-07;-0.0326415;1.32635;0.508033;1.22043;0.117459
572400;3.16664e-07;3.17007e-07;-0.0120041;1.32521;0.509174;1.21731;0.11737
576000;3.19317e-07;3.19674e-07;0.00151292;1.32405;0.510325;1.22755;0.11728
579600;3.2185e-07;3.22197e-07;0.0130834;1.32289;0.511485;1.23724;0.117189
583200;3.21857e-07;3.22203e-07;0.0250679;1.32173;0.512645;1.23726;0.117099
586800;3.21153e-07;3.21524e-07;0.0576085;1.32058;0.513802;1.23465;0.117008
590400;3.21312e-07;3.2165e-07;0.0443855;1.31942;0.51496;1.23514;0.116917
594000;3.21265e-07;3.21623e-07;0.0681375;1.31826;0.516118;1.23503;0.116827
597600;3.21715e-07;3.22026e-07;0.0268805;1.3171;0.517277;1.23658;0.116736
601200;3.22382e-07;3.22704e-07;0.0239136;1.31594;0.518439;1.23918;0.116645
604800;3.23828e-07;3.2412e-07;-0.0112969;1.31477;0.519606;1.24462;0.116554
608400;3.21847e-07;3.22163e-07;0.000304447;1.31361;0.520766;1.23711;0.116463
612000;3.25855e-07;3.26142e-07;-0.0383548;1.31244;0.52194;1.25239;0.116371
615600;3.25821e-07;3.26145e-07;-0.00101128;1.31127;0.523114;1.2524;0.116279
619200;3.21935e-07;3.2223e-07;-0.0229576;1.31011;0.524274;1.23736;0.116188
622800;3.23195e-07;3.23489e-07;-0.0364492;1.30894;0.525439;1.2422;0.116097
626400;3.24034e-07;3.24329e-07;-0.0419246;1.30777;0.526606;1.24542;0.116005
630000;3.2514e-07;3.25424e-07;-0.0592889;1.3066;0.527778;1.24963;0.115913
633600;3.26967e-07;3.27257e-07;-0.070367;1.30542;0.528956;1.25667;0.115821
637200;3.2785e-07;3.28152e-07;-0.0613594;1.30424;0.530137;1.2601;0.115728
640800;3.28605e-07;3.2892e-07;-0.0496009;1.30306;0.531321;1.26305;0.115635
644400;3.30194e-07;3.30495e-07;-0.0634499;1.30187;0.532511;1.2691;0.115542
648000;3.31178e-07;3.31491e-07;-0.0504383;1.30068;0.533704;1.27293;0.115448
651600;3.31327e-07;3.31655e-07;-0.0314359;1.29948;0.534898;1.27356;0.115354
655200;3.33694e-07;3.33946e-07;-0.103741;1.29828;0.536101;1.28235;0.11526
658800;3.3488e-07;3.35226e-07;-0.0363931;1.29707;0.537307;1.28727;0.115165
662400;3.33909e-07;3.34341e-07;0.0685021;1.29587;0.538511;1.28387;0.11507
666000;3.33306e-07;3.33711e-07;0.0800744;1.29467;0.539712;1.28145;0.114976
669600;3.33413e-07;3.33771e-07;0.058838;1.29347;0.540914;1.28168;0.114882
673200;3.33565e-07;3.33944e-07;0.0798725;1.29226;0.542116;1.28235;0.114787
676800;3.30484e-07;3.30852e-07;0.0995259;1.29107;0.543307;1.27047;0.114693
680400;3.25271e-07;3.25677e-07;0.0879188;1.2899;0.54448;1.2506;0.114601
684000;3.14016e-07;3.14385e-07;0.0558341;1.28877;0.545611;1.20724;0.114512
687600;2.90635e-07;2.91035e-07;-0.0053576;1.28772;0.546659;1.11757;0.11443
691200;2.74476e-07;2.74748e-07;-0.0359346;1.28673;0.547648;1.05503;0.114352
