#Time[s];TotalMassChange[kg/(s*extFac)];WaterMassChange[kg/(s*extFac))];IntEnergyChange[J/(m^3*s*extFac)];WaterMass[kg/extFac];WaterMassLoss[kg/extFac];EvaporationRate[mm/d];MoistureContent[-]
1200;2.69488e-07;2.69561e-07;-1.06334;0.0095592;0.000323474;11.5013;0.215268
2400;4.73542e-07;4.74033e-07;0.0445774;0.00899036;0.000892313;20.2254;0.205082
3600;4.77583e-07;4.78084e-07;0.0696322;0.00841666;0.00146601;20.3982;0.194539
4800;4.76761e-07;4.7726e-07;0.0705514;0.00784395;0.00203873;20.3631;0.183731
6000;4.75748e-07;4.76246e-07;0.0706697;0.00727245;0.00261022;20.3198;0.172653
7200;4.74669e-07;4.75165e-07;0.0707583;0.00670226;0.00318042;20.2737;0.161298
8400;4.73581e-07;4.74076e-07;0.0708573;0.00613337;0.00374931;20.2272;0.149653
9600;4.72476e-07;4.7297e-07;0.0709587;0.0055658;0.00431687;20.18;0.13771
10800;4.71338e-07;4.71829e-07;0.0710573;0.00499961;0.00488307;20.1314;0.125457
12000;4.70158e-07;4.70649e-07;0.0711437;0.00443483;0.00544785;20.081;0.112883
13200;4.68927e-07;4.69415e-07;0.0712092;0.00387153;0.00601115;20.0284;0.0999766
14400;4.6762e-07;4.68106e-07;0.0712438;0.0033098;0.00657287;19.9725;0.0867276
15600;4.662e-07;4.66684e-07;0.0712358;0.00274978;0.0071329;19.9119;0.0731251
16800;4.64603e-07;4.65086e-07;0.0711689;0.00219168;0.007691;19.8437;0.0591606
18000;4.62714e-07;4.63195e-07;0.0710089;0.00163584;0.00824683;19.763;0.0448287
19200;4.60261e-07;4.60738e-07;0.070644;0.00108296;0.00879972;19.6581;0.0301335
20400;3.87954e-07;3.88221e-07;0.00339182;0.000617093;0.00926558;16.5641;0.0173961
21600;1.81654e-07;1.81709e-07;-0.0283237;0.000399042;0.00948363;7.75294;0.0113187
22800;1.03908e-07;1.03994e-07;-0.00655764;0.000274249;0.00960843;4.43708;0.0078066
24000;7.42739e-08;7.43694e-08;0.00413285;0.000185006;0.00969767;3.17309;0.00527965
25200;5.93357e-08;5.94142e-08;0.00872363;0.000113709;0.00976897;2.53501;0.0032516
26400;4.4927e-08;4.49969e-08;0.00301022;5.97127e-05;0.00982296;1.91987;0.00171017
27600;4.28872e-08;4.29773e-08;0.00657052;8.13998e-06;0.00987454;1.8337;0.000233473
28800;6.31708e-09;6.5541e-09;-0.0124756;2.75065e-07;0.0098824;0.279642;7.89122e-06
30000;6.14463e-13;1.41879e-14;-0.000448976;2.75048e-07;0.0098824;6.05351e-07;7.89073e-06
31200;2.26091e-14;5.22044e-16;-1.65213e-05;2.75048e-07;0.0098824;2.22739e-08;7.89071e-06
32400;1.24606e-15;2.87714e-17;-9.10545e-07;2.75048e-07;0.0098824;1.22758e-09;7.89071e-06
33600;9.59287e-17;2.21494e-18;-7.00989e-08;2.75048e-07;0.0098824;9.45042e-11;7.89071e-06
34800;7.3854e-18;1.70574e-19;-5.39684e-09;2.75048e-07;0.0098824;7.27781e-12;7.89071e-06
36000;5.68514e-19;1.31172e-20;-4.15442e-10;2.75048e-07;0.0098824;5.59669e-13;7.89071e-06
37200;4.40231e-20;9.9169e-22;-3.21491e-11;2.75048e-07;0.0098824;4.23121e-14;7.89071e-06
38400;3.44178e-21;1.07158e-22;-2.52688e-12;2.75048e-07;0.0098824;4.5721e-15;7.89071e-06
39600;-9.59971e-23;3.38372e-23;5.76013e-14;2.75048e-07;0.0098824;1.44372e-15;7.89071e-06
40800;1.94818e-22;6.97038e-24;-1.3794e-13;2.75048e-07;0.0098824;2.97403e-16;7.89071e-06
42000;2.48463e-22;-6.44098e-24;-1.84931e-13;2.75048e-07;0.0098824;-2.74815e-16;7.89071e-06
43200;-4.5881e-22;-1.19996e-23;3.50155e-13;2.75048e-07;0.0098824;-5.11984e-16;7.89071e-06
44400;1.11526e-22;-2.51463e-23;-8.03387e-14;2.75048e-07;0.0098824;-1.07291e-15;7.89071e-06
45600;-1.70818e-22;3.6793e-23;1.04592e-13;2.75048e-07;0.0098824;1.56983e-15;7.89071e-06
46800;1.15761e-22;-2.2764e-23;-5.30539e-14;2.75048e-07;0.0098824;-9.71264e-16;7.89071e-06
48000;-1.29878e-22;1.08967e-23;6.36646e-14;2.75048e-07;0.0098824;4.64927e-16;7.89071e-06
49200;2.5411e-22;-1.14702e-24;-1.87962e-13;2.75048e-07;0.0098824;-4.89397e-17;7.89071e-06
50400;-3.71283e-22;-3.32196e-23;2.83459e-13;2.75048e-07;0.0098824;-1.41737e-15;7.89071e-06
51600;1.56701e-22;6.66156e-24;-1.10655e-13;2.75048e-07;0.0098824;2.84227e-16;7.89071e-06
52800;1.90582e-22;1.86171e-23;-1.34908e-13;2.75048e-07;0.0098824;7.94329e-16;7.89071e-06
54000;1.83524e-23;-3.97929e-23;-1.06108e-14;2.75048e-07;0.0098824;-1.69783e-15;7.89071e-06
55200;1.62348e-22;1.93229e-23;-1.13687e-13;2.75048e-07;0.0098824;8.24445e-16;7.89071e-06
56400;8.75267e-23;1.14702e-23;-6.97279e-14;2.75048e-07;0.0098824;4.89397e-16;7.89071e-06
57600;-4.19281e-22;-2.24993e-24;3.04681e-13;2.75048e-07;0.0098824;-9.59971e-17;7.89071e-06
58800;4.51751e-23;-1.53525e-23;-2.88007e-14;2.75048e-07;0.0098824;-6.55039e-16;7.89071e-06
60000;2.31522e-22;3.57342e-23;-1.68257e-13;2.75048e-07;0.0098824;1.52466e-15;7.89071e-06
