"Sn";"Sw";"pn";"pn_rel";"pw";"pc";"rhoW";"rhoN";"mobW";"mobN";"X_liquid^H2O";"X_liquid^Air";"X_gas^H2O";"X_gas^Air";"x_liquid^H2O";"x_liquid^Air";"x_gas^H2O";"x_gas^Air";"porosity";"temperature";"phase presence";"vtkValidPointMask";"Time";"Point Coordinates:0";"Point Coordinates:1";"Point Coordinates:2"
0.02;0.98;1e+05;0;99100;900.44;997.05;1.1543;1116;4.8947;0.99998;2.1547e-05;0.019959;0.98004;0.99999;1.3404e-05;0.0317;0.9683;0.41;298.15;3;1;0;0.375;0.249;0
0.028786;0.97121;99945;-54.626;98970;975.46;997.05;1.1536;1098.2;18.185;0.99998;2.1535e-05;0.01997;0.98003;0.99999;1.3396e-05;0.031717;0.96828;0.41;298.15;3;1;0.005;0.375;0.249;0
0.24092;0.75908;1e+05;0.040538;98620;1380;998.47;1.1836;402.08;3327.1;0.99998;2.4212e-05;0.013563;0.98644;0.99998;1.5062e-05;0.021625;0.97838;0.41;291.89;3;1;7200;0.375;0.249;0
0.30549;0.69451;1e+05;0.040601;98560;1440.5;998.59;1.1867;302.23;5513.5;0.99998;2.454e-05;0.012997;0.987;0.99998;1.5266e-05;0.020729;0.97927;0.41;291.21;3;1;14400;0.375;0.249;0
0.35813;0.64187;1e+05;0.040691;98514;1486.2;998.66;1.1883;236.82;7698;0.99998;2.4714e-05;0.01271;0.98729;0.99998;1.5374e-05;0.020276;0.97972;0.41;290.86;3;1;21600;0.375;0.249;0
0.40313;0.59687;1e+05;0.040796;98476;1524;998.7;1.1895;189.81;9846.3;0.99998;2.4841e-05;0.012509;0.98749;0.99998;1.5453e-05;0.019956;0.98004;0.41;290.61;3;1;28800;0.375;0.249;0
0.44225;0.55775;1e+05;0.040907;98444;1556.5;998.74;1.1905;154.73;11920;0.99998;2.4944e-05;0.012347;0.98765;0.99998;1.5517e-05;0.0197;0.9803;0.41;290.4;3;1;36000;0.375;0.249;0
0.47684;0.52316;1e+05;0.041024;98415;1585.4;998.77;1.1913;127.75;13911;0.99998;2.5032e-05;0.012212;0.98779;0.99998;1.5572e-05;0.019487;0.98051;0.41;290.23;3;1;43200;0.375;0.249;0
0.50746;0.49254;1e+05;0.041141;98389;1611.4;998.79;1.192;106.75;15792;0.99998;2.5107e-05;0.012099;0.9879;0.99998;1.5618e-05;0.019308;0.98069;0.41;290.09;3;1;50400;0.375;0.249;0
0.53499;0.46501;1e+05;0.041257;98365;1635.2;998.82;1.1925;90.03;17577;0.99998;2.5172e-05;0.012002;0.988;0.99998;1.5659e-05;0.019154;0.98085;0.41;289.96;3;1;57600;0.375;0.249;0
0.5601;0.4399;1e+05;0.041371;98343;1657.4;998.84;1.1931;76.432;19280;0.99998;2.5228e-05;0.011919;0.98808;0.99998;1.5694e-05;0.019022;0.98098;0.41;289.85;3;1;64800;0.375;0.249;0
0.58308;0.41692;1e+05;0.041481;98322;1678.3;998.85;1.1935;65.282;20900;0.99998;2.5277e-05;0.011847;0.98815;0.99998;1.5724e-05;0.018909;0.98109;0.41;289.76;3;1;72000;0.375;0.249;0
0.60422;0.39579;1e+05;0.041585;98302;1698.1;998.86;1.1939;56.052;22439;0.99998;2.5319e-05;0.011787;0.98821;0.99998;1.575e-05;0.018813;0.98119;0.41;289.68;3;1;79200;0.375;0.249;0
0.6237;0.3763;1e+05;0.04168;98283;1716.9;998.88;1.1942;48.361;23901;0.99998;2.5355e-05;0.011735;0.98826;0.99998;1.5773e-05;0.01873;0.98127;0.41;289.61;3;1;86400;0.375;0.249;0
0.64169;0.35831;1e+05;0.041766;98265;1734.9;998.89;1.1945;41.926;25283;0.99998;2.5387e-05;0.01169;0.98831;0.99998;1.5793e-05;0.018659;0.98134;0.41;289.55;3;1;93600;0.375;0.249;0
0.65843;0.34157;1e+05;0.041843;98248;1752.2;998.9;1.1947;36.477;26599;0.99998;2.5414e-05;0.011651;0.98835;0.99998;1.581e-05;0.018598;0.9814;0.41;289.5;3;1;1.008e+05;0.375;0.249;0
0.67407;0.32593;1e+05;0.04191;98231;1768.9;998.9;1.1949;31.835;27851;0.99998;2.5438e-05;0.011618;0.98838;0.99998;1.5824e-05;0.018545;0.98146;0.41;289.45;3;1;1.08e+05;0.375;0.249;0
0.68871;0.31129;1e+05;0.041967;98215;1785.2;998.91;1.1951;27.862;29045;0.99998;2.5458e-05;0.011589;0.98841;0.99998;1.5837e-05;0.0185;0.9815;0.41;289.42;3;1;1.152e+05;0.375;0.249;0
0.70236;0.29765;1e+05;0.042014;98199;1800.9;998.91;1.1952;24.47;30174;0.99998;2.5475e-05;0.011565;0.98843;0.99998;1.5847e-05;0.018461;0.98154;0.41;289.38;3;1;1.224e+05;0.375;0.249;0
0.715;0.28499;1e+05;0.042053;98184;1816;998.92;1.1954;21.58;31235;0.99997;2.549e-05;0.011543;0.98846;0.99998;1.5857e-05;0.018427;0.98157;0.41;289.35;3;1;1.296e+05;0.375;0.249;0
0.727;0.273;1e+05;0.042083;98169;1830.8;998.92;1.1955;19.057;32253;0.99997;2.5503e-05;0.011525;0.98848;0.99998;1.5865e-05;0.018398;0.9816;0.41;289.33;3;1;1.368e+05;0.375;0.249;0
0.7384;0.2616;1e+05;0.042107;98155;1845.5;998.93;1.1956;16.847;33231;0.99997;2.5515e-05;0.011509;0.98849;0.99998;1.5872e-05;0.018373;0.98163;0.41;289.31;3;1;1.44e+05;0.375;0.249;0
0.7492;0.2508;1e+05;0.042125;98140;1859.9;998.93;1.1957;14.916;34167;0.99997;2.5524e-05;0.011495;0.98851;0.99998;1.5878e-05;0.018351;0.98165;0.41;289.29;3;1;1.512e+05;0.375;0.249;0
0.75942;0.24058;1e+05;0.042137;98126;1874;998.93;1.1957;13.227;35061;0.99997;2.5533e-05;0.011484;0.98852;0.99998;1.5883e-05;0.018332;0.98167;0.41;289.27;3;1;1.584e+05;0.375;0.249;0
0.76912;0.23088;1e+05;0.042145;98112;1888;998.93;1.1958;11.745;35916;0.99997;2.554e-05;0.011473;0.98853;0.99998;1.5888e-05;0.018316;0.98168;0.41;289.26;3;1;1.656e+05;0.375;0.249;0
0.77833;0.22167;1e+05;0.042149;98098;1901.8;998.94;1.1959;10.443;36733;0.99997;2.5546e-05;0.011465;0.98853;0.99998;1.5892e-05;0.018302;0.9817;0.41;289.25;3;1;1.728e+05;0.375;0.249;0
0.78708;0.21292;1e+05;0.042149;98085;1915.3;998.94;1.1959;9.2966;37515;0.99997;2.5552e-05;0.011457;0.98854;0.99998;1.5895e-05;0.01829;0.98171;0.41;289.24;3;1;1.8e+05;0.375;0.249;0
0.79541;0.20459;1e+05;0.042146;98071;1928.8;998.94;1.196;8.2855;38263;0.99997;2.5557e-05;0.011451;0.98855;0.99998;1.5898e-05;0.01828;0.98172;0.41;289.23;3;1;1.872e+05;0.375;0.249;0
0.80333;0.19667;1e+05;0.04214;98058;1942.1;998.94;1.196;7.3925;38978;0.99997;2.5561e-05;0.011445;0.98856;0.99998;1.5901e-05;0.018271;0.98173;0.41;289.22;3;1;1.944e+05;0.375;0.249;0
0.81087;0.18913;1e+05;0.042133;98045;1955.2;998.94;1.196;6.603;39662;0.99997;2.5565e-05;0.01144;0.98856;0.99998;1.5903e-05;0.018263;0.98174;0.41;289.21;3;1;2.016e+05;0.375;0.249;0
0.81803;0.18197;1e+05;0.042125;98032;1968.2;998.94;1.1961;5.9061;40314;0.99997;2.5568e-05;0.011436;0.98856;0.99998;1.5905e-05;0.018256;0.98174;0.41;289.21;3;1;2.088e+05;0.375;0.249;0
0.82484;0.17516;1e+05;0.042115;98019;1981.1;998.94;1.1961;5.289;40936;0.99997;2.557e-05;0.011432;0.98857;0.99998;1.5907e-05;0.018251;0.98175;0.41;289.2;3;1;2.16e+05;0.375;0.249;0
0.83135;0.16865;1e+05;0.042104;98006;1993.8;998.95;1.1961;4.7405;41532;0.99997;2.5573e-05;0.011429;0.98857;0.99998;1.5908e-05;0.018245;0.98176;0.41;289.2;3;1;2.232e+05;0.375;0.249;0
0.83756;0.16244;1e+05;0.042093;97994;2006.4;998.95;1.1961;4.2524;42103;0.99997;2.5575e-05;0.011426;0.98857;0.99998;1.5909e-05;0.018241;0.98176;0.41;289.2;3;1;2.304e+05;0.375;0.249;0
0.84349;0.15651;1e+05;0.042081;97981;2019;998.95;1.1961;3.8175;42650;0.99997;2.5577e-05;0.011424;0.98858;0.99998;1.5911e-05;0.018237;0.98176;0.41;289.19;3;1;2.376e+05;0.375;0.249;0
0.84916;0.15084;1e+05;0.042069;97969;2031.5;998.95;1.1961;3.4303;43174;0.99997;2.5578e-05;0.011421;0.98858;0.99998;1.5912e-05;0.018234;0.98177;0.41;289.19;3;1;2.448e+05;0.375;0.249;0
0.85453;0.14548;1e+05;0.042056;97956;2043.7;998.95;1.1962;3.088;43670;0.99997;2.558e-05;0.01142;0.98858;0.99998;1.5912e-05;0.018231;0.98177;0.41;289.19;3;1;2.52e+05;0.375;0.249;0
0.85961;0.14039;1e+05;0.042044;97944;2055.8;998.95;1.1962;2.7848;44140;0.99997;2.5581e-05;0.011418;0.98858;0.99998;1.5913e-05;0.018228;0.98177;0.41;289.18;3;1;2.592e+05;0.375;0.249;0
0.86451;0.13549;1e+05;0.042032;97932;2067.9;998.95;1.1962;2.5113;44595;0.99997;2.5582e-05;0.011417;0.98858;0.99998;1.5914e-05;0.018226;0.98177;0.41;289.18;3;1;2.664e+05;0.375;0.249;0
0.86926;0.13074;1e+05;0.04202;97920;2080.1;998.95;1.1962;2.2634;45036;0.99997;2.5583e-05;0.011415;0.98858;0.99998;1.5914e-05;0.018224;0.98178;0.41;289.18;3;1;2.736e+05;0.375;0.249;0
0.87383;0.12617;1e+05;0.042008;97908;2092.2;998.95;1.1962;2.0405;45460;0.99997;2.5583e-05;0.011414;0.98859;0.99998;1.5915e-05;0.018223;0.98178;0.41;289.18;3;1;2.808e+05;0.375;0.249;0
0.87821;0.12179;1e+05;0.041996;97896;2104.4;998.95;1.1962;1.8406;45867;0.99997;2.5584e-05;0.011413;0.98859;0.99998;1.5915e-05;0.018221;0.98178;0.41;289.18;3;1;2.88e+05;0.375;0.249;0
0.8824;0.1176;1e+05;0.041984;97884;2116.4;998.95;1.1962;1.6619;46255;0.99997;2.5585e-05;0.011413;0.98859;0.99998;1.5916e-05;0.01822;0.98178;0.41;289.18;3;1;2.952e+05;0.375;0.249;0
0.8864;0.1136;1e+05;0.041973;97872;2128.3;998.95;1.1962;1.5017;46628;0.99997;2.5585e-05;0.011412;0.98859;0.99998;1.5916e-05;0.018219;0.98178;0.41;289.18;3;1;3.024e+05;0.375;0.249;0
0.89025;0.10975;1e+05;0.041962;97860;2140.3;998.95;1.1962;1.3577;46984;0.99997;2.5586e-05;0.011411;0.98859;0.99998;1.5916e-05;0.018218;0.98178;0.41;289.17;3;1;3.096e+05;0.375;0.249;0
0.89394;0.10606;1e+05;0.041951;97848;2152.2;998.95;1.1962;1.228;47327;0.99997;2.5586e-05;0.011411;0.98859;0.99998;1.5916e-05;0.018217;0.98178;0.41;289.17;3;1;3.168e+05;0.375;0.249;0
0.89749;0.10251;1e+05;0.04194;97836;2164;998.95;1.1962;1.1112;47660;0.99997;2.5586e-05;0.01141;0.98859;0.99998;1.5917e-05;0.018216;0.98178;0.41;289.17;3;1;3.24e+05;0.375;0.249;0
0.90089;0.099106;1e+05;0.041929;97824;2175.9;998.95;1.1962;1.0059;47996;0.99997;2.5587e-05;0.01141;0.98859;0.99998;1.5917e-05;0.018215;0.98178;0.41;289.17;3;1;3.312e+05;0.375;0.249;0
0.90417;0.095827;1e+05;0.041918;97812;2187.8;998.95;1.1962;0.91099;48334;0.99997;2.5587e-05;0.01141;0.98859;0.99998;1.5917e-05;0.018215;0.98178;0.41;289.17;3;1;3.384e+05;0.375;0.249;0
0.90733;0.092674;1e+05;0.041906;97800;2199.6;998.95;1.1962;0.8253;48669;0.99997;2.5587e-05;0.011409;0.98859;0.99998;1.5917e-05;0.018214;0.98179;0.41;289.17;3;1;3.456e+05;0.375;0.249;0
0.91036;0.089639;1e+05;0.041895;97789;2211.4;998.95;1.1962;0.7479;49001;0.99997;2.5587e-05;0.011409;0.98859;0.99998;1.5917e-05;0.018214;0.98179;0.41;289.17;3;1;3.528e+05;0.375;0.249;0
0.91328;0.086717;1e+05;0.041884;97777;2223.2;998.95;1.1962;0.67796;49326;0.99997;2.5587e-05;0.011409;0.98859;0.99998;1.5917e-05;0.018214;0.98179;0.41;289.17;3;1;3.6e+05;0.375;0.249;0
0.9161;0.083903;1e+05;0.041873;97765;2235.1;998.95;1.1962;0.61472;49645;0.99997;2.5588e-05;0.011409;0.98859;0.99998;1.5917e-05;0.018213;0.98179;0.41;289.17;3;1;3.672e+05;0.375;0.249;0
0.91881;0.081192;1e+05;0.041862;97753;2246.9;998.95;1.1962;0.55751;49956;0.99997;2.5588e-05;0.011408;0.98859;0.99998;1.5917e-05;0.018213;0.98179;0.41;289.17;3;1;3.744e+05;0.375;0.249;0
0.92142;0.07858;1e+05;0.041852;97741;2258.8;998.95;1.1962;0.50573;50258;0.99997;2.5588e-05;0.011408;0.98859;0.99998;1.5918e-05;0.018213;0.98179;0.41;289.17;3;1;3.816e+05;0.375;0.249;0
0.92394;0.076062;1e+05;0.041842;97729;2270.6;998.95;1.1962;0.45887;50550;0.99997;2.5588e-05;0.011408;0.98859;0.99998;1.5918e-05;0.018213;0.98179;0.41;289.17;3;1;3.888e+05;0.375;0.249;0
0.92636;0.07364;1e+05;0.041833;97718;2282.5;998.95;1.1962;0.4165;50832;0.99997;2.5588e-05;0.011408;0.98859;0.99998;1.5918e-05;0.018212;0.98179;0.41;289.17;3;1;3.96e+05;0.375;0.249;0
0.92869;0.071313;1e+05;0.041824;97706;2294.3;998.95;1.1962;0.37826;51103;0.99997;2.5588e-05;0.011408;0.98859;0.99998;1.5918e-05;0.018212;0.98179;0.41;289.17;3;1;4.032e+05;0.375;0.249;0
0.93093;0.069067;1e+05;0.041815;97694;2306.2;998.95;1.1962;0.34356;51363;0.99997;2.5588e-05;0.011408;0.98859;0.99998;1.5918e-05;0.018212;0.98179;0.41;289.17;3;1;4.104e+05;0.375;0.249;0
0.9331;0.066898;1e+05;0.041807;97682;2318.1;998.95;1.1962;0.31206;51614;0.99997;2.5588e-05;0.011408;0.98859;0.99998;1.5918e-05;0.018212;0.98179;0.41;289.17;3;1;4.176e+05;0.375;0.249;0
0.9352;0.064801;1e+05;0.041799;97670;2330;998.95;1.1962;0.28343;51855;0.99997;2.5588e-05;0.011408;0.98859;0.99998;1.5918e-05;0.018212;0.98179;0.41;289.17;3;1;4.248e+05;0.375;0.249;0
0.93723;0.062773;1e+05;0.041791;97658;2342;998.95;1.1962;0.25741;52086;0.99997;2.5588e-05;0.011408;0.98859;0.99998;1.5918e-05;0.018212;0.98179;0.41;289.17;3;1;4.32e+05;0.375;0.249;0
0.93919;0.060811;1e+05;0.041784;97646;2354;998.95;1.1962;0.23374;52307;0.99997;2.5588e-05;0.011407;0.98859;0.99998;1.5918e-05;0.018212;0.98179;0.41;289.17;3;1;4.392e+05;0.375;0.249;0
0.94109;0.058911;1e+05;0.041777;97634;2366.2;998.95;1.1962;0.2122;52519;0.99997;2.5588e-05;0.011407;0.98859;0.99998;1.5918e-05;0.018212;0.98179;0.41;289.17;3;1;4.464e+05;0.375;0.249;0
0.94293;0.057071;1e+05;0.041771;97622;2378.4;998.95;1.1962;0.1926;52721;0.99997;2.5589e-05;0.011407;0.98859;0.99998;1.5918e-05;0.018212;0.98179;0.41;289.17;3;1;4.536e+05;0.375;0.249;0
0.94471;0.055286;1e+05;0.041765;97609;2390.7;998.95;1.1962;0.17473;52915;0.99997;2.5589e-05;0.011407;0.98859;0.99998;1.5918e-05;0.018211;0.98179;0.41;289.17;3;1;4.608e+05;0.375;0.249;0
0.94644;0.053555;1e+05;0.041759;97597;2403.1;998.95;1.1962;0.15846;53100;0.99997;2.5589e-05;0.011407;0.98859;0.99998;1.5918e-05;0.018211;0.98179;0.41;289.17;3;1;4.68e+05;0.375;0.249;0
0.94813;0.051873;1e+05;0.041753;97584;2415.6;998.95;1.1962;0.14362;53278;0.99997;2.5589e-05;0.011407;0.98859;0.99998;1.5918e-05;0.018211;0.98179;0.41;289.17;3;1;4.752e+05;0.375;0.249;0
0.94976;0.05024;1e+05;0.041748;97572;2428.2;998.95;1.1962;0.13009;53447;0.99997;2.5589e-05;0.011407;0.98859;0.99998;1.5918e-05;0.018211;0.98179;0.41;289.17;3;1;4.824e+05;0.375;0.249;0
0.95135;0.048651;1e+05;0.041743;97559;2441.1;998.95;1.1962;0.11774;53608;0.99997;2.5589e-05;0.011407;0.98859;0.99998;1.5918e-05;0.018211;0.98179;0.41;289.17;3;1;4.896e+05;0.375;0.249;0
0.9529;0.047104;1e+05;0.041738;97546;2454;998.95;1.1962;0.10646;53762;0.99997;2.5589e-05;0.011407;0.98859;0.99998;1.5918e-05;0.018211;0.98179;0.41;289.17;3;1;4.968e+05;0.375;0.249;0
0.9544;0.045598;1e+05;0.041733;97533;2467.2;998.95;1.1962;0.096175;53910;0.99997;2.5589e-05;0.011407;0.98859;0.99998;1.5918e-05;0.018211;0.98179;0.41;289.17;3;1;5.04e+05;0.375;0.249;0
0.95587;0.04413;1e+05;0.041729;97520;2480.6;998.95;1.1962;0.086783;54050;0.99997;2.5589e-05;0.011407;0.98859;0.99998;1.5918e-05;0.018211;0.98179;0.41;289.17;3;1;5.112e+05;0.375;0.249;0
0.9573;0.0427;1e+05;0.041725;97506;2494.1;998.95;1.1962;0.078228;54184;0.99997;2.5589e-05;0.011407;0.98859;0.99998;1.5918e-05;0.018211;0.98179;0.41;289.17;3;1;5.184e+05;0.375;0.249;0
0.95869;0.041309;1e+05;0.041721;97492;2507.9;998.95;1.1962;0.070441;54311;0.99997;2.5589e-05;0.011407;0.98859;0.99998;1.5918e-05;0.018211;0.98179;0.41;289.17;3;1;5.256e+05;0.375;0.249;0
0.96005;0.039948;1e+05;0.041718;97478;2521.9;998.95;1.1962;0.063319;54432;0.99997;2.5589e-05;0.011407;0.98859;0.99998;1.5918e-05;0.018211;0.98179;0.41;289.17;3;1;5.328e+05;0.375;0.249;0
0.96139;0.038613;1e+05;0.041714;97464;2536.3;998.95;1.1962;0.056802;54548;0.99997;2.5589e-05;0.011407;0.98859;0.99998;1.5918e-05;0.018211;0.98179;0.41;289.17;3;1;5.4e+05;0.375;0.249;0
0.9627;0.037302;1e+05;0.041711;97449;2551.1;998.95;1.1962;0.050836;54659;0.99997;2.5589e-05;0.011407;0.98859;0.99998;1.5918e-05;0.018211;0.98179;0.41;289.17;3;1;5.472e+05;0.375;0.249;0
0.96399;0.036012;1e+05;0.041708;97434;2566.2;998.95;1.1962;0.045374;54766;0.99997;2.5589e-05;0.011407;0.98859;0.99998;1.5918e-05;0.018211;0.98179;0.41;289.17;3;1;5.544e+05;0.375;0.249;0
0.96526;0.034739;1e+05;0.041705;97418;2581.9;998.95;1.1962;0.040372;54867;0.99997;2.5589e-05;0.011407;0.98859;0.99998;1.5918e-05;0.018211;0.98179;0.41;289.17;3;1;5.616e+05;0.375;0.249;0
0.96652;0.033482;1e+05;0.041702;97402;2598.2;998.95;1.1962;0.03579;54965;0.99997;2.5589e-05;0.011407;0.98859;0.99998;1.5918e-05;0.018211;0.98179;0.41;289.17;3;1;5.688e+05;0.375;0.249;0
0.96776;0.032235;1e+05;0.041699;97385;2615.2;998.95;1.1962;0.031592;55058;0.99997;2.5589e-05;0.011407;0.98859;0.99998;1.5918e-05;0.018211;0.98179;0.41;289.17;3;1;5.76e+05;0.375;0.249;0
0.969;0.030997;1e+05;0.041696;97367;2632.9;998.95;1.1962;0.027747;55148;0.99997;2.5589e-05;0.011407;0.98859;0.99998;1.5918e-05;0.018211;0.98179;0.41;289.17;3;1;5.832e+05;0.375;0.249;0
0.97024;0.029761;1e+05;0.041694;97348;2651.6;998.95;1.1962;0.024225;55234;0.99997;2.5589e-05;0.011407;0.98859;0.99998;1.5918e-05;0.018211;0.98179;0.41;289.17;3;1;5.904e+05;0.375;0.249;0
0.97148;0.028524;1e+05;0.041691;97329;2671.3;998.95;1.1962;0.020999;55318;0.99997;2.5589e-05;0.011407;0.98859;0.99998;1.5918e-05;0.018211;0.98179;0.41;289.17;3;1;5.976e+05;0.375;0.249;0
0.97272;0.02728;1e+05;0.041689;97308;2692.4;998.95;1.1962;0.018047;55398;0.99997;2.5589e-05;0.011407;0.98859;0.99998;1.5918e-05;0.018211;0.98179;0.41;289.17;3;1;6.048e+05;0.375;0.249;0
0.97398;0.026022;1e+05;0.041687;97285;2715.2;998.95;1.1962;0.015348;55475;0.99997;2.5589e-05;0.011407;0.98859;0.99998;1.5918e-05;0.018211;0.98179;0.41;289.17;3;1;6.12e+05;0.375;0.249;0
0.97526;0.024741;1e+05;0.041685;97260;2740;998.95;1.1962;0.012881;55550;0.99997;2.5589e-05;0.011407;0.98859;0.99998;1.5918e-05;0.018211;0.98179;0.41;289.17;3;1;6.192e+05;0.375;0.249;0
0.97658;0.023426;1e+05;0.041684;97233;2767.4;998.95;1.1962;0.010628;55623;0.99997;2.5589e-05;0.011407;0.98859;0.99998;1.5918e-05;0.01821;0.98179;0.41;289.17;3;1;6.264e+05;0.375;0.249;0
0.97795;0.022053;1e+05;0.041684;97202;2798.5;998.95;1.1962;0.0085658;55695;0.99997;2.5589e-05;0.011407;0.98859;0.99998;1.5918e-05;0.01821;0.98179;0.41;289.17;3;1;6.336e+05;0.375;0.249;0
0.9794;0.020601;1e+05;0.041686;97165;2834.6;998.95;1.1962;0.0066847;55765;0.99997;2.5589e-05;0.011407;0.98859;0.99998;1.5918e-05;0.018211;0.98179;0.41;289.17;3;1;6.408e+05;0.375;0.249;0
0.98096;0.019036;1e+05;0.04169;97122;2878.1;998.95;1.1962;0.0049793;55835;0.99997;2.5588e-05;0.011408;0.98859;0.99998;1.5918e-05;0.018213;0.98179;0.41;289.17;3;1;6.48e+05;0.375;0.249;0
0.98271;0.017293;1e+05;0.041697;97066;2933.6;998.95;1.1962;0.003441;55905;0.99997;2.5586e-05;0.01141;0.98859;0.99998;1.5917e-05;0.018216;0.98178;0.41;289.17;3;1;6.552e+05;0.375;0.249;0
0.98475;0.015248;1e+05;0.041709;96989;3011.3;998.95;1.1962;0.0020727;55976;0.99997;2.5584e-05;0.011413;0.98859;0.99998;1.5915e-05;0.018221;0.98178;0.41;289.18;3;1;6.624e+05;0.375;0.249;0
0.98776;0.012245;1e+05;0.041723;96856;3143.5;998.95;1.1961;0.00078899;56057;0.99997;2.5576e-05;0.011424;0.98858;0.99998;1.591e-05;0.018238;0.98176;0.41;289.19;3;1;6.696e+05;0.375;0.249;0
0.98961;0.010387;1e+05;0.041825;96774;3225.5;998.9;1.1949;0.00034785;56064;0.99998;2.5441e-05;0.011613;0.98839;0.99998;1.5826e-05;0.018538;0.98146;0.41;289.45;3;1;6.768e+05;0.375;0.249;0
0.9899;0.010104;1e+05;0.041986;96762;3238;998.85;1.1934;0.00030176;56030;0.99998;2.5273e-05;0.011853;0.98815;0.99998;1.5722e-05;0.018918;0.98108;0.41;289.77;3;1;6.84e+05;0.375;0.249;0
0.99019;0.0098107;1e+05;0.042203;96749;3251;998.8;1.192;0.00025799;55998;0.99998;2.511e-05;0.012094;0.98791;0.99998;1.562e-05;0.0193;0.9807;0.41;290.08;3;1;6.912e+05;0.375;0.249;0
0.9905;0.0095053;1e+05;0.042422;96736;3264.5;998.74;1.1906;0.00021656;55967;0.99998;2.4957e-05;0.012327;0.98767;0.99998;1.5525e-05;0.019669;0.98033;0.41;290.38;3;1;6.984e+05;0.375;0.249;0
0.99082;0.009181;1e+05;0.04263;96721;3278.8;998.69;1.1893;0.00017713;55939;0.99998;2.4815e-05;0.012548;0.98745;0.99998;1.5437e-05;0.020019;0.97998;0.41;290.66;3;1;7.056e+05;0.375;0.249;0
0.99117;0.0088281;1e+05;0.042827;96706;3294.4;998.65;1.1881;0.00013945;55914;0.99998;2.4685e-05;0.012757;0.98724;0.99998;1.5356e-05;0.02035;0.97965;0.41;290.92;3;1;7.128e+05;0.375;0.249;0
0.99157;0.0084258;1e+05;0.043014;96688;3312.1;998.6;1.1869;0.00010298;55891;0.99998;2.4565e-05;0.012954;0.98705;0.99998;1.5282e-05;0.020662;0.97934;0.41;291.16;3;1;7.2e+05;0.375;0.249;0
0.99206;0.0079363;1e+05;0.043191;96666;3333.7;998.56;1.1859;6.7403e-05;55870;0.99998;2.4455e-05;0.01314;0.98686;0.99998;1.5213e-05;0.020956;0.97904;0.41;291.39;3;1;7.272e+05;0.375;0.249;0
0.99274;0.0072551;1e+05;0.043358;96636;3363.8;998.52;1.1849;3.2475e-05;55852;0.99998;2.4356e-05;0.013311;0.98669;0.99998;1.5151e-05;0.021227;0.97877;0.41;291.59;3;1;7.344e+05;0.375;0.249;0
0.99434;0.0056557;1e+05;0.043506;96566;3434.4;998.49;1.1842;1.0446e-06;55841;0.99998;2.4274e-05;0.013452;0.98655;0.99998;1.5101e-05;0.02145;0.97855;0.41;291.76;3;1;7.416e+05;0.375;0.249;0
1;0;1e+05;0.043439;96316;3684.1;998.46;1.1836;0;55811;0.97931;2.4209e-05;0.013307;0.98669;0.97931;1.506e-05;0.02122;0.97878;0.41;291.92;2;1;7.488e+05;0.375;0.249;0
1;0;1e+05;0.043282;96316;3684.1;998.42;1.183;0;55772;0.95224;2.413e-05;0.013097;0.9869;0.95225;1.5011e-05;0.020887;0.97911;0.41;292.11;2;1;7.56e+05;0.375;0.249;0
1;0;1e+05;0.043156;96316;3684.1;998.39;1.1824;0;55735;0.92805;2.4056e-05;0.01291;0.98709;0.92806;1.4965e-05;0.020592;0.97941;0.41;292.3;2;1;7.632e+05;0.375;0.249;0
1;0;1e+05;0.043041;96316;3684.1;998.35;1.1818;0;55700;0.90562;2.3985e-05;0.012738;0.98726;0.90563;1.492e-05;0.020319;0.97968;0.41;292.48;2;1;7.704e+05;0.375;0.249;0
1;0;1e+05;0.042936;96316;3684.1;998.32;1.1812;0;55668;0.88514;2.3918e-05;0.012579;0.98742;0.88515;1.4879e-05;0.020069;0.97993;0.41;292.64;2;1;7.776e+05;0.375;0.249;0
1;0;1e+05;0.042839;96316;3684.1;998.28;1.1807;0;55637;0.86651;2.3855e-05;0.012435;0.98757;0.86652;1.484e-05;0.019839;0.98016;0.41;292.8;2;1;7.848e+05;0.375;0.249;0
1;0;1e+05;0.042751;96316;3684.1;998.26;1.1802;0;55609;0.84939;2.3797e-05;0.012301;0.9877;0.8494;1.4804e-05;0.019628;0.98037;0.41;292.95;2;1;7.92e+05;0.375;0.249;0
1;0;1e+05;0.042671;96316;3684.1;998.23;1.1797;0;55583;0.83396;2.3743e-05;0.012181;0.98782;0.83397;1.477e-05;0.019438;0.98056;0.41;293.09;2;1;7.992e+05;0.375;0.249;0
1;0;1e+05;0.042604;96316;3684.1;998.2;1.1793;0;55559;0.82049;2.3694e-05;0.012077;0.98792;0.8205;1.4739e-05;0.019272;0.98073;0.41;293.21;2;1;8.064e+05;0.375;0.249;0
1;0;1e+05;0.042569;96316;3684.1;998.18;1.1789;0;55540;0.81087;2.3653e-05;0.012011;0.98799;0.81088;1.4714e-05;0.019168;0.98083;0.41;293.32;2;1;8.136e+05;0.375;0.249;0
1;0;1e+05;0.042619;96316;3684.1;998.16;1.1785;0;55530;0.80951;2.3619e-05;0.01205;0.98795;0.80952;1.4693e-05;0.01923;0.98077;0.41;293.4;2;1;8.208e+05;0.375;0.249;0
1;0;1e+05;0.042464;96316;3684.1;998.14;1.1781;0;55502;0.79017;2.357e-05;0.011859;0.98814;0.79018;1.4662e-05;0.018928;0.98107;0.41;293.53;2;1;8.28e+05;0.375;0.249;0
1;0;1e+05;0.042388;96316;3684.1;998.11;1.1777;0;55479;0.77723;2.3524e-05;0.011751;0.98825;0.77724;1.4633e-05;0.018757;0.98124;0.41;293.65;2;1;8.352e+05;0.375;0.249;0
1;0;1e+05;0.042321;96316;3684.1;998.09;1.1773;0;55457;0.76515;2.3479e-05;0.011651;0.98835;0.76516;1.4606e-05;0.018597;0.9814;0.41;293.77;2;1;8.424e+05;0.375;0.249;0
1;0;1e+05;0.042258;96316;3684.1;998.06;1.1769;0;55436;0.75379;2.3437e-05;0.011556;0.98844;0.7538;1.458e-05;0.018448;0.98155;0.41;293.88;2;1;8.496e+05;0.375;0.249;0
1;0;1e+05;0.042199;96316;3684.1;998.04;1.1766;0;55416;0.74319;2.3397e-05;0.011468;0.98853;0.7432;1.4555e-05;0.018308;0.98169;0.41;293.99;2;1;8.568e+05;0.375;0.249;0
1;0;1e+05;0.042144;96316;3684.1;998.02;1.1762;0;55397;0.73341;2.336e-05;0.011386;0.98861;0.73342;1.4532e-05;0.018178;0.98182;0.41;294.09;2;1;8.64e+05;0.375;0.249;0
