logfile 128.0m Final evaporation rate [mm/d]: 1.80975 tEnd[d]: 5 lastRelativeChange[-]: 0.999457 velocity[m/s]: 3.5 patchSize[m]: 128 patchLocation[m]: 65
logfile 64.0m Final evaporation rate [mm/d]: 2.35474 tEnd[d]: 5 lastRelativeChange[-]: 0.99971 velocity[m/s]: 3.5 patchSize[m]: 64 patchLocation[m]: 33
logfile 32.0m Final evaporation rate [mm/d]: 2.6869 tEnd[d]: 5 lastRelativeChange[-]: 0.999789 velocity[m/s]: 3.5 patchSize[m]: 32 patchLocation[m]: 17
logfile 16.0m Final evaporation rate [mm/d]: 2.82864 tEnd[d]: 5 lastRelativeChange[-]: 0.999815 velocity[m/s]: 3.5 patchSize[m]: 16 patchLocation[m]: 9
logfile 8.0m Final evaporation rate [mm/d]: 2.96962 tEnd[d]: 5 lastRelativeChange[-]: 0.999835 velocity[m/s]: 3.5 patchSize[m]: 8 patchLocation[m]: 5
logfile 4.0m Final evaporation rate [mm/d]: 3.1214 tEnd[d]: 5 lastRelativeChange[-]: 0.999854 velocity[m/s]: 3.5 patchSize[m]: 4 patchLocation[m]: 3
logfile 2.0m Final evaporation rate [mm/d]: 3.42953 tEnd[d]: 5 lastRelativeChange[-]: 0.999884 velocity[m/s]: 3.5 patchSize[m]: 2 patchLocation[m]: 2
logfile 1.0m Final evaporation rate [mm/d]: 3.73672 tEnd[d]: 5 lastRelativeChange[-]: 0.999904 velocity[m/s]: 3.5 patchSize[m]: 1 patchLocation[m]: 1.5
logfile 0.5m Final evaporation rate [mm/d]: 3.94215 tEnd[d]: 5 lastRelativeChange[-]: 0.999915 velocity[m/s]: 3.5 patchSize[m]: 0.5 patchLocation[m]: 1.25
logfile 0.25m Final evaporation rate [mm/d]: 4.06089 tEnd[d]: 5 lastRelativeChange[-]: 0.999921 velocity[m/s]: 3.5 patchSize[m]: 0.25 patchLocation[m]: 1.125
