Time[s];TotalWaterVaporFluxFF[kg/(m*s)];EvapRate[mm/d];AdvWaterVaporFluxFF[kg/(m*s)];DiffWaterVaporFluxFF[kg/(m*s)];EnergyFluxFF;TotalWaterVaporFluxFF_1[kg/(m*s)];EvapRate_1[mm/d];AdvWaterVaporFluxFF_1[kg/(m*s)];DiffWaterVaporFluxFF_1[kg/(m*s)];EnergyFluxFF_1;TotalWaterVaporFluxFF_2[kg/(m*s)];EvapRate_2[mm/d];AdvWaterVaporFluxFF_2[kg/(m*s)];DiffWaterVaporFluxFF_2[kg/(m*s)];EnergyFluxFF_2;
0.05;5.19272e-05;22.4325;-1.09887e-06;4.18474e-05;128.483;2.73764e-05;23.6532;-5.67485e-07;2.1959e-05;68.2641;2.45508e-05;21.2119;-5.31381e-07;1.98884e-05;60.2185;
7200;1.01121e-05;4.36844;-1.59904e-07;9.88623e-06;13.2607;5.93893e-06;5.13123;-9.02196e-08;5.70657e-06;6.8443;4.17321e-06;3.60566;-6.96839e-08;4.17966e-06;6.41644;
14400;8.0919e-06;3.4957;-1.16808e-07;7.91415e-06;5.29006;4.87288e-06;4.21017;-6.8164e-08;4.67367e-06;2.54986;3.21901e-06;2.78123;-4.86442e-08;3.24048e-06;2.7402;
21600;7.39766e-06;3.19579;-1.03401e-07;7.23534e-06;2.4932;4.54844e-06;3.92985;-6.1958e-08;4.35891e-06;1.21678;2.84923e-06;2.46173;-4.14433e-08;2.87643e-06;1.27642;
28800;7.14425e-06;3.08632;-9.87057e-08;6.98741e-06;1.46117;4.44209e-06;3.83797;-5.99741e-08;4.25569e-06;0.776929;2.70216e-06;2.33467;-3.87315e-08;2.73172e-06;0.684246;
36000;7.04897e-06;3.04515;-9.69776e-08;6.89415e-06;1.07351;4.40656e-06;3.80727;-5.93165e-08;4.2212e-06;0.630082;2.6424e-06;2.28304;-3.76611e-08;2.67295e-06;0.443431;
43200;7.01213e-06;3.02924;-9.63192e-08;6.85808e-06;0.924187;4.39431e-06;3.79669;-5.90892e-08;4.2093e-06;0.579584;2.61782e-06;2.2618;-3.723e-08;2.64878e-06;0.344604;
50400;6.9979e-06;3.02309;-9.60682e-08;6.84414e-06;0.866281;4.39009e-06;3.79304;-5.90092e-08;4.2052e-06;0.562124;2.60781e-06;2.25315;-3.7059e-08;2.63894e-06;0.304157;
57600;6.99242e-06;3.02073;-9.59739e-08;6.83878e-06;0.844049;4.38865e-06;3.79179;-5.89799e-08;4.2038e-06;0.556182;2.60377e-06;2.24966;-3.69939e-08;2.63498e-06;0.287867;
64800;6.99033e-06;3.01982;-9.59396e-08;6.83673e-06;0.835593;4.38816e-06;3.79137;-5.8968e-08;4.20333e-06;0.554191;2.60217e-06;2.24828;-3.69716e-08;2.6334e-06;0.281402;
72000;6.98954e-06;3.01948;-9.59282e-08;6.83595e-06;0.832405;4.38799e-06;3.79122;-5.89619e-08;4.20317e-06;0.553531;2.60155e-06;2.24773;-3.69663e-08;2.63278e-06;0.278874;
79200;6.98923e-06;3.01935;-9.59252e-08;6.83565e-06;0.831214;4.38793e-06;3.79117;-5.89577e-08;4.20311e-06;0.553311;2.6013e-06;2.24752;-3.69675e-08;2.63253e-06;0.277902;
86400;6.9891e-06;3.01929;-9.59254e-08;6.83552e-06;0.830773;4.3879e-06;3.79114;-5.89538e-08;4.20309e-06;0.553233;2.60121e-06;2.24744;-3.69716e-08;2.63244e-06;0.27754;
93600;6.98905e-06;3.01927;-9.59266e-08;6.83547e-06;0.830613;4.38788e-06;3.79113;-5.895e-08;4.20307e-06;0.553199;2.60117e-06;2.24741;-3.69767e-08;2.6324e-06;0.277414;
100800;6.98902e-06;3.01926;-9.59282e-08;6.83544e-06;0.830559;4.38786e-06;3.79111;-5.8946e-08;4.20306e-06;0.553179;2.60116e-06;2.2474;-3.69822e-08;2.63238e-06;0.27738;
108000;6.98899e-06;3.01924;-9.59297e-08;6.83541e-06;0.830544;4.38784e-06;3.79109;-5.89418e-08;4.20304e-06;0.553163;2.60115e-06;2.24739;-3.69879e-08;2.63237e-06;0.277381;
115200;6.98897e-06;3.01923;-9.59311e-08;6.83538e-06;0.830542;4.38782e-06;3.79108;-5.89373e-08;4.20303e-06;0.553146;2.60115e-06;2.24739;-3.69938e-08;2.63236e-06;0.277396;
122400;6.98894e-06;3.01922;-9.59323e-08;6.83536e-06;0.830545;4.3878e-06;3.79106;-5.89325e-08;4.20301e-06;0.553129;2.60114e-06;2.24739;-3.69998e-08;2.63234e-06;0.277416;
129600;6.98891e-06;3.01921;-9.59332e-08;6.83533e-06;0.830548;4.38777e-06;3.79104;-5.89275e-08;4.20299e-06;0.55311;2.60114e-06;2.24738;-3.70057e-08;2.63233e-06;0.277438;
136800;6.98887e-06;3.01919;-9.5934e-08;6.83529e-06;0.83055;4.38774e-06;3.79101;-5.89224e-08;4.20297e-06;0.553088;2.60113e-06;2.24738;-3.70116e-08;2.63232e-06;0.277461;
144000;6.98883e-06;3.01917;-9.59344e-08;6.83524e-06;0.830547;4.38771e-06;3.79098;-5.89171e-08;4.20294e-06;0.553062;2.60112e-06;2.24737;-3.70173e-08;2.63231e-06;0.277485;
151200;6.98877e-06;3.01915;-9.59345e-08;6.83519e-06;0.830535;4.38766e-06;3.79094;-5.89117e-08;4.2029e-06;0.553027;2.60111e-06;2.24736;-3.70229e-08;2.63229e-06;0.277508;
158400;6.98869e-06;3.01912;-9.59342e-08;6.83511e-06;0.830505;4.38759e-06;3.79088;-5.8906e-08;4.20284e-06;0.552975;2.6011e-06;2.24735;-3.70281e-08;2.63228e-06;0.27753;
165600;6.98858e-06;3.01907;-9.59329e-08;6.835e-06;0.830423;4.38748e-06;3.79079;-5.88997e-08;4.20273e-06;0.552872;2.60109e-06;2.24734;-3.70332e-08;2.63226e-06;0.277552;
172800;6.9883e-06;3.01894;-9.59278e-08;6.83472e-06;0.830091;4.38719e-06;3.79053;-5.88896e-08;4.20245e-06;0.552513;2.60111e-06;2.24735;-3.70382e-08;2.63227e-06;0.277578;
180000;6.97607e-06;3.01366;-9.56562e-08;6.82289e-06;0.805652;4.37303e-06;3.77829;-5.85881e-08;4.18871e-06;0.525004;2.60304e-06;2.24903;-3.70682e-08;2.63417e-06;0.280649;
187200;6.59836e-06;2.85049;-8.82374e-08;6.45575e-06;0.177493;3.94642e-06;3.40971;-5.05252e-08;3.77292e-06;-0.120643;2.65194e-06;2.29128;-3.77122e-08;2.68283e-06;0.298137;
194400;6.12492e-06;2.64597;-8.0028e-08;5.99397e-06;-0.296785;3.35788e-06;2.90121;-4.07475e-08;3.19525e-06;-0.583747;2.76704e-06;2.39072;-3.92806e-08;2.79872e-06;0.286962;
201600;6.22727e-06;2.69018;-8.21978e-08;6.09409e-06;0.378246;3.46785e-06;2.99622;-4.28486e-08;3.30079e-06;0.208256;2.75942e-06;2.38414;-3.93492e-08;2.7933e-06;0.16999;
208800;5.87595e-06;2.53841;-7.7395e-08;5.74989e-06;0.0223892;3.01354e-06;2.6037;-3.65517e-08;2.85403e-06;-0.253211;2.86242e-06;2.47313;-4.08433e-08;2.89586e-06;0.2756;
216000;5.95703e-06;2.57344;-7.89492e-08;5.82924e-06;0.497909;3.10149e-06;2.67969;-3.80655e-08;2.9387e-06;0.298162;2.85553e-06;2.46718;-4.08837e-08;2.89054e-06;0.199747;
223200;5.84632e-06;2.52561;-7.77364e-08;5.72055e-06;0.451864;2.94914e-06;2.54805;-3.61973e-08;2.78871e-06;0.185231;2.89718e-06;2.50316;-4.15391e-08;2.93184e-06;0.266633;
230400;5.67922e-06;2.45342;-7.5695e-08;5.55642e-06;0.354969;2.72265e-06;2.35237;-3.33075e-08;2.56474e-06;0.0625734;2.95658e-06;2.55448;-4.23876e-08;2.99169e-06;0.292396;
237600;5.66013e-06;2.44518;-7.46432e-08;5.53868e-06;0.519794;2.67137e-06;2.30806;-3.17617e-08;2.51377e-06;0.255564;2.98876e-06;2.58229;-4.28815e-08;3.0249e-06;0.264229;
244800;5.54152e-06;2.39394;-7.32244e-08;5.42216e-06;0.423926;2.50302e-06;2.16261;-2.96063e-08;2.34798e-06;0.0912643;3.0385e-06;2.62526;-4.36181e-08;3.07418e-06;0.332661;
252000;5.38161e-06;2.32486;-7.14132e-08;5.26485e-06;0.377236;2.27803e-06;1.96821;-2.69131e-08;2.12462e-06;0.0870508;3.10359e-06;2.6815;-4.45001e-08;3.14023e-06;0.290185;
259200;5.4018e-06;2.33358;-7.1806e-08;5.28469e-06;0.574433;2.29853e-06;1.98593;-2.72314e-08;2.14408e-06;0.316808;3.10327e-06;2.68123;-4.45746e-08;3.1406e-06;0.257625;
266400;5.4165e-06;2.33993;-7.20478e-08;5.29913e-06;0.680946;2.30261e-06;1.98946;-2.72733e-08;2.14787e-06;0.413249;3.11389e-06;2.6904;-4.47745e-08;3.15126e-06;0.267697;
273600;5.2363e-06;2.26208;-7.03424e-08;5.12137e-06;0.490785;2.05951e-06;1.77942;-2.47073e-08;1.90781e-06;0.177789;3.17678e-06;2.74474;-4.56351e-08;3.21356e-06;0.312996;
280800;5.22386e-06;2.25671;-7.03838e-08;5.10901e-06;0.59331;2.0419e-06;1.7642;-2.4642e-08;1.88987e-06;0.31755;3.18196e-06;2.74922;-4.57418e-08;3.21914e-06;0.27576;
288000;5.236e-06;2.26195;-7.06518e-08;5.12086e-06;0.685686;2.04723e-06;1.76881;-2.47772e-08;1.89474e-06;0.414891;3.18876e-06;2.75509;-4.58746e-08;3.22612e-06;0.270795;
295200;5.2288e-06;2.25884;-7.0594e-08;5.11379e-06;0.717818;2.03574e-06;1.75888;-2.46274e-08;1.88343e-06;0.441975;3.19306e-06;2.7588;-4.59665e-08;3.23035e-06;0.275844;
302400;5.19435e-06;2.24396;-7.03006e-08;5.0797e-06;0.706838;1.9773e-06;1.70839;-2.40047e-08;1.82603e-06;0.413139;3.21705e-06;2.77953;-4.6296e-08;3.25367e-06;0.293699;
309600;5.07374e-06;2.19186;-6.92513e-08;4.96062e-06;0.598681;1.82512e-06;1.57691;-2.253e-08;1.67556e-06;0.301302;3.24862e-06;2.8068;-4.67213e-08;3.28506e-06;0.297378;
316800;5.07739e-06;2.19343;-6.939e-08;4.96416e-06;0.670508;1.83014e-06;1.58124;-2.26598e-08;1.68014e-06;0.394551;3.24725e-06;2.80563;-4.67303e-08;3.28402e-06;0.275957;
324000;5.08037e-06;2.19472;-6.94342e-08;4.96708e-06;0.712499;1.82649e-06;1.57809;-2.25957e-08;1.67673e-06;0.431505;3.25388e-06;2.81136;-4.68386e-08;3.29035e-06;0.280994;
331200;5.08965e-06;2.19873;-6.95489e-08;4.97622e-06;0.748349;1.83634e-06;1.5866;-2.27032e-08;1.68642e-06;0.469719;3.25331e-06;2.81086;-4.68457e-08;3.2898e-06;0.27863;
338400;5.07479e-06;2.19231;-6.93731e-08;4.96159e-06;0.747322;1.81734e-06;1.57018;-2.24632e-08;1.66784e-06;0.465131;3.25745e-06;2.81444;-4.69099e-08;3.29376e-06;0.282191;
345600;5.05292e-06;2.18286;-6.92049e-08;4.93993e-06;0.738046;1.78531e-06;1.54251;-2.21613e-08;1.63623e-06;0.452454;3.26761e-06;2.82321;-4.70436e-08;3.3037e-06;0.285591;
352800;4.99675e-06;2.1586;-6.8658e-08;4.88449e-06;0.697982;1.7124e-06;1.47951;-2.13953e-08;1.56453e-06;0.405963;3.28435e-06;2.83768;-4.72627e-08;3.31996e-06;0.292019;
360000;4.95249e-06;2.13947;-6.83104e-08;4.84075e-06;0.677734;1.65649e-06;1.43121;-2.08986e-08;1.50924e-06;0.393597;3.29599e-06;2.84774;-4.74118e-08;3.33152e-06;0.284137;
367200;4.95789e-06;2.14181;-6.83846e-08;4.84608e-06;0.715738;1.66328e-06;1.43707;-2.098e-08;1.51586e-06;0.43828;3.29461e-06;2.84655;-4.74046e-08;3.33022e-06;0.277459;
374400;4.96333e-06;2.14416;-6.84125e-08;4.85148e-06;0.738894;1.66941e-06;1.44237;-2.10105e-08;1.52205e-06;0.460561;3.29392e-06;2.84595;-4.7402e-08;3.32943e-06;0.278332;
381600;4.96218e-06;2.14366;-6.82431e-08;4.85049e-06;0.737693;1.66663e-06;1.43997;-2.08231e-08;1.52006e-06;0.451021;3.29555e-06;2.84735;-4.742e-08;3.33043e-06;0.286672;
388800;4.85686e-06;2.09817;-6.51708e-08;4.74864e-06;0.561596;1.49215e-06;1.28922;-1.69214e-08;1.35974e-06;0.230046;3.36471e-06;2.90711;-4.82494e-08;3.3889e-06;0.33155;
396000;4.77522e-06;2.0629;-6.31482e-08;4.66931e-06;0.503883;1.3557e-06;1.17132;-1.42348e-08;1.2339e-06;0.186769;3.41952e-06;2.95447;-4.89135e-08;3.43542e-06;0.317114;
403200;4.69581e-06;2.02859;-6.15902e-08;4.59164e-06;0.45955;1.22147e-06;1.05535;-1.19906e-08;1.10871e-06;0.129514;3.47434e-06;3.00183;-4.95997e-08;3.48293e-06;0.330037;
410400;4.57698e-06;1.97725;-5.97398e-08;4.475e-06;0.380634;1.03051e-06;0.890357;-9.25243e-09;9.29276e-07;0.0402475;3.54647e-06;3.06415;-5.04874e-08;3.54572e-06;0.340386;
417600;4.48676e-06;1.93828;-5.85246e-08;4.38621e-06;0.374006;8.79578e-07;0.759955;-7.31589e-09;7.88335e-07;0.0530577;3.60718e-06;3.1166;-5.12087e-08;3.59787e-06;0.320948;
424800;4.43576e-06;1.91625;-5.79791e-08;4.33582e-06;0.434388;7.83574e-07;0.677008;-6.2561e-09;6.99529e-07;0.140265;3.65219e-06;3.15549;-5.1723e-08;3.63629e-06;0.294124;
432000;4.42532e-06;1.91174;-5.78693e-08;4.32551e-06;0.537789;7.61713e-07;0.65812;-6.05881e-09;6.79824e-07;0.266218;3.66361e-06;3.16536;-5.18105e-08;3.64568e-06;0.27157;
439200;4.41136e-06;1.90571;-5.7583e-08;4.3119e-06;0.594796;7.52234e-07;0.64993;-5.99523e-09;6.71291e-07;0.334642;3.65913e-06;3.16148;-5.15878e-08;3.64061e-06;0.260154;
446400;4.3601e-06;1.88356;-5.63147e-08;4.26227e-06;0.578215;7.64804e-07;0.660791;-6.11932e-09;6.82553e-07;0.402317;3.5953e-06;3.10634;-5.01954e-08;3.57971e-06;0.175898;
453600;4.18389e-06;1.80744;-5.31727e-08;4.0902e-06;0.408336;7.28055e-07;0.629039;-5.76375e-09;6.45505e-07;0.399202;3.45583e-06;2.98584;-4.7409e-08;3.4447e-06;0.00913384;
460800;3.90386e-06;1.68647;-4.84791e-08;3.81639e-06;0.166614;6.96114e-07;0.601442;-5.49586e-09;6.14311e-07;0.403302;3.20775e-06;2.77149;-4.29833e-08;3.20208e-06;-0.236689;
468000;3.50042e-06;1.51218;-4.19923e-08;3.42149e-06;-0.13272;6.87117e-07;0.593669;-5.41805e-09;6.05014e-07;0.419319;2.81331e-06;2.4307;-3.65743e-08;2.81647e-06;-0.552039;
475200;3.00373e-06;1.29761;-3.45397e-08;2.93458e-06;-0.396805;6.60249e-07;0.570455;-5.15868e-09;5.78246e-07;0.411416;2.34348e-06;2.02476;-2.9381e-08;2.35633e-06;-0.808221;
482400;2.58012e-06;1.11461;-2.84414e-08;2.51893e-06;-0.448271;6.29173e-07;0.543605;-4.88653e-09;5.4792e-07;0.409393;1.95095e-06;1.68562;-2.35548e-08;1.97101e-06;-0.857664;
489600;2.2846e-06;0.986949;-2.44031e-08;2.2287e-06;-0.334955;6.16624e-07;0.532763;-4.76884e-09;5.35326e-07;0.418402;1.66798e-06;1.44113;-1.96343e-08;1.69337e-06;-0.753357;
496800;2.08228e-06;0.899545;-2.17385e-08;2.02984e-06;-0.182713;6.21921e-07;0.53734;-4.82461e-09;5.4034e-07;0.439899;1.46036e-06;1.26175;-1.69139e-08;1.4895e-06;-0.622612;
504000;1.9248e-06;0.831513;-1.97406e-08;1.87493e-06;-0.0639834;6.27408e-07;0.54208;-4.88144e-09;5.45582e-07;0.452275;1.29739e-06;1.12095;-1.48591e-08;1.32935e-06;-0.516258;
511200;1.78456e-06;0.77093;-1.80357e-08;1.73686e-06;0.00426195;6.18957e-07;0.534778;-4.80861e-09;5.37341e-07;0.447301;1.1656e-06;1.00708;-1.32271e-08;1.19952e-06;-0.443039;
518400;1.66724e-06;0.720247;-1.66451e-08;1.6213e-06;0.0548892;6.12052e-07;0.528813;-4.75829e-09;5.30687e-07;0.445766;1.05519e-06;0.911681;-1.18868e-08;1.09062e-06;-0.390877;
525600;1.56267e-06;0.675072;-1.54393e-08;1.51825e-06;0.0908657;6.01171e-07;0.519412;-4.66621e-09;5.20083e-07;0.444778;9.61496e-07;0.830732;-1.07731e-08;9.98167e-07;-0.353913;
532800;1.47549e-06;0.637413;-1.44465e-08;1.43233e-06;0.119248;5.93996e-07;0.513212;-4.59176e-09;5.12958e-07;0.441175;8.81497e-07;0.761613;-9.85474e-09;9.19375e-07;-0.321927;
540000;1.39552e-06;0.602864;-1.35568e-08;1.35348e-06;0.137279;5.82427e-07;0.503217;-4.48153e-09;5.01562e-07;0.438608;8.13091e-07;0.702511;-9.07522e-09;8.51914e-07;-0.30133;
547200;1.32975e-06;0.574453;-1.28329e-08;1.28861e-06;0.153913;5.76113e-07;0.497761;-4.42189e-09;4.95319e-07;0.437888;7.5364e-07;0.651145;-8.41099e-09;7.93296e-07;-0.283975;
554400;1.27059e-06;0.548896;-1.21899e-08;1.23026e-06;0.166675;5.69114e-07;0.491714;-4.35425e-09;4.88407e-07;0.438063;7.01479e-07;0.606078;-7.83564e-09;7.41851e-07;-0.271388;
561600;1.20803e-06;0.521867;-1.1525e-08;1.16853e-06;0.164972;5.52149e-07;0.477057;-4.19048e-09;4.71697e-07;0.428546;6.55877e-07;0.566678;-7.33455e-09;6.96834e-07;-0.263574;
568800;1.14859e-06;0.496189;-1.09015e-08;1.10989e-06;0.161533;5.33189e-07;0.460675;-4.00692e-09;4.5302e-07;0.419291;6.15397e-07;0.531703;-6.89459e-09;6.56866e-07;-0.257759;
576000;1.11267e-06;0.480675;-1.05198e-08;1.07445e-06;0.182473;5.34068e-07;0.461435;-4.01543e-09;4.53864e-07;0.432757;5.78606e-07;0.499916;-6.50436e-09;6.20582e-07;-0.250284;
583200;1.07093e-06;0.462642;-1.00862e-08;1.03325e-06;0.183602;5.24853e-07;0.453473;-3.92678e-09;4.44778e-07;0.429012;5.46076e-07;0.47181;-6.15944e-09;5.88472e-07;-0.245409;
590400;1.02924e-06;0.444632;-9.65411e-09;9.92105e-07;0.182953;5.12987e-07;0.443221;-3.82357e-09;4.33269e-07;0.428642;5.16254e-07;0.446043;-5.83054e-09;5.58836e-07;-0.245689;
597600;9.95947e-07;0.430249;-9.31103e-09;9.59233e-07;0.187021;5.06813e-07;0.437886;-3.77047e-09;4.27318e-07;0.43163;4.89135e-07;0.422612;-5.54056e-09;5.31916e-07;-0.24461;
604800;9.70983e-07;0.419465;-9.05378e-09;9.34582e-07;0.198718;5.07069e-07;0.438107;-3.77512e-09;4.27598e-07;0.439594;4.63914e-07;0.400822;-5.27866e-09;5.06984e-07;-0.240876;
612000;9.50352e-07;0.410552;-8.84158e-09;9.14207e-07;0.208247;5.0939e-07;0.440113;-3.79789e-09;4.29879e-07;0.445138;4.40962e-07;0.380992;-5.04369e-09;4.84328e-07;-0.23689;
619200;9.25204e-07;0.399688;-8.5868e-09;8.89371e-07;0.205954;5.04827e-07;0.436171;-3.75732e-09;4.25436e-07;0.442404;4.20377e-07;0.363206;-4.82948e-09;4.63935e-07;-0.23645;
626400;9.03313e-07;0.390231;-8.36604e-09;8.6775e-07;0.208295;5.02091e-07;0.433807;-3.73374e-09;4.22777e-07;0.443996;4.01222e-07;0.346656;-4.6323e-09;4.44973e-07;-0.235701;
633600;8.77468e-07;0.379066;-8.10367e-09;8.42238e-07;0.201443;4.93674e-07;0.426534;-3.64904e-09;4.14497e-07;0.436176;3.83794e-07;0.331598;-4.45462e-09;4.27741e-07;-0.234733;
640800;8.53361e-07;0.368652;-7.86086e-09;8.18439e-07;0.198647;4.85653e-07;0.419604;-3.57039e-09;4.06618e-07;0.433819;3.67708e-07;0.317699;-4.29047e-09;4.1182e-07;-0.235172;
648000;8.32369e-07;0.359584;-7.65215e-09;7.97705e-07;0.199641;4.79531e-07;0.414315;-3.51396e-09;4.00621e-07;0.435457;3.52838e-07;0.304852;-4.13819e-09;3.97084e-07;-0.235816;
655200;8.19936e-07;0.354212;-7.52792e-09;7.8542e-07;0.207414;4.8119e-07;0.415748;-3.52994e-09;4.02255e-07;0.441316;3.38746e-07;0.292677;-3.99798e-09;3.83165e-07;-0.233902;
662400;7.97865e-07;0.344678;-7.31066e-09;7.63621e-07;0.20027;4.71764e-07;0.407604;-3.44226e-09;3.92999e-07;0.435605;3.26101e-07;0.281751;-3.8684e-09;3.70622e-07;-0.235335;
669600;7.86758e-07;0.339879;-7.20074e-09;7.52645e-07;0.207027;4.72966e-07;0.408643;-3.45401e-09;3.94184e-07;0.441139;3.13792e-07;0.271116;-3.74673e-09;3.58461e-07;-0.234112;
676800;7.65806e-07;0.330828;-6.9955e-09;7.31953e-07;0.200528;4.63095e-07;0.400114;-3.3613e-09;3.8448e-07;0.436098;3.02711e-07;0.261542;-3.6342e-09;3.47472e-07;-0.23557;
684000;7.45429e-07;0.322025;-6.79699e-09;7.11829e-07;0.194367;4.53087e-07;0.391467;-3.26739e-09;3.74637e-07;0.430924;2.92342e-07;0.252583;-3.5296e-09;3.37192e-07;-0.236557;
691200;7.2838e-07;0.31466;-6.63098e-09;6.94993e-07;0.192411;4.45904e-07;0.385261;-3.19962e-09;3.6757e-07;0.42933;2.82476e-07;0.24406;-3.43135e-09;3.27423e-07;-0.236919;
