#t[h];temperature[°C]
0.26182;20.61448
0.49271;19.61430
0.74801;19.30218
0.99203;19.20108
1.23623;19.21006
1.48042;19.20988
1.74801;19.30142
1.99219;19.30123
2.24818;19.40195
2.49253;19.50268
2.73705;19.70433
2.99303;19.80505
3.24900;19.89660
3.49352;20.09825
3.74985;20.40998
3.99452;20.70337
4.25083;20.99675
4.49553;21.30849
4.74022;21.61105
4.98472;21.80353
5.24070;21.90425
5.50848;22.10588
5.75282;22.19744
5.99717;22.29817
6.26478;22.39888
6.50912;22.49044
6.75347;22.59117
7.02092;22.59096
7.26528;22.70087
7.50947;22.70068
7.76544;22.79223
8.00964;22.80122
8.25381;22.79185
8.50979;22.89258
8.75399;22.90156
9.00980;22.90137
9.25414;22.99292
9.49834;23.00191
9.76578;23.00171
9.99834;23.00153
10.24266;23.08391
10.49833;22.99197
10.75431;23.09270
10.99849;23.09251
11.25431;23.09231
11.51012;23.09212
11.75429;23.08276
12.02191;23.19264
