logfile 5.0 Final evaporation rate [mm/d]: 5.96462 tEnd[d]: 4 lastRelativeChange[-]: 1.00011 velocity[m/s]: 3.5 patchSize[m]: 0.5 patchLocation[m]: 1.25
logfile 1.0 Final evaporation rate [mm/d]: 5.94667 tEnd[d]: 4 lastRelativeChange[-]: 1.00011 velocity[m/s]: 3.5 patchSize[m]: 0.5 patchLocation[m]: 1.25
logfile 0.5 Final evaporation rate [mm/d]: 5.92498 tEnd[d]: 4 lastRelativeChange[-]: 1.00011 velocity[m/s]: 3.5 patchSize[m]: 0.5 patchLocation[m]: 1.25
logfile 0.1 Final evaporation rate [mm/d]: 5.77445 tEnd[d]: 4 lastRelativeChange[-]: 1.00008 velocity[m/s]: 3.5 patchSize[m]: 0.5 patchLocation[m]: 1.25
logfile 0.05 Final evaporation rate [mm/d]: 5.63017 tEnd[d]: 4 lastRelativeChange[-]: 1.00003 velocity[m/s]: 3.5 patchSize[m]: 0.5 patchLocation[m]: 1.25
logfile 0.01 Final evaporation rate [mm/d]: 5.11698 tEnd[d]: 4 lastRelativeChange[-]: 0.99976 velocity[m/s]: 3.5 patchSize[m]: 0.5 patchLocation[m]: 1.25
logfile 0.005 Final evaporation rate [mm/d]: 4.88876 tEnd[d]: 4 lastRelativeChange[-]: 0.999445 velocity[m/s]: 3.5 patchSize[m]: 0.5 patchLocation[m]: 1.25
