logfile 93.0 Final evaporation rate [mm/d]: 10.6834 steady-state[d]: 3 lastRelativeChange[-]: 0.999232 velocity[m/s]: 3.5 patchSize[m]: 0.5 patchLocation[m]: 1.25
logfile 51.7 Final evaporation rate [mm/d]: 8.89237 steady-state[d]: 3 lastRelativeChange[-]: 0.999022 velocity[m/s]: 3.5 patchSize[m]: 0.5 patchLocation[m]: 1.25
logfile 27.3 Final evaporation rate [mm/d]: 7.65126 steady-state[d]: 3.25 lastRelativeChange[-]: 0.99919 velocity[m/s]: 3.5 patchSize[m]: 0.5 patchLocation[m]: 1.25
logfile 13.7 Final evaporation rate [mm/d]: 6.55539 steady-state[d]: 3.5 lastRelativeChange[-]: 0.999311 velocity[m/s]: 3.5 patchSize[m]: 0.5 patchLocation[m]: 1.25
logfile 6.6 Final evaporation rate [mm/d]: 5.91222 steady-state[d]: 3.5 lastRelativeChange[-]: 0.99917 velocity[m/s]: 3.5 patchSize[m]: 0.5 patchLocation[m]: 1.25
logfile 3.2 Final evaporation rate [mm/d]: 5.77578 steady-state[d]: 3.5 lastRelativeChange[-]: 0.999144 velocity[m/s]: 3.5 patchSize[m]: 0.5 patchLocation[m]: 1.25
logfile 0.0 Final evaporation rate [mm/d]: 5.80285 steady-state[d]: 3.5 lastRelativeChange[-]: 0.999162 velocity[m/s]: 3.5 patchSize[m]: 0.5 patchLocation[m]: 1.25
