logfile 8.0 Final evaporation rate [mm/d]: 1.38596 tEnd[d]: 4 lastRelativeChange[-]: 0.992258 velocity[m/s]: 0.35 patchSize[m]: 0.5 patchLocation[m]: 1.25
logfile 4.0 Final evaporation rate [mm/d]: 1.24025 tEnd[d]: 4 lastRelativeChange[-]: 0.99042 velocity[m/s]: 0.35 patchSize[m]: 0.5 patchLocation[m]: 1.25
logfile 2.0 Final evaporation rate [mm/d]: 1.21092 tEnd[d]: 4 lastRelativeChange[-]: 0.989956 velocity[m/s]: 0.35 patchSize[m]: 0.5 patchLocation[m]: 1.25
logfile 1.0 Final evaporation rate [mm/d]: 1.21725 tEnd[d]: 4 lastRelativeChange[-]: 0.990052 velocity[m/s]: 0.35 patchSize[m]: 0.5 patchLocation[m]: 1.25
logfile 0.5 Final evaporation rate [mm/d]: 1.22635 tEnd[d]: 4 lastRelativeChange[-]: 0.990182 velocity[m/s]: 0.35 patchSize[m]: 0.5 patchLocation[m]: 1.25
logfile 0.25 Final evaporation rate [mm/d]: 1.23045 tEnd[d]: 4 lastRelativeChange[-]: 0.990249 velocity[m/s]: 0.35 patchSize[m]: 0.5 patchLocation[m]: 1.25
logfile 0.0 Final evaporation rate [mm/d]: 1.21629 tEnd[d]: 4 lastRelativeChange[-]: 0.990037 velocity[m/s]: 0.35 patchSize[m]: 0.5 patchLocation[m]: 1.25
