0 1.04953e+06
0.001 1.0449e+06
0.002 1.04026e+06
0.003 1.03563e+06
0.004 1.03099e+06
0.005 1.02635e+06
0.006 1.02172e+06
0.007 1.01708e+06
0.008 1.01245e+06
0.009 1.00781e+06
0.01 1.00317e+06
0.011 998538
0.012 993902
0.013 989266
0.014 984630
0.015 979994
0.016 975358
0.017 970722
0.018 966086
0.019 961450
0.02 956814
0.021 952178
0.022 947542
0.023 942906
0.024 938270
0.025 933634
0.026 928998
0.027 924362
0.028 919726
0.029 915090
0.03 910454
0.031 905819
0.032 901183
0.033 896547
0.034 891911
0.035 887275
0.036 882639
0.037 878003
0.038 873367
0.039 868731
0.04 864095
0.041 859459
0.042 854823
0.043 850187
0.044 845551
0.045 840915
0.046 836279
0.047 831643
0.048 827007
0.049 822371
0.05 817735
0.051 813099
0.052 808463
0.053 803827
0.054 799191
0.055 794555
0.056 789919
0.057 785283
0.058 780647
0.059 776011
0.06 771375
0.061 766739
0.062 762103
0.063 757468
0.064 752832
0.065 748196
0.066 743560
0.067 738924
0.068 734288
0.069 729652
0.07 725016
0.071 720380
0.072 715744
0.073 711108
0.074 706472
0.075 701836
0.076 697200
0.077 692564
0.078 687928
0.079 683292
0.08 678656
0.081 674020
0.082 669384
0.083 664748
0.084 660112
0.085 655476
0.086 650840
0.087 646204
0.088 641568
0.089 636932
0.09 632296
0.091 627660
0.092 623024
0.093 618388
0.094 613752
0.095 609117
0.096 604481
0.097 599845
0.098 595209
0.099 590573
0.1 585937
0.101 581301
0.102 576665
0.103 572029
0.104 567393
0.105 562757
0.106 558121
0.107 553485
0.108 548849
0.109 544213
0.11 539577
0.111 534941
0.112 530305
0.113 525669
0.114 521033
0.115 516397
0.116 511761
0.117 507125
0.118 502489
0.119 497853
0.12 493217
0.121 488581
0.122 483945
0.123 479309
0.124 474673
0.125 470037
0.126 465402
0.127 460766
0.128 456130
0.129 451494
0.13 446858
0.131 442222
0.132 437586
0.133 432950
0.134 428314
0.135 423678
0.136 419042
0.137 414406
0.138 409770
0.139 405134
0.14 400498
0.141 395862
0.142 391226
0.143 386590
0.144 381954
0.145 377318
0.146 372682
0.147 368046
0.148 363410
0.149 358774
0.15 354138
0.151 349502
0.152 344866
0.153 340230
0.154 335594
0.155 330958
0.156 326322
0.157 321686
0.158 317051
0.159 312415
0.16 307779
0.161 303143
0.162 298507
0.163 293871
0.164 289235
0.165 284599
0.166 279963
0.167 275327
0.168 270691
0.169 266055
0.17 261419
0.171 256783
0.172 252147
0.173 247511
0.174 242875
0.175 238239
0.176 233603
0.177 228967
0.178 224331
0.179 219695
0.18 215059
0.181 210423
0.182 205787
0.183 201151
0.184 196515
0.185 191879
0.186 187243
0.187 182607
0.188 177971
0.189 173335
0.19 168700
0.191 164064
0.192 159428
0.193 154792
0.194 150156
0.195 145520
0.196 140884
0.197 136248
0.198 131612
0.199 126976
0.2 122343
0.201 117888
0.202 113695
0.203 109741
0.204 106010
0.205 102483
0.206 99145.3
0.207 95983.2
0.208 92983.9
0.209 90136.1
0.21 87429.1
0.211 84853.6
0.212 82400.8
0.213 80062.7
0.214 77831.9
0.215 75701.7
0.216 73665.8
0.217 71718.6
0.218 69854.8
0.219 68069.4
0.22 66358
0.221 64716.3
0.222 63140.4
0.223 61626.7
0.224 60171.9
0.225 58772.7
0.226 57426.3
0.227 56130
0.228 54881.1
0.229 53677.2
0.23 52516.3
0.231 51396.1
0.232 50314.6
0.233 49270.1
0.234 48260.8
0.235 47285
0.236 46341.3
0.237 45428.1
0.238 44544.2
0.239 43688.2
0.24 42858.8
0.241 42055.1
0.242 41275.8
0.243 40520
0.244 39786.6
0.245 39074.8
0.246 38383.7
0.247 37712.4
0.248 37060.2
0.249 36426.3
0.25 35810
0.251 35210.6
0.252 34627.6
0.253 34060.1
0.254 33507.8
0.255 32970.1
0.256 32446.3
0.257 31936.1
0.258 31438.8
0.259 30954.2
0.26 30481.6
0.261 30020.8
0.262 29571.3
0.263 29132.6
0.264 28704.6
0.265 28286.7
0.266 27878.8
0.267 27480.3
0.268 27091.1
0.269 26710.8
0.27 26339.2
0.271 25976
0.272 25620.9
0.273 25273.7
0.274 24934
0.275 24601.8
0.276 24276.8
0.277 23958.7
0.278 23647.3
0.279 23342.5
0.28 23044.1
0.281 22751.9
0.282 22465.6
0.283 22185.2
0.284 21910.4
0.285 21641.2
0.286 21377.2
0.287 21118.5
0.288 20864.9
0.289 20616.2
0.29 20372.3
0.291 20133
0.292 19898.3
0.293 19668
0.294 19442
0.295 19220.2
0.296 19002.5
0.297 18788.7
0.298 18578.9
0.299 18372.8
0.3 18170.4
0.301 17971.6
0.302 17776.3
0.303 17584.5
0.304 17395.9
0.305 17210.7
0.306 17028.6
0.307 16849.6
0.308 16673.6
0.309 16500.6
0.31 16330.4
0.311 16163.1
0.312 15998.6
0.313 15836.7
0.314 15677.5
0.315 15520.9
0.316 15366.7
0.317 15215
0.318 15065.7
0.319 14918.8
0.32 14774.2
0.321 14631.8
0.322 14491.6
0.323 14353.6
0.324 14217.6
0.325 14083.8
0.326 13951.9
0.327 13822.1
0.328 13694.1
0.329 13568.1
0.33 13443.9
0.331 13321.5
0.332 13200.9
0.333 13082
0.334 12964.9
0.335 12849.4
0.336 12735.6
0.337 12623.4
0.338 12512.7
0.339 12403.6
0.34 12296
0.341 12189.9
0.342 12085.3
0.343 11982
0.344 11880.2
0.345 11779.8
0.346 11680.7
0.347 11582.9
0.348 11486.4
0.349 11391.2
0.35 11297.3
0.351 11204.6
0.352 11113.1
0.353 11022.7
0.354 10933.6
0.355 10845.5
0.356 10758.6
0.357 10672.8
0.358 10588.1
0.359 10504.4
0.36 10421.8
0.361 10340.2
0.362 10259.6
0.363 10180
0.364 10101.4
0.365 10023.7
0.366 9947.01
0.367 9871.21
0.368 9796.31
0.369 9722.3
0.37 9649.17
0.371 9576.91
0.372 9505.49
0.373 9434.91
0.374 9365.15
0.375 9296.2
0.376 9228.04
0.377 9160.66
0.378 9094.06
0.379 9028.21
0.38 8963.1
0.381 8898.73
0.382 8835.07
0.383 8772.13
0.384 8709.88
0.385 8648.33
0.386 8587.45
0.387 8527.23
0.388 8467.67
0.389 8408.76
0.39 8350.49
0.391 8292.84
0.392 8235.8
0.393 8179.38
0.394 8123.55
0.395 8068.31
0.396 8013.66
0.397 7959.57
0.398 7906.05
0.399 7853.08
0.4 7800.67
0.401 7748.79
0.402 7697.44
0.403 7646.61
0.404 7596.3
0.405 7546.5
0.406 7497.2
0.407 7448.4
0.408 7400.08
0.409 7352.24
0.41 7304.88
0.411 7257.98
0.412 7211.54
0.413 7165.56
0.414 7120.02
0.415 7074.92
0.416 7030.27
0.417 6986.03
0.418 6942.23
0.419 6898.84
0.42 6855.86
0.421 6813.29
0.422 6771.12
0.423 6729.35
0.424 6687.96
0.425 6646.96
0.426 6606.34
0.427 6566.1
0.428 6526.23
0.429 6486.72
0.43 6447.57
0.431 6408.78
0.432 6370.34
0.433 6332.24
0.434 6294.49
0.435 6257.07
0.436 6219.99
0.437 6183.24
0.438 6146.81
0.439 6110.71
0.44 6074.92
0.441 6039.44
0.442 6004.27
0.443 5969.41
0.444 5934.85
0.445 5900.58
0.446 5866.61
0.447 5832.94
0.448 5799.54
0.449 5766.43
0.45 5733.6
0.451 5701.05
0.452 5668.77
0.453 5636.76
0.454 5605.01
0.455 5573.53
0.456 5542.31
0.457 5511.35
0.458 5480.64
0.459 5450.18
0.46 5419.97
0.461 5390
0.462 5360.28
0.463 5330.79
0.464 5301.55
0.465 5272.53
0.466 5243.75
0.467 5215.2
0.468 5186.87
0.469 5158.76
0.47 5130.88
0.471 5103.22
0.472 5075.77
0.473 5048.53
0.474 5021.5
0.475 4994.69
0.476 4968.08
0.477 4941.67
0.478 4915.47
0.479 4889.46
0.48 4863.65
0.481 4838.04
0.482 4812.62
0.483 4787.39
0.484 4762.35
0.485 4737.5
0.486 4712.83
0.487 4688.34
0.488 4664.04
0.489 4639.91
0.49 4615.96
0.491 4592.18
0.492 4568.58
0.493 4545.15
0.494 4521.89
0.495 4498.79
0.496 4475.87
0.497 4453.1
0.498 4430.5
0.499 4408.06
0.5 4385.78
0.501 4363.65
0.502 4341.68
0.503 4319.87
0.504 4298.2
0.505 4276.69
0.506 4255.33
0.507 4234.12
0.508 4213.05
0.509 4192.13
0.51 4171.35
0.511 4150.71
0.512 4130.21
0.513 4109.85
0.514 4089.63
0.515 4069.55
0.516 4049.6
0.517 4029.78
0.518 4010.1
0.519 3990.55
0.52 3971.12
0.521 3951.83
0.522 3932.66
0.523 3913.62
0.524 3894.7
0.525 3875.91
0.526 3857.24
0.527 3838.69
0.528 3820.26
0.529 3801.95
0.53 3783.76
0.531 3765.68
0.532 3747.72
0.533 3729.87
0.534 3712.14
0.535 3694.51
0.536 3677
0.537 3659.6
0.538 3642.31
0.539 3625.13
0.54 3608.05
0.541 3591.08
0.542 3574.21
0.543 3557.45
0.544 3540.79
0.545 3524.23
0.546 3507.77
0.547 3491.42
0.548 3475.16
0.549 3459
0.55 3442.94
0.551 3426.97
0.552 3411.1
0.553 3395.33
0.554 3379.65
0.555 3364.06
0.556 3348.56
0.557 3333.16
0.558 3317.85
0.559 3302.62
0.56 3287.49
0.561 3272.44
0.562 3257.48
0.563 3242.61
0.564 3227.82
0.565 3213.12
0.566 3198.5
0.567 3183.97
0.568 3169.52
0.569 3155.15
0.57 3140.86
0.571 3126.65
0.572 3112.52
0.573 3098.48
0.574 3084.51
0.575 3070.61
0.576 3056.8
0.577 3043.06
0.578 3029.4
0.579 3015.81
0.58 3002.3
0.581 2988.86
0.582 2975.5
0.583 2962.2
0.584 2948.98
0.585 2935.84
0.586 2922.76
0.587 2909.75
0.588 2896.81
0.589 2883.94
0.59 2871.14
0.591 2858.41
0.592 2845.74
0.593 2833.15
0.594 2820.61
0.595 2808.15
0.596 2795.75
0.597 2783.41
0.598 2771.14
0.599 2758.93
0.6 2746.78
0.601 2734.7
0.602 2722.68
0.603 2710.72
0.604 2698.82
0.605 2686.98
0.606 2675.2
0.607 2663.48
0.608 2651.82
0.609 2640.22
0.61 2628.67
0.611 2617.19
0.612 2605.76
0.613 2594.38
0.614 2583.07
0.615 2571.81
0.616 2560.6
0.617 2549.45
0.618 2538.35
0.619 2527.31
0.62 2516.32
0.621 2505.39
0.622 2494.5
0.623 2483.67
0.624 2472.89
0.625 2462.17
0.626 2451.49
0.627 2440.86
0.628 2430.29
0.629 2419.76
0.63 2409.29
0.631 2398.86
0.632 2388.48
0.633 2378.15
0.634 2367.87
0.635 2357.63
0.636 2347.44
0.637 2337.3
0.638 2327.21
0.639 2317.16
0.64 2307.16
0.641 2297.2
0.642 2287.29
0.643 2277.42
0.644 2267.6
0.645 2257.82
0.646 2248.08
0.647 2238.39
0.648 2228.74
0.649 2219.13
0.65 2209.57
0.651 2200.04
0.652 2190.56
0.653 2181.12
0.654 2171.72
0.655 2162.37
0.656 2153.05
0.657 2143.77
0.658 2134.53
0.659 2125.34
0.66 2116.18
0.661 2107.06
0.662 2097.97
0.663 2088.93
0.664 2079.93
0.665 2070.96
0.666 2062.03
0.667 2053.14
0.668 2044.28
0.669 2035.46
0.67 2026.68
0.671 2017.93
0.672 2009.22
0.673 2000.54
0.674 1991.9
0.675 1983.3
0.676 1974.73
0.677 1966.19
0.678 1957.69
0.679 1949.22
0.68 1940.79
0.681 1932.39
0.682 1924.02
0.683 1915.68
0.684 1907.38
0.685 1899.11
0.686 1890.87
0.687 1882.67
0.688 1874.5
0.689 1866.35
0.69 1858.24
0.691 1850.16
0.692 1842.11
0.693 1834.09
0.694 1826.11
0.695 1818.15
0.696 1810.22
0.697 1802.32
0.698 1794.45
0.699 1786.61
0.7 1778.8
0.701 1771.02
0.702 1763.26
0.703 1755.54
0.704 1747.84
0.705 1740.17
0.706 1732.53
0.707 1724.92
0.708 1717.33
0.709 1709.77
0.71 1702.24
0.711 1694.73
0.712 1687.25
0.713 1679.8
0.714 1672.37
0.715 1664.97
0.716 1657.6
0.717 1650.25
0.718 1642.92
0.719 1635.62
0.72 1628.35
0.721 1621.1
0.722 1613.87
0.723 1606.67
0.724 1599.49
0.725 1592.34
0.726 1585.21
0.727 1578.11
0.728 1571.03
0.729 1563.97
0.73 1556.93
0.731 1549.92
0.732 1542.93
0.733 1535.96
0.734 1529.02
0.735 1522.1
0.736 1515.2
0.737 1508.32
0.738 1501.46
0.739 1494.63
0.74 1487.81
0.741 1481.02
0.742 1474.25
0.743 1467.5
0.744 1460.77
0.745 1454.06
0.746 1447.37
0.747 1440.7
0.748 1434.05
0.749 1427.42
0.75 1420.81
0.751 1414.22
0.752 1407.65
0.753 1401.1
0.754 1394.57
0.755 1388.06
0.756 1381.56
0.757 1375.09
0.758 1368.63
0.759 1362.19
0.76 1355.77
0.761 1349.37
0.762 1342.99
0.763 1336.62
0.764 1330.27
0.765 1323.94
0.766 1317.63
0.767 1311.33
0.768 1305.05
0.769 1298.78
0.77 1292.54
0.771 1286.31
0.772 1280.09
0.773 1273.9
0.774 1267.72
0.775 1261.55
0.776 1255.4
0.777 1249.27
0.778 1243.15
0.779 1237.05
0.78 1230.96
0.781 1224.89
0.782 1218.83
0.783 1212.79
0.784 1206.76
0.785 1200.75
0.786 1194.75
0.787 1188.76
0.788 1182.79
0.789 1176.84
0.79 1170.89
0.791 1164.96
0.792 1159.05
0.793 1153.15
0.794 1147.26
0.795 1141.38
0.796 1135.52
0.797 1129.67
0.798 1123.84
0.799 1118.01
0.8 1112.2
0.801 1106.4
0.802 1100.61
0.803 1094.84
0.804 1089.08
0.805 1083.33
0.806 1077.59
0.807 1071.86
0.808 1066.14
0.809 1060.44
0.81 1054.74
0.811 1049.06
0.812 1043.39
0.813 1037.73
0.814 1032.07
0.815 1026.43
0.816 1020.8
0.817 1015.18
0.818 1009.57
0.819 1003.97
0.82 998.382
0.821 992.801
0.822 987.229
0.823 981.667
0.824 976.114
0.825 970.57
0.826 965.035
0.827 959.508
0.828 953.99
0.829 948.481
0.83 942.98
0.831 937.487
0.832 932.002
0.833 926.525
0.834 921.056
0.835 915.594
0.836 910.14
0.837 904.693
0.838 899.253
0.839 893.82
0.84 888.393
0.841 882.974
0.842 877.561
0.843 872.154
0.844 866.754
0.845 861.359
0.846 855.971
0.847 850.588
0.848 845.211
0.849 839.839
0.85 834.472
0.851 829.11
0.852 823.754
0.853 818.402
0.854 813.054
0.855 807.711
0.856 802.372
0.857 797.037
0.858 791.706
0.859 786.379
0.86 781.055
0.861 775.734
0.862 770.417
0.863 765.102
0.864 759.79
0.865 754.481
0.866 749.174
0.867 743.869
0.868 738.566
0.869 733.265
0.87 727.965
0.871 722.667
0.872 717.369
0.873 712.073
0.874 706.777
0.875 701.481
0.876 696.186
0.877 690.891
0.878 685.595
0.879 680.299
0.88 675.002
0.881 669.705
0.882 664.405
0.883 659.105
0.884 653.802
0.885 648.497
0.886 643.191
0.887 637.881
0.888 632.568
0.889 627.253
0.89 621.933
0.891 616.61
0.892 611.283
0.893 605.951
0.894 600.615
0.895 595.273
0.896 589.926
0.897 584.573
0.898 579.213
0.899 573.848
0.9 568.475
0.901 563.094
0.902 557.706
0.903 552.31
0.904 546.905
0.905 541.491
0.906 536.068
0.907 530.634
0.908 525.19
0.909 519.735
0.91 514.269
0.911 508.79
0.912 503.299
0.913 497.794
0.914 492.276
0.915 486.744
0.916 481.196
0.917 475.632
0.918 470.052
0.919 464.455
0.92 458.841
0.921 453.207
0.922 447.554
0.923 441.881
0.924 436.186
0.925 430.469
0.926 424.73
0.927 418.966
0.928 413.177
0.929 407.362
0.93 401.519
0.931 395.648
0.932 389.746
0.933 383.814
0.934 377.848
0.935 371.849
0.936 365.813
0.937 359.74
0.938 353.628
0.939 347.474
0.94 341.277
0.941 335.035
0.942 328.744
0.943 322.404
0.944 316.01
0.945 309.561
0.946 303.052
0.947 296.481
0.948 289.844
0.949 283.138
0.95 276.357
0.951 269.497
0.952 262.553
0.953 255.519
0.954 248.389
0.955 241.156
0.956 233.813
0.957 226.35
0.958 218.757
0.959 211.024
0.96 203.138
0.961 195.083
0.962 186.843
0.963 178.398
0.964 169.723
0.965 160.79
0.966 151.563
0.967 141.998
0.968 132.039
0.969 121.613
0.97 110.966
0.971 100.445
0.972 88.6882
0.973 74.2305
0.974 55.6068
0.975 31.3517
0.976 0
0.977 -35.3884
0.978 -70.7767
0.979 -106.165
0.98 -141.553
0.981 -176.942
0.982 -212.33
0.983 -247.719
0.984 -283.107
0.985 -318.495
0.986 -353.884
0.987 -389.272
0.988 -424.66
0.989 -460.049
0.99 -495.437
0.991 -530.825
0.992 -566.214
0.993 -601.602
0.994 -636.991
0.995 -672.379
0.996 -707.767
0.997 -743.156
0.998 -778.544
0.999 -813.932
1 -849.321
