#T[K],D[m^2/s]
273.15,2.13e-05
273.65,2.13702e-05
274.15,2.14406e-05
274.65,2.1511e-05
275.15,2.15815e-05
275.65,2.16522e-05
276.15,2.17229e-05
276.65,2.17938e-05
277.15,2.18647e-05
277.65,2.19358e-05
278.15,2.20069e-05
278.65,2.20782e-05
279.15,2.21496e-05
279.65,2.2221e-05
280.15,2.22926e-05
280.65,2.23643e-05
281.15,2.2436e-05
281.65,2.25079e-05
282.15,2.25799e-05
282.65,2.2652e-05
283.15,2.27241e-05
283.65,2.27964e-05
284.15,2.28688e-05
284.65,2.29413e-05
285.15,2.30139e-05
285.65,2.30866e-05
286.15,2.31593e-05
286.65,2.32322e-05
287.15,2.33052e-05
287.65,2.33783e-05
288.15,2.34515e-05
288.65,2.35248e-05
289.15,2.35982e-05
289.65,2.36717e-05
290.15,2.37453e-05
290.65,2.3819e-05
291.15,2.38928e-05
291.65,2.39667e-05
292.15,2.40408e-05
292.65,2.41149e-05
293.15,2.41891e-05
293.65,2.42634e-05
294.15,2.43378e-05
294.65,2.44123e-05
295.15,2.44869e-05
295.65,2.45617e-05
296.15,2.46365e-05
296.65,2.47114e-05
297.15,2.47864e-05
297.65,2.48615e-05
298.15,2.49368e-05
298.65,2.50121e-05
299.15,2.50875e-05
299.65,2.5163e-05
300.15,2.52387e-05
300.65,2.53144e-05
301.15,2.53902e-05
301.65,2.54662e-05
302.15,2.55422e-05
302.65,2.56183e-05
303.15,2.56946e-05
303.65,2.57709e-05
304.15,2.58473e-05
304.65,2.59239e-05
305.15,2.60005e-05
305.65,2.60772e-05
306.15,2.61541e-05
306.65,2.6231e-05
307.15,2.6308e-05
307.65,2.63852e-05
308.15,2.64624e-05
308.65,2.65397e-05
309.15,2.66172e-05
309.65,2.66947e-05
310.15,2.67724e-05
310.65,2.68501e-05
311.15,2.69279e-05
311.65,2.70059e-05
312.15,2.70839e-05
312.65,2.71621e-05
313.15,2.72403e-05
313.65,2.73186e-05
314.15,2.73971e-05
314.65,2.74756e-05
315.15,2.75543e-05
315.65,2.7633e-05
316.15,2.77118e-05
316.65,2.77908e-05
317.15,2.78698e-05
317.65,2.79489e-05
318.15,2.80282e-05
318.65,2.81075e-05
319.15,2.8187e-05
319.65,2.82665e-05
320.15,2.83461e-05
320.65,2.84259e-05
321.15,2.85057e-05
321.65,2.85856e-05
322.15,2.86657e-05
322.65,2.87458e-05
323.15,2.8826e-05
