#T[K],rho[kg/m^3]
273.15,1.27368
273.65,1.2713
274.15,1.26893
274.65,1.26656
275.15,1.2642
275.65,1.26184
276.15,1.2595
276.65,1.25715
277.15,1.25482
277.65,1.25249
278.15,1.25017
278.65,1.24785
279.15,1.24554
279.65,1.24324
280.15,1.24094
280.65,1.23865
281.15,1.23636
281.65,1.23408
282.15,1.2318
282.65,1.22953
283.15,1.22727
283.65,1.22501
284.15,1.22275
284.65,1.2205
285.15,1.21826
285.65,1.21602
286.15,1.21378
286.65,1.21155
287.15,1.20932
287.65,1.2071
288.15,1.20488
288.65,1.20267
289.15,1.20046
289.65,1.19825
290.15,1.19605
290.65,1.19385
291.15,1.19166
291.65,1.18947
292.15,1.18728
292.65,1.18509
293.15,1.18291
293.65,1.18073
294.15,1.17856
294.65,1.17638
295.15,1.17421
295.65,1.17205
296.15,1.16988
296.65,1.16772
297.15,1.16556
297.65,1.1634
298.15,1.16124
298.65,1.15909
299.15,1.15694
299.65,1.15478
300.15,1.15263
300.65,1.15049
301.15,1.14834
301.65,1.14619
302.15,1.14405
302.65,1.1419
303.15,1.13976
303.65,1.13761
304.15,1.13547
304.65,1.13333
305.15,1.13119
305.65,1.12904
306.15,1.1269
306.65,1.12476
307.15,1.12261
307.65,1.12047
308.15,1.11832
308.65,1.11617
309.15,1.11403
309.65,1.11188
310.15,1.10973
310.65,1.10758
311.15,1.10542
311.65,1.10327
312.15,1.10111
312.65,1.09895
313.15,1.09679
313.65,1.09462
314.15,1.09246
314.65,1.09029
315.15,1.08811
315.65,1.08594
316.15,1.08376
316.65,1.08157
317.15,1.07938
317.65,1.07719
318.15,1.075
318.65,1.0728
319.15,1.07059
319.65,1.06838
320.15,1.06617
320.65,1.06395
321.15,1.06173
321.65,1.0595
322.15,1.05726
322.65,1.05502
323.15,1.05278
