#T[K],rho[kg/m^3]
273.15,1.2713
273.65,1.26897
274.15,1.26666
274.65,1.26435
275.15,1.26206
275.65,1.25977
276.15,1.25749
276.65,1.25521
277.15,1.25295
277.65,1.25069
278.15,1.24844
278.65,1.2462
279.15,1.24397
279.65,1.24175
280.15,1.23953
280.65,1.23732
281.15,1.23512
281.65,1.23293
282.15,1.23074
282.65,1.22857
283.15,1.2264
283.65,1.22424
284.15,1.22208
284.65,1.21993
285.15,1.2178
285.65,1.21566
286.15,1.21354
286.65,1.21142
287.15,1.20931
287.65,1.20721
288.15,1.20512
288.65,1.20303
289.15,1.20095
289.65,1.19888
290.15,1.19681
290.65,1.19475
291.15,1.1927
291.65,1.19065
292.15,1.18862
292.65,1.18659
293.15,1.18456
293.65,1.18254
294.15,1.18053
294.65,1.17853
295.15,1.17653
295.65,1.17454
296.15,1.17256
296.65,1.17059
297.15,1.16862
297.65,1.16665
298.15,1.1647
298.65,1.16275
299.15,1.1608
299.65,1.15887
300.15,1.15694
300.65,1.15501
301.15,1.15309
301.65,1.15118
302.15,1.14928
302.65,1.14738
303.15,1.14549
303.65,1.1436
304.15,1.14172
304.65,1.13985
305.15,1.13798
305.65,1.13612
306.15,1.13426
306.65,1.13241
307.15,1.13057
307.65,1.12873
308.15,1.1269
308.65,1.12507
309.15,1.12325
309.65,1.12144
310.15,1.11963
310.65,1.11783
311.15,1.11603
311.65,1.11424
312.15,1.11246
312.65,1.11068
313.15,1.10891
313.65,1.10714
314.15,1.10538
314.65,1.10362
315.15,1.10187
315.65,1.10012
316.15,1.09838
316.65,1.09665
317.15,1.09492
317.65,1.0932
318.15,1.09148
318.65,1.08977
319.15,1.08806
319.65,1.08636
320.15,1.08466
320.65,1.08297
321.15,1.08128
321.65,1.0796
322.15,1.07793
322.65,1.07626
323.15,1.07459
